0
0
0
-1
-1
1
3
6
10
15
21
28
36
45
54
65
77
89
102
115
129
144
159
173
188
203
218
232
246
259
271
282
292
301
308
314
317
320
321
320
319
316
312
307
301
293
285
275
265
253
241
229
215
201
187
173
158
143
128
113
99
85
72
60
49
39
30
23
17
13
11
10
10
12
14
18
23
29
37
45
54
64
75
87
100
113
127
142
156
171
186
201
215
229
243
256
268
279
289
297
304
309
313
315
316
316
314
311
307
301
295
288
279
270
259
248
236
223
210
196
181
167
152
137
123
108
94
80
67
55
44
34
25
18
13
9
7
6
6
8
11
15
19
26
33
41
51
61
73
85
97
111
125
139
154
169
183
198
213
227
241
253
265
276
286
294
301
306
310
312
312
312
310
307
303
297
291
283
275
265
255
243
231
218
205
191
176
161
147
132
117
102
88
75
62
50
39
29
21
14
9
5
3
2
3
5
7
11
17
23
31
39
49
59
70
83
95
109
123
137
152
166
181
196
211
225
239
252
264
275
284
293
299
304
308
310
311
310
308
305
301
296
289
282
273
264
253
242
230
217
204
190
175
161
146
131
116
102
88
74
61
50
39
29
21
15
10
6
4
4
4
6
9
13
19
25
33
41
51
61
73
85
98
112
126
140
155
169
180
195
210
224
237
250
262
273
283
291
298
303
307
309
309
309
306
303
299
293
287
279
270
260
249
238
225
213
199
185
171
156
141
126
111
97
82
69
56
44
33
24
15
9
4
0
-2
-2
-1
1
4
8
13
20
28
36
46
57
68
81
94
107
121
136
150
165
180
195
210
224
237
250
262
273
282
290
297
302
305
307
307
306
304
301
296
291
284
276
267
257
247
235
223
210
196
182
167
153
138
123
108
93
79
66
53
41
30
21
13
6
1
-2
-3
-4
-3
-1
2
7
12
19
27
35
45
56
68
80
93
107
121
135
150
165
180
195
209
220
233
246
258
269
278
286
293
297
301
302
303
302
300
297
292
287
280
272
263
254
243
231
219
206
192
178
163
149
134
119
104
90
75
62
49
38
27
18
10
3
-1
-5
-6
-7
-5
-3
0
5
11
17
25
34
44
55
67
79
92
106
120
135
149
164
179
194
209
223
237
249
261
271
281
289
295
299
303
304
304
303
301
297
293
287
280
272
263
253
243
231
218
205
191
177
163
148
133
118
103
89
75
61
48
37
26
17
9
2
-3
-5
-7
-7
-6
-3
1
5
11
18
26
35
45
56
68
81
94
108
122
137
151
166
181
196
211
225
238
251
262
273
282
290
296
301
304
306
306
305
303
301
296
291
284
276
267
258
247
235
223
210
196
182
168
153
138
123
108
94
80
67
54
42
32
22
14
8
3
0
-1
-2
-1
1
4
9
14
21
29
38
48
59
70
83
96
110
124
138
153
168
183
198
213
227
240
253
264
275
284
292
298
303
305
307
307
305
303
299
295
289
282
274
265
255
243
232
219
206
192
178
163
149
134
119
104
89
75
62
49
37
27
18
