1.00 0
1.00 3
1.00 9
1.00 18
1.00 30
1.00 44
1.00 60
1.00 78
1.00 97
1.00 116
1.00 137
1.00 158
1.00 180
1.00 202
1.00 225
1.00 248
1.00 271
1.00 295
1.00 319
1.00 343
1.00 367
1.00 391
1.00 415
1.00 440
1.00 464
1.00 489
1.00 513
1.00 538
1.00 563
1.00 587
1.00 612
1.00 637
1.00 662
1.00 687
1.00 711
1.00 736
1.00 761
1.00 785
1.00 810
1.00 835
1.00 860
1.00 885
1.00 909
1.00 934
1.00 959
1.00 984
1.00 1009
1.00 1034
1.00 1059
1.00 1083
1.00 1109
1.00 1133
1.00 1158
1.00 1183
1.00 1208
1.00 1233
1.00 1258
1.00 1283
1.00 1307
1.00 1332
1.00 1357
1.00 1382
1.00 1407
1.00 1432
1.00 1457
1.00 1481
1.00 1506
1.00 1531
1.00 1556
1.00 1581
1.00 1606
1.00 1631
1.00 1655
1.00 1680
1.00 1705
1.00 1730
1.00 1755
1.00 1780
1.00 1805
1.00 1830
1.00 1855
1.00 1879
1.00 1904
1.00 1929
1.00 1954
1.00 1979
1.00 2004
1.00 2028
1.00 2053
1.00 2078
1.00 2103
1.00 2128
1.00 2153
1.00 2177
1.00 2202
1.00 2227
1.00 2252
1.00 2277
1.00 2301
1.00 2326
1.00 2351
1.00 2376
1.00 2401
1.00 2425
1.00 2450
1.00 2475
1.00 2500
1.00 2525
1.00 2549
1.00 2574
1.00 2599
1.00 2624
1.00 2649
1.00 2673
1.00 2698
1.00 2723
1.00 2748
1.00 2773
1.00 2797
1.00 2822
1.00 2847
1.00 2872
1.00 2897
1.00 2921
1.00 2946
1.00 2971
1.00 2995
1.00 3020
1.00 3045
1.00 3070
1.00 3095
1.00 3119
1.00 3144
1.00 3169
1.00 3194
1.00 3219
1.00 3243
1.00 3268
1.00 3293
1.00 3317
1.00 3342
1.00 3367
1.00 3392
1.00 3417
1.00 3441
1.00 3466
1.00 3491
1.00 3516
1.00 3541
1.00 3565
1.00 3590
1.00 3615
1.00 3640
1.00 3665
1.00 3689
1.00 3714
1.00 3739
1.00 3763
1.00 3788
1.00 3813
1.00 3838
1.00 3863
1.00 3887
1.00 3912
1.00 3937
1.00 3961
1.00 3986
1.00 4011
1.00 4035
1.00 4060
1.00 4085
1.00 4110
1.00 4135
1.00 4159
1.00 4184
1.00 4209
1.00 4233
1.00 4258
1.00 4283
1.00 4308
1.00 4332
1.00 4357
1.00 4382
1.00 4407
1.00 4431
1.00 4456
1.00 4481
1.00 4505
1.00 4530
1.00 4555
1.00 4580
1.00 4604
1.00 4629
1.00 4654
1.00 4679
1.00 4703
1.00 4728
1.00 4753
1.00 4777
1.00 4802
1.00 4827
1.00 4852
1.00 4876
1.00 4901
1.00 4926
1.00 4951
1.00 4975
1.00 5000
1.00 5025
1.00 5049
1.00 5074
1.00 5099
1.00 5123
1.00 5148
1.00 5173
1.00 5198
1.00 5223
1.00 5247
1.00 5272
1.00 5297
1.00 5321
1.00 5346
1.00 5371
1.00 5396
1.00 5420
1.00 5445
1.00 5470
1.00 5495
1.00 5519
1.00 5544
1.00 5569
1.00 5593
1.00 5618
1.00 5643
1.00 5668
1.00 5692
1.00 5717
1.00 5742
1.00 5767
1.00 5791
1.00 5816
1.00 5841
1.00 5865
1.00 5890
1.00 5915
1.00 5940
1.00 5964
1.00 5989
1.00 6014
1.00 6039
1.00 6063
1.00 6088
1.00 6113
1.00 6137
1.00 6162
1.00 6187
1.00 6212
1.00 6236
1.00 6261
1.00 6286
1.00 6311
1.00 6335
1.00 6360
1.00 6385
1.00 6410
1.00 6434
1.00 6459
1.00 6484
1.00 6509
1.00 6533
1.00 6558
1.00 6583
1.00 6607
1.00 6632
1.00 6657
1.00 6682
1.00 6707
1.00 6732
1.00 6757
1.00 6782
1.00 6807
1.00 6831
1.00 6856
1.00 6881
1.00 6906
1.00 6931
1.00 6956
1.00 6981
1.00 7006
1.00 7031
1.00 7055
1.00 7080
1.00 7105
1.00 7130
1.00 7155
1.00 7180
1.00 7205
1.00 7229
1.00 7254
1.00 7279
1.00 7304
1.00 7328
1.00 7353
1.00 7378
1.00 7403
1.00 7427
1.00 7452
1.00 7477
1.00 7502
1.00 7527
1.00 7551
1.00 7576
1.00 7601
1.00 7626
1.00 7651
1.00 7675
1.00 7700
1.00 7725
1.00 7749
1.00 7774
1.00 7799
1.00 7824
1.00 7848
1.00 7873
1.00 7898
1.00 7923
1.00 7947
1.00 7972
1.00 7997
1.00 8022
1.00 8047
1.00 8071
1.00 8096
1.00 8121
1.00 8146
1.00 8171
1.00 8195
1.00 8220
1.00 8245
1.00 8270
1.00 8295
1.00 8319
1.00 8344
1.00 8369
1.00 8394
1.00 8418
1.00 8443
1.00 8468
1.00 8493
1.00 8517
1.00 8542
1.00 8567
1.00 8592
1.00 8617
1.00 8641
1.00 8666
1.00 8691
1.00 8716
1.00 8741
1.00 8765
1.00 8790
1.00 8815
1.00 8839
1.00 8864
1.00 8889
1.00 8913
1.00 8938
1.00 8963
1.00 8988
1.00 9013
1.00 9037
1.00 9062
1.00 9087
1.00 9111
1.00 9136
1.00 9161
1.00 9186
1.00 9211
1.00 9235
1.00 9260
1.00 9285
1.00 9310
1.00 9335
1.00 9359
1.00 9384
1.00 9409
1.00 9433
1.00 9458
1.00 9483
1.00 9508
1.00 9533
1.00 9557
1.00 9582
1.00 9607
1.00 9632
1.00 9656
1.00 9681
1.00 9706
1.00 9731
1.00 9755
2.00 0
2.00 2
2.00 8
2.00 17
2.00 29
2.00 44
2.00 59
2.00 77
2.00 96
2.00 115
2.00 136
2.00 157
2.00 179
2.00 201
2.00 224
2.00 247
2.00 270
2.00 294
2.00 318
2.00 342
2.00 366
2.00 390
2.00 414
2.00 438
2.00 463
2.00 487
2.00 512
2.00 536
2.00 561
2.00 585
2.00 610
2.00 634
2.00 659
2.00 684
2.00 708
2.00 733
2.00 758
2.00 782
2.00 807
2.00 832
2.00 856
2.00 881
2.00 906
2.00 931
2.00 956
2.00 980
2.00 1005
2.00 1030
2.00 1054
2.00 1079
2.00 1104
2.00 1129
2.00 1154
2.00 1178
2.00 1203
2.00 1228
2.00 1252
2.00 1277
2.00 1302
2.00 1326
2.00 1351
2.00 1376
2.00 1401
2.00 1425
2.00 1450
2.00 1475
2.00 1500
2.00 1524
2.00 1549
2.00 1574
2.00 1598
2.00 1623
2.00 1648
2.00 1673
2.00 1697
2.00 1722
2.00 1747
2.00 1772
2.00 1796
2.00 1821
2.00 1846
2.00 1870
2.00 1895
2.00 1920
2.00 1945
2.00 1969
2.00 1994
2.00 2019
2.00 2044
2.00 2068
2.00 2093
2.00 2118
2.00 2142
2.00 2167
2.00 2192
2.00 2217
2.00 2242
2.00 2266
2.00 2291
2.00 2316
2.00 2340
2.00 2365
2.00 2390
2.00 2414
2.00 2439
2.00 2464
2.00 2489
2.00 2513
2.00 2538
2.00 2563
2.00 2588
2.00 2612
2.00 2637
2.00 2662
2.00 2686
2.00 2711
2.00 2736
2.00 2761
2.00 2786
2.00 2810
2.00 2835
2.00 2860
2.00 2884
2.00 2909
2.00 2934
2.00 2958
2.00 2983
2.00 3008
2.00 3033
2.00 3058
2.00 3082
2.00 3107
2.00 3132
2.00 3156
2.00 3181
2.00 3206
2.00 3231
2.00 3255
2.00 3280
2.00 3305
2.00 3330
2.00 3354
2.00 3379
2.00 3404
2.00 3428
2.00 3453
2.00 3478
2.00 3502
2.00 3527
2.00 3552
2.00 3577
2.00 3601
2.00 3626
2.00 3651
2.00 3676
2.00 3700
2.00 3725
2.00 3750
2.00 3775
2.00 3799
2.00 3824
2.00 3849
2.00 3874
2.00 3898
2.00 3923
2.00 3948
2.00 3972
2.00 3997
2.00 4022
2.00 4047
2.00 4071
2.00 4096
2.00 4121
2.00 4146
2.00 4170
2.00 4195
2.00 4220
2.00 4244
2.00 4269
2.00 4294
2.00 4318
2.00 4343
2.00 4368
2.00 4393
2.00 4418
2.00 4442
2.00 4467
2.00 4492
2.00 4516
2.00 4541
2.00 4566
2.00 4591
2.00 4615
2.00 4640
2.00 4665
2.00 4690
2.00 4714
2.00 4739
2.00 4764
2.00 4788
2.00 4813
2.00 4838
2.00 4863
2.00 4887
2.00 4912
2.00 4937
2.00 4962
2.00 4986
2.00 5011
2.00 5036
2.00 5060
2.00 5085
2.00 5110
2.00 5135
2.00 5159
2.00 5184
2.00 5209
2.00 5234
2.00 5258
2.00 5283
2.00 5308
2.00 5332
2.00 5357
2.00 5382
2.00 5407
2.00 5431
2.00 5456
2.00 5481
2.00 5506
2.00 5530
2.00 5555
2.00 5580
2.00 5604
2.00 5629
2.00 5654
2.00 5679
2.00 5703
2.00 5728
2.00 5753
2.00 5778
2.00 5802
2.00 5827
2.00 5852
2.00 5876
2.00 5901
2.00 5926
2.00 5951
2.00 5975
2.00 6000
2.00 6025
2.00 6050
2.00 6074
2.00 6099
2.00 6124
2.00 6148
2.00 6173
2.00 6198
2.00 6223
2.00 6247
2.00 6272
2.00 6297
2.00 6322
2.00 6346
2.00 6371
2.00 6396
2.00 6420
2.00 6445
2.00 6470
2.00 6495
2.00 6519
2.00 6544
2.00 6569
2.00 6594
2.00 6618
2.00 6643
2.00 6668
2.00 6692
2.00 6717
2.00 6742
2.00 6767
2.00 6791
2.00 6816
2.00 6841
2.00 6866
2.00 6890
2.00 6915
2.00 6940
2.00 6964
2.00 6989
2.00 7014
2.00 7039
2.00 7064
2.00 7088
2.00 7113
2.00 7138
2.00 7162
2.00 7187
2.00 7212
2.00 7236
2.00 7261
2.00 7286
2.00 7311
2.00 7335
2.00 7360
2.00 7385
2.00 7410
2.00 7434
2.00 7459
2.00 7484
2.00 7508
2.00 7533
2.00 7558
2.00 7583
2.00 7608
2.00 7632
2.00 7657
2.00 7682
2.00 7706
2.00 7731
2.00 7756
2.00 7780
2.00 7805
2.00 7830
2.00 7855
2.00 7879
2.00 7904
2.00 7929
2.00 7954
2.00 7978
2.00 8003
2.00 8028
2.00 8052
2.00 8077
2.00 8102
2.00 8127
2.00 8152
2.00 8176
2.00 8201
2.00 8226
2.00 8250
2.00 8275
2.00 8300
2.00 8325
2.00 8350
2.00 8374
2.00 8399
2.00 8424
2.00 8448
2.00 8473
2.00 8498
2.00 8522
2.00 8547
2.00 8572
2.00 8596
2.00 8621
2.00 8646
2.00 8671
2.00 8696
2.00 8720
2.00 8745
2.00 8770
2.00 8794
2.00 8819
2.00 8844
2.00 8868
2.00 8893
2.00 8918
2.00 8943
2.00 8968
2.00 8992
2.00 9017
2.00 9042
2.00 9066
2.00 9091
2.00 9116
2.00 9141
2.00 9165
2.00 9190
2.00 9215
2.00 9240
2.00 9264
2.00 9289
2.00 9314
2.00 9338
2.00 9363
2.00 9388
2.00 9413
2.00 9437
2.00 9462
2.00 9487
2.00 9512
2.00 9536
2.00 9561
2.00 9586
2.00 9610
2.00 9635
2.00 9660
2.00 9684
2.00 9709
2.00 9734
3.00 0
3.00 2
3.00 7
3.00 17
3.00 29
3.00 43
3.00 59
3.00 76
3.00 95
3.00 114
3.00 135
3.00 156
3.00 177
3.00 200
3.00 222
3.00 245
3.00 269
3.00 292
3.00 316
3.00 340
3.00 364
3.00 388
3.00 413
3.00 437
3.00 461
3.00 486
3.00 510
3.00 535
3.00 559
3.00 584
3.00 609
3.00 633
3.00 658
3.00 682
3.00 707
3.00 732
3.00 756
3.00 781
3.00 806
3.00 831
3.00 855
3.00 880
3.00 905
3.00 929
3.00 954
3.00 979
3.00 1004
3.00 1028
3.00 1053
3.00 1078
3.00 1103
3.00 1127
3.00 1152
3.00 1177
3.00 1202
3.00 1227
3.00 1251
3.00 1276
3.00 1301
3.00 1325
3.00 1350
3.00 1375
3.00 1400
3.00 1425
3.00 1449
3.00 1474
3.00 1499
3.00 1524
3.00 1549
3.00 1573
3.00 1598
3.00 1623
3.00 1647
3.00 1672
3.00 1697
3.00 1722
3.00 1746
3.00 1771
3.00 1796
3.00 1821
3.00 1845
3.00 1870
3.00 1895
3.00 1919
3.00 1944
3.00 1969
3.00 1994
3.00 2018
3.00 2043
3.00 2068
3.00 2093
3.00 2117
3.00 2142
3.00 2167
3.00 2191
3.00 2216
3.00 2241
3.00 2266
3.00 2290
3.00 2315
3.00 2340
3.00 2365
3.00 2389
3.00 2414
3.00 2439
3.00 2463
3.00 2488
3.00 2513
3.00 2538
3.00 2562
3.00 2587
3.00 2612
3.00 2637
3.00 2661
3.00 2686
3.00 2711
3.00 2735
3.00 2760
3.00 2785
3.00 2810
3.00 2834
3.00 2859
3.00 2884
3.00 2909
3.00 2933
3.00 2958
3.00 2983
3.00 3007
3.00 3032
3.00 3057
3.00 3082
3.00 3106
3.00 3131
3.00 3156
3.00 3181
3.00 3205
3.00 3230
3.00 3255
3.00 3279
3.00 3304
3.00 3329
3.00 3354
3.00 3378
3.00 3403
3.00 3428
3.00 3453
3.00 3477
3.00 3502
3.00 3527
3.00 3551
3.00 3576
3.00 3601
3.00 3626
3.00 3651
3.00 3675
3.00 3700
3.00 3725
3.00 3749
3.00 3774
3.00 3799
3.00 3823
3.00 3848
3.00 3873
3.00 3898
3.00 3922
3.00 3947
3.00 3972
3.00 3997
3.00 4021
3.00 4046
3.00 4071
3.00 4095
3.00 4120
3.00 4145
3.00 4170
3.00 4195
3.00 4219
3.00 4244
3.00 4269
3.00 4293
3.00 4318
3.00 4343
3.00 4367
3.00 4392
3.00 4417
3.00 4442
3.00 4467
3.00 4491
3.00 4516
3.00 4541
3.00 4565
3.00 4590
3.00 4615
3.00 4639
3.00 4664
3.00 4689
3.00 4714
3.00 4739
3.00 4763
3.00 4788
3.00 4813
3.00 4837
3.00 4862
3.00 4887
3.00 4911
3.00 4936
3.00 4961
3.00 4986
3.00 5011
3.00 5035
3.00 5060
3.00 5085
3.00 5109
3.00 5134
3.00 5159
3.00 5183
3.00 5208
3.00 5233
3.00 5258
3.00 5283
3.00 5307
3.00 5332
3.00 5357
3.00 5381
3.00 5406
3.00 5431
3.00 5456
3.00 5480
3.00 5505
3.00 5530
3.00 5555
3.00 5579
3.00 5604
3.00 5629
3.00 5653
3.00 5678
3.00 5703
3.00 5728
3.00 5752
3.00 5777
3.00 5802
3.00 5827
3.00 5851
3.00 5876
3.00 5901
3.00 5925
3.00 5950
3.00 5975
3.00 6000
3.00 6024
3.00 6049
3.00 6074
3.00 6099
3.00 6123
3.00 6148
3.00 6173
3.00 6197
3.00 6222
3.00 6247
3.00 6272
3.00 6296
3.00 6321
3.00 6346
3.00 6371
3.00 6395
3.00 6420
3.00 6445
3.00 6469
3.00 6494
3.00 6519
3.00 6544
3.00 6568
3.00 6593
3.00 6618
3.00 6642
3.00 6667
3.00 6692
3.00 6717
3.00 6741
3.00 6766
3.00 6791
3.00 6815
3.00 6840
3.00 6865
3.00 6890
3.00 6915
3.00 6939
3.00 6964
3.00 6989
3.00 7013
3.00 7038
3.00 7063
3.00 7088
3.00 7112
3.00 7137
3.00 7162
3.00 7187
3.00 7211
3.00 7236
3.00 7261
3.00 7285
3.00 7310
3.00 7335
3.00 7359
3.00 7384
3.00 7409
3.00 7433
3.00 7458
3.00 7483
3.00 7507
3.00 7532
3.00 7557
3.00 7582
3.00 7606
3.00 7631
3.00 7656
3.00 7680
3.00 7705
3.00 7730
3.00 7755
3.00 7779
3.00 7804
3.00 7829
3.00 7853
3.00 7878
3.00 7903
3.00 7928
3.00 7952
3.00 7977
3.00 8002
3.00 8027
3.00 8051
3.00 8076
3.00 8101
3.00 8125
3.00 8150
3.00 8175
3.00 8199
3.00 8224
3.00 8249
3.00 8274
3.00 8299
3.00 8323
3.00 8348
3.00 8373
3.00 8397
3.00 8422
3.00 8447
3.00 8472
3.00 8497
3.00 8521
3.00 8546
3.00 8571
3.00 8595
3.00 8620
3.00 8645
3.00 8670
3.00 8695
3.00 8719
3.00 8744
3.00 8769
3.00 8793
3.00 8818
3.00 8843
3.00 8867
3.00 8892
3.00 8917
3.00 8942
3.00 8966
3.00 8991
3.00 9016
3.00 9041
3.00 9065
3.00 9090
3.00 9115
3.00 9140
3.00 9165
3.00 9189
3.00 9214
3.00 9239
3.00 9264
3.00 9289
3.00 9313
3.00 9338
3.00 9363
3.00 9387
3.00 9412
3.00 9437
3.00 9462
3.00 9487
3.00 9511
3.00 9536
3.00 9561
3.00 9586
3.00 9611
3.00 9635
3.00 9660
3.00 9685
3.00 9710
3.00 9734
4.00 0
4.00 2
4.00 8
4.00 17
4.00 29
4.00 43
4.00 59
4.00 76
4.00 95
4.00 115
4.00 135
4.00 157
4.00 178
4.00 201
4.00 223
4.00 247
4.00 270
4.00 293
4.00 317
4.00 341
4.00 365
4.00 390
4.00 414
4.00 439
4.00 463
4.00 487
4.00 512
4.00 537
4.00 561
4.00 586
4.00 611
4.00 635
4.00 660
4.00 685
4.00 709
4.00 734
4.00 759
4.00 783
4.00 808
4.00 833
4.00 858
4.00 882
4.00 907
4.00 932
4.00 957
4.00 981
4.00 1006
4.00 1031
4.00 1056
4.00 1080
4.00 1105
4.00 1130
4.00 1155
4.00 1179
4.00 1204
4.00 1229
4.00 1253
4.00 1278
4.00 1303
4.00 1328
4.00 1352
4.00 1377
4.00 1402
4.00 1427
4.00 1451
4.00 1476
4.00 1501
4.00 1525
4.00 1550
4.00 1575
4.00 1600
4.00 1624
4.00 1649
4.00 1674
4.00 1699
4.00 1723
4.00 1748
4.00 1773
4.00 1797
4.00 1822
4.00 1847
4.00 1872
4.00 1896
4.00 1921
4.00 1946
4.00 1971
4.00 1995
4.00 2020
4.00 2045
4.00 2069
4.00 2094
4.00 2119
4.00 2144
4.00 2168
4.00 2193
4.00 2218
4.00 2243
4.00 2267
4.00 2292
4.00 2317
4.00 2341
4.00 2366
4.00 2391
4.00 2416
4.00 2440
4.00 2465
4.00 2490
4.00 2515
4.00 2539
4.00 2564
4.00 2589
4.00 2613
4.00 2638
4.00 2663
4.00 2688
4.00 2713
4.00 2737
4.00 2762
4.00 2787
4.00 2811
4.00 2836
4.00 2861
4.00 2885
4.00 2910
4.00 2935
4.00 2960
4.00 2985
4.00 3009
4.00 3034
4.00 3059
4.00 3083
4.00 3108
4.00 3133
4.00 3157
4.00 3182
4.00 3207
4.00 3232
4.00 3257
4.00 3281
4.00 3306
4.00 3331
4.00 3355
4.00 3380
4.00 3405
4.00 3429
4.00 3454
4.00 3479
4.00 3504
4.00 3529
4.00 3553
4.00 3578
4.00 3603
4.00 3627
4.00 3652
4.00 3677
4.00 3701
4.00 3726
4.00 3751
4.00 3776
4.00 3800
4.00 3825
4.00 3850
4.00 3875
4.00 3899
4.00 3924
4.00 3949
4.00 3973
4.00 3998
4.00 4023
4.00 4048
4.00 4073
4.00 4097
4.00 4122
4.00 4147
4.00 4171
4.00 4196
4.00 4221
4.00 4245
4.00 4270
4.00 4295
4.00 4320
4.00 4345
4.00 4369
4.00 4394
4.00 4419
4.00 4443
4.00 4468
4.00 4493
4.00 4517
4.00 4542
4.00 4567
4.00 4592
4.00 4617
4.00 4641
4.00 4666
4.00 4691
4.00 4715
4.00 4740
4.00 4765
4.00 4789
4.00 4814
4.00 4839
4.00 4864
4.00 4889
4.00 4913
4.00 4938
4.00 4963
4.00 4987
4.00 5012
4.00 5037
4.00 5062
4.00 5086
4.00 5111
4.00 5136
4.00 5161
4.00 5185
4.00 5210
4.00 5235
4.00 5259
4.00 5284
4.00 5309
4.00 5334
4.00 5358
4.00 5383
4.00 5408
4.00 5433
4.00 5457
4.00 5482
4.00 5507
4.00 5531
4.00 5556
4.00 5581
4.00 5605
4.00 5630
4.00 5655
4.00 5680
4.00 5705
4.00 5729
4.00 5754
4.00 5779
4.00 5803
4.00 5828
4.00 5853
4.00 5878
4.00 5902
4.00 5927
4.00 5952
4.00 5977
4.00 6001
4.00 6026
4.00 6051
4.00 6075
4.00 6100
4.00 6125
4.00 6149
4.00 6174
4.00 6199
4.00 6224
4.00 6249
4.00 6273
4.00 6298
4.00 6323
4.00 6347
4.00 6372
4.00 6397
4.00 6421
4.00 6446
4.00 6471
4.00 6496
4.00 6521
4.00 6545
4.00 6570
4.00 6595
4.00 6619
4.00 6644
4.00 6669
4.00 6694
4.00 6718
4.00 6743
4.00 6768
4.00 6793
4.00 6817
4.00 6842
4.00 6867
4.00 6891
4.00 6916
4.00 6941
4.00 6966
4.00 6990
4.00 7015
4.00 7040
4.00 7065
4.00 7089
4.00 7114
4.00 7139
4.00 7163
4.00 7188
4.00 7213
4.00 7238
4.00 7262
4.00 7287
4.00 7312
4.00 7337
4.00 7361
4.00 7386
4.00 7411
4.00 7435
4.00 7460
4.00 7485
4.00 7510
4.00 7534
4.00 7559
4.00 7584
4.00 7609
4.00 7633
4.00 7658
4.00 7683
4.00 7707
4.00 7732
4.00 7757
4.00 7782
4.00 7806
4.00 7831
4.00 7856
4.00 7881
4.00 7905
4.00 7930
4.00 7955
4.00 7979
4.00 8004
4.00 8029
4.00 8054
4.00 8079
4.00 8103
4.00 8128
4.00 8153
4.00 8177
4.00 8202
4.00 8227
4.00 8251
4.00 8276
4.00 8301
4.00 8326
4.00 8350
4.00 8375
4.00 8400
4.00 8425
4.00 8449
4.00 8474
4.00 8499
4.00 8523
4.00 8548
4.00 8573
4.00 8598
4.00 8622
4.00 8647
4.00 8672
4.00 8697
4.00 8721
4.00 8746
4.00 8771
4.00 8795
4.00 8820
4.00 8845
4.00 8870
4.00 8895
4.00 8919
4.00 8944
4.00 8969
4.00 8993
4.00 9018
4.00 9043
4.00 9067
4.00 9092
4.00 9117
4.00 9142
4.00 9167
4.00 9191
4.00 9216
4.00 9241
4.00 9265
4.00 9290
4.00 9315
4.00 9339
4.00 9364
4.00 9389
4.00 9414
4.00 9438
4.00 9463
4.00 9488
4.00 9513
4.00 9537
4.00 9562
4.00 9587
4.00 9612
4.00 9636
4.00 9661
4.00 9686
4.00 9711
4.00 9735
5.00 0
5.00 2
5.00 8
5.00 18
5.00 30
5.00 44
5.00 60
5.00 78
5.00 96
5.00 116
5.00 137
5.00 158
5.00 180
5.00 202
5.00 225
5.00 248
5.00 271
5.00 295
5.00 318
5.00 342
5.00 367
5.00 391
5.00 415
5.00 440
5.00 464
5.00 488
5.00 513
5.00 538
5.00 562
5.00 587
5.00 611
5.00 636
5.00 661
5.00 685
5.00 710
5.00 735
5.00 759
5.00 784
5.00 809
5.00 834
5.00 858
5.00 883
5.00 908
5.00 933
5.00 957
5.00 982
5.00 1007
5.00 1032
5.00 1056
5.00 1081
5.00 1106
5.00 1130
5.00 1155
5.00 1180
5.00 1205
5.00 1230
5.00 1254
5.00 1279
5.00 1304
5.00 1329
5.00 1354
5.00 1378
5.00 1403
5.00 1428
5.00 1453
5.00 1478
5.00 1502
5.00 1527
5.00 1552
5.00 1577
5.00 1602
5.00 1627
5.00 1652
5.00 1676
5.00 1701
5.00 1726
5.00 1751
5.00 1776
5.00 1800
5.00 1825
5.00 1850
5.00 1875
5.00 1900
5.00 1924
5.00 1949
5.00 1974
5.00 1999
5.00 2024
5.00 2049
5.00 2073
5.00 2098
5.00 2123
5.00 2148
5.00 2172
5.00 2197
5.00 2222
5.00 2247
5.00 2272
5.00 2296
5.00 2321
5.00 2346
5.00 2371
5.00 2396
5.00 2420
5.00 2445
5.00 2470
5.00 2495
5.00 2519
5.00 2544
5.00 2569
5.00 2594
5.00 2619
5.00 2644
5.00 2668
5.00 2693
5.00 2718
5.00 2743
5.00 2767
5.00 2792
5.00 2817
5.00 2842
5.00 2867
5.00 2891
5.00 2916
5.00 2941
5.00 2966
5.00 2990
5.00 3015
5.00 3040
5.00 3065
5.00 3090
5.00 3114
5.00 3139
5.00 3164
5.00 3189
5.00 3214
5.00 3239
5.00 3264
5.00 3288
5.00 3313
5.00 3338
5.00 3363
5.00 3388
5.00 3412
5.00 3437
5.00 3462
5.00 3487
5.00 3512
5.00 3537
5.00 3562
5.00 3586
5.00 3611
5.00 3636
5.00 3661
5.00 3686
5.00 3710
5.00 3735
5.00 3760
5.00 3785
5.00 3810
5.00 3834
5.00 3859
5.00 3884
5.00 3909
5.00 3934
5.00 3959
5.00 3983
5.00 4008
5.00 4033
5.00 4058
5.00 4083
5.00 4108
5.00 4132
5.00 4157
5.00 4182
5.00 4207
5.00 4232
5.00 4256
5.00 4281
5.00 4306
5.00 4331
5.00 4356
5.00 4380
5.00 4405
5.00 4430
5.00 4455
5.00 4480
5.00 4504
5.00 4529
5.00 4554
5.00 4579
5.00 4604
5.00 4628
5.00 4653
5.00 4678
5.00 4703
5.00 4728
5.00 4752
5.00 4777
5.00 4802
5.00 4827
5.00 4852
5.00 4876
5.00 4901
5.00 4926
5.00 4951
5.00 4976
5.00 5000
5.00 5025
5.00 5050
5.00 5075
5.00 5100
5.00 5125
5.00 5149
5.00 5174
5.00 5199
5.00 5224
5.00 5249
5.00 5274
5.00 5298
5.00 5323
5.00 5348
5.00 5373
5.00 5398
5.00 5422
5.00 5447
5.00 5472
5.00 5497
5.00 5522
5.00 5547
5.00 5572
5.00 5596
5.00 5621
5.00 5646
5.00 5671
5.00 5696
5.00 5720
5.00 5745
5.00 5770
5.00 5795
5.00 5820
5.00 5845
5.00 5870
5.00 5894
5.00 5919
5.00 5944
5.00 5969
5.00 5994
5.00 6018
5.00 6043
5.00 6068
5.00 6093
5.00 6118
5.00 6142
5.00 6167
5.00 6192
5.00 6217
5.00 6242
5.00 6266
5.00 6291
5.00 6316
5.00 6341
5.00 6366
5.00 6390
5.00 6415
5.00 6440
5.00 6465
5.00 6490
5.00 6514
5.00 6539
5.00 6564
5.00 6589
5.00 6614
5.00 6639
5.00 6664
5.00 6688
5.00 6713
5.00 6738
5.00 6763
5.00 6788
5.00 6813
5.00 6838
5.00 6863
5.00 6888
5.00 6912
5.00 6937
5.00 6962
5.00 6987
5.00 7012
5.00 7037
5.00 7062
5.00 7086
5.00 7111
5.00 7136
5.00 7161
5.00 7186
5.00 7211
5.00 7236
5.00 7261
5.00 7286
5.00 7310
5.00 7335
5.00 7360
5.00 7385
5.00 7410
5.00 7435
5.00 7460
5.00 7484
5.00 7509
5.00 7534
5.00 7559
5.00 7584
5.00 7609
5.00 7633
5.00 7658
5.00 7683
5.00 7708
5.00 7733
5.00 7758
5.00 7782
5.00 7807
5.00 7832
5.00 7857
5.00 7882
5.00 7907
5.00 7932
5.00 7956
5.00 7981
5.00 8006
5.00 8031
5.00 8056
5.00 8081
5.00 8106
5.00 8130
5.00 8155
5.00 8180
5.00 8205
5.00 8230
5.00 8254
5.00 8279
5.00 8304
5.00 8329
5.00 8354
5.00 8379
5.00 8404
5.00 8428
5.00 8453
5.00 8478
5.00 8503
5.00 8528
5.00 8552
5.00 8577
5.00 8602
5.00 8627
5.00 8652
5.00 8677
5.00 8701
5.00 8726
5.00 8751
5.00 8776
5.00 8801
5.00 8826
5.00 8850
5.00 8875
5.00 8900
5.00 8925
5.00 8950
5.00 8974
5.00 8999
5.00 9024
5.00 9049
5.00 9074
5.00 9099
5.00 9124
5.00 9148
5.00 9173
5.00 9198
5.00 9223
5.00 9248
5.00 9273
5.00 9298
5.00 9322
5.00 9347
5.00 9372
5.00 9397
5.00 9422
5.00 9447
5.00 9472
5.00 9496
5.00 9521
5.00 9546
5.00 9571
5.00 9596
5.00 9620
5.00 9645
5.00 9670
5.00 9695
5.00 9720
5.00 9745
5.00 9770
6.00 0
6.00 2
6.00 8
6.00 17
6.00 29
6.00 43
6.00 59
6.00 76
6.00 95
6.00 115
6.00 136
6.00 157
6.00 179
6.00 201
6.00 224
6.00 247
6.00 270
6.00 294
6.00 318
6.00 342
6.00 366
6.00 390
6.00 414
6.00 439
6.00 463
6.00 488
6.00 512
6.00 536
6.00 561
6.00 586
6.00 610
6.00 635
6.00 660
6.00 684
6.00 709
6.00 734
6.00 758
6.00 783
6.00 808
6.00 833
6.00 858
6.00 882
6.00 907
6.00 932
6.00 956
6.00 981
6.00 1006
6.00 1031
6.00 1055
6.00 1080
6.00 1105
6.00 1130
6.00 1154
6.00 1179
6.00 1204
6.00 1228
6.00 1253
6.00 1278
6.00 1303
6.00 1327
6.00 1352
6.00 1377
6.00 1402
6.00 1426
6.00 1451
6.00 1476
6.00 1500
6.00 1525
6.00 1550
6.00 1575
6.00 1600
6.00 1624
6.00 1649
6.00 1674
6.00 1698
6.00 1723
6.00 1748
6.00 1772
6.00 1797
6.00 1822
6.00 1847
6.00 1871
6.00 1896
6.00 1921
6.00 1946
6.00 1970
6.00 1995
6.00 2020
6.00 2044
6.00 2069
6.00 2094
6.00 2119
6.00 2144
6.00 2168
6.00 2193
6.00 2218
6.00 2242
6.00 2267
6.00 2292
6.00 2316
6.00 2341
6.00 2366
6.00 2391
6.00 2416
6.00 2440
6.00 2465
6.00 2490
6.00 2514
6.00 2539
6.00 2564
6.00 2588
6.00 2613
6.00 2638
6.00 2663
6.00 2688
6.00 2712
6.00 2737
6.00 2762
6.00 2786
6.00 2811
6.00 2836
6.00 2860
6.00 2885
6.00 2910
6.00 2935
6.00 2960
6.00 2984
6.00 3009
6.00 3034
6.00 3058
6.00 3083
6.00 3108
6.00 3132
6.00 3157
6.00 3182
6.00 3207
6.00 3232
6.00 3256
6.00 3281
6.00 3306
6.00 3330
6.00 3355
6.00 3380
6.00 3404
6.00 3429
6.00 3454
6.00 3479
6.00 3504
6.00 3528
6.00 3553
6.00 3578
6.00 3602
6.00 3627
6.00 3652
6.00 3677
6.00 3702
6.00 3726
6.00 3751
6.00 3776
6.00 3800
6.00 3825
6.00 3850
6.00 3875
6.00 3900
6.00 3925
6.00 3949
6.00 3974
6.00 3999
6.00 4024
6.00 4049
6.00 4074
6.00 4098
6.00 4123
6.00 4148
6.00 4173
6.00 4198
6.00 4222
6.00 4247
6.00 4272
6.00 4297
6.00 4322
6.00 4346
6.00 4371
6.00 4396
6.00 4421
6.00 4446
6.00 4470
6.00 4495
6.00 4520
6.00 4545
6.00 4570
6.00 4595
6.00 4620
6.00 4644
6.00 4669
6.00 4694
6.00 4719
6.00 4744
6.00 4768
6.00 4793
6.00 4818
6.00 4843
6.00 4868
6.00 4893
6.00 4918
6.00 4942
6.00 4967
6.00 4992
6.00 5017
6.00 5042
6.00 5066
6.00 5091
6.00 5116
6.00 5141
6.00 5166
6.00 5191
6.00 5216
6.00 5240
6.00 5265
6.00 5290
6.00 5315
6.00 5340
6.00 5364
6.00 5389
6.00 5414
6.00 5439
6.00 5464
6.00 5488
6.00 5513
6.00 5538
6.00 5563
6.00 5588
6.00 5612
6.00 5637
6.00 5662
6.00 5687
6.00 5712
6.00 5737
6.00 5762
6.00 5786
6.00 5811
6.00 5836
6.00 5861
6.00 5886
6.00 5910
6.00 5935
6.00 5960
6.00 5985
6.00 6010
6.00 6035
6.00 6060
6.00 6084
6.00 6109
6.00 6134
6.00 6159
6.00 6184
6.00 6208
6.00 6233
6.00 6258
6.00 6283
6.00 6308
6.00 6332
6.00 6357
6.00 6382
6.00 6407
6.00 6432
6.00 6456
6.00 6481
6.00 6506
6.00 6531
6.00 6556
6.00 6580
6.00 6605
6.00 6630
6.00 6655
6.00 6680
6.00 6705
6.00 6730
6.00 6754
6.00 6779
6.00 6804
6.00 6829
6.00 6854
6.00 6878
6.00 6903
6.00 6928
6.00 6953
6.00 6978
6.00 7002
6.00 7027
6.00 7052
6.00 7077
6.00 7102
6.00 7126
6.00 7151
6.00 7176
6.00 7201
6.00 7225
6.00 7250
6.00 7275
6.00 7300
6.00 7324
6.00 7349
6.00 7374
6.00 7399
6.00 7424
6.00 7448
6.00 7473
6.00 7498
6.00 7523
6.00 7548
6.00 7572
6.00 7597
6.00 7622
6.00 7647
6.00 7672
6.00 7696
6.00 7721
6.00 7746
6.00 7771
6.00 7795
6.00 7820
6.00 7845
6.00 7870
6.00 7894
6.00 7919
6.00 7944
6.00 7969
6.00 7994
6.00 8018
6.00 8043
6.00 8068
6.00 8093
6.00 8118
6.00 8142
6.00 8167
6.00 8192
6.00 8216
6.00 8241
6.00 8266
6.00 8291
6.00 8316
6.00 8340
6.00 8365
6.00 8390
6.00 8415
6.00 8440
6.00 8464
6.00 8489
6.00 8514
6.00 8539
6.00 8564
6.00 8589
6.00 8614
6.00 8638
6.00 8663
6.00 8688
6.00 8713
6.00 8738
6.00 8763
6.00 8788
6.00 8812
6.00 8837
6.00 8862
6.00 8887
6.00 8912
6.00 8936
6.00 8961
6.00 8986
6.00 9011
6.00 9036
6.00 9061
6.00 9085
6.00 9110
6.00 9135
6.00 9160
6.00 9185
6.00 9210
6.00 9234
6.00 9259
6.00 9284
6.00 9309
6.00 9334
6.00 9358
6.00 9383
6.00 9408
6.00 9433
6.00 9458
6.00 9483
6.00 9507
6.00 9532
6.00 9557
6.00 9582
6.00 9607
6.00 9631
6.00 9656
6.00 9681
6.00 9706
6.00 9731
6.00 9755
7.00 0
7.00 2
7.00 8
7.00 17
7.00 29
7.00 43
7.00 59
7.00 76
7.00 95
7.00 114
7.00 135
7.00 156
7.00 178
7.00 200
7.00 223
7.00 246
7.00 269
7.00 293
7.00 317
7.00 341
7.00 365
7.00 389
7.00 413
7.00 437
7.00 462
7.00 486
7.00 511
7.00 535
7.00 560
7.00 585
7.00 609
7.00 634
7.00 659
7.00 683
7.00 708
7.00 733
7.00 757
7.00 782
7.00 807
7.00 832
7.00 857
7.00 881
7.00 906
7.00 931
7.00 956
7.00 980
7.00 1005
7.00 1030
7.00 1055
7.00 1079
7.00 1104
7.00 1129
7.00 1154
7.00 1179
7.00 1203
7.00 1228
7.00 1253
7.00 1278
7.00 1303
7.00 1327
7.00 1352
7.00 1377
7.00 1402
7.00 1427
7.00 1451
7.00 1476
7.00 1501
7.00 1526
7.00 1550
7.00 1575
7.00 1600
7.00 1625
7.00 1650
7.00 1675
7.00 1699
7.00 1724
7.00 1749
7.00 1774
7.00 1799
7.00 1823
7.00 1848
7.00 1873
7.00 1898
7.00 1923
7.00 1947
7.00 1972
7.00 1997
7.00 2022
7.00 2047
7.00 2071
7.00 2096
7.00 2121
7.00 2146
7.00 2171
7.00 2195
7.00 2220
7.00 2245
7.00 2270
7.00 2295
7.00 2319
7.00 2344
7.00 2369
7.00 2394
7.00 2418
7.00 2443
7.00 2468
7.00 2493
7.00 2517
7.00 2542
7.00 2567
7.00 2592
7.00 2617
7.00 2641
7.00 2666
7.00 2691
7.00 2716
7.00 2741
7.00 2765
7.00 2790
7.00 2815
7.00 2840
7.00 2865
7.00 2889
7.00 2914
7.00 2939
7.00 2964
7.00 2988
7.00 3013
7.00 3038
7.00 3062
7.00 3087
7.00 3112
7.00 3137
7.00 3161
7.00 3186
7.00 3211
7.00 3235
7.00 3260
7.00 3285
7.00 3309
7.00 3334
7.00 3359
7.00 3383
7.00 3408
7.00 3433
7.00 3458
7.00 3483
7.00 3507
7.00 3532
7.00 3557
7.00 3581
7.00 3606
7.00 3631
7.00 3656
7.00 3681
7.00 3705
7.00 3730
7.00 3755
7.00 3779
7.00 3804
7.00 3829
7.00 3854
7.00 3879
7.00 3903
7.00 3928
7.00 3953
7.00 3977
7.00 4002
7.00 4027
7.00 4051
7.00 4076
7.00 4101
7.00 4126
7.00 4150
7.00 4175
7.00 4200
7.00 4225
7.00 4249
7.00 4274
7.00 4299
7.00 4323
7.00 4348
7.00 4373
7.00 4398
7.00 4422
7.00 4447
7.00 4472
7.00 4496
7.00 4521
7.00 4546
7.00 4571
7.00 4595
7.00 4620
7.00 4645
7.00 4669
7.00 4694
7.00 4719
7.00 4743
7.00 4768
7.00 4793
7.00 4817
7.00 4842
7.00 4867
7.00 4892
7.00 4916
7.00 4941
7.00 4965
7.00 4990
7.00 5015
7.00 5040
7.00 5064
7.00 5089
7.00 5114
7.00 5138
7.00 5163
7.00 5188
7.00 5212
7.00 5237
7.00 5262
7.00 5287
7.00 5311
7.00 5336
7.00 5361
7.00 5385
7.00 5410
7.00 5435
7.00 5459
7.00 5484
7.00 5509
7.00 5534
7.00 5558
7.00 5583
7.00 5608
7.00 5633
7.00 5657
7.00 5682
7.00 5707
7.00 5732
7.00 5757
7.00 5781
7.00 5806
7.00 5831
7.00 5855
7.00 5880
7.00 5905
7.00 5930
7.00 5954
7.00 5979
7.00 6004
7.00 6028
7.00 6053
7.00 6078
7.00 6103
7.00 6127
7.00 6152
7.00 6177
7.00 6201
7.00 6226
7.00 6251
7.00 6276
7.00 6300
7.00 6325
7.00 6350
7.00 6375
7.00 6399
7.00 6424
7.00 6449
7.00 6474
7.00 6498
7.00 6523
7.00 6548
7.00 6573
7.00 6597
7.00 6622
7.00 6647
7.00 6671
7.00 6696
7.00 6721
7.00 6745
7.00 6770
7.00 6795
7.00 6819
7.00 6844
7.00 6869
7.00 6894
7.00 6918
7.00 6943
7.00 6968
7.00 6993
7.00 7017
7.00 7042
7.00 7067
7.00 7091
7.00 7116
7.00 7141
7.00 7166
7.00 7190
7.00 7215
7.00 7240
7.00 7265
7.00 7289
7.00 7314
7.00 7339
7.00 7364
7.00 7389
7.00 7413
7.00 7438
7.00 7463
7.00 7487
7.00 7512
7.00 7537
7.00 7561
7.00 7586
7.00 7611
7.00 7636
7.00 7660
7.00 7685
7.00 7710
7.00 7735
7.00 7759
7.00 7784
7.00 7809
7.00 7833
7.00 7858
7.00 7883
7.00 7907
7.00 7932
7.00 7957
7.00 7981
7.00 8006
7.00 8031
7.00 8055
7.00 8080
7.00 8105
7.00 8129
7.00 8154
7.00 8179
7.00 8203
7.00 8228
7.00 8253
7.00 8277
7.00 8302
7.00 8327
7.00 8351
7.00 8376
7.00 8401
7.00 8425
7.00 8450
7.00 8474
7.00 8499
7.00 8524
7.00 8549
7.00 8573
7.00 8598
7.00 8623
7.00 8647
7.00 8672
7.00 8697
7.00 8721
7.00 8746
7.00 8771
7.00 8795
7.00 8820
7.00 8845
7.00 8869
7.00 8894
7.00 8919
7.00 8943
7.00 8968
7.00 8993
7.00 9017
7.00 9042
7.00 9067
7.00 9091
7.00 9116
7.00 9141
7.00 9165
7.00 9190
7.00 9215
7.00 9239
7.00 9264
7.00 9289
7.00 9313
7.00 9338
7.00 9363
7.00 9387
7.00 9412
7.00 9437
7.00 9461
7.00 9486
7.00 9511
7.00 9536
7.00 9561
7.00 9585
7.00 9610
7.00 9635
7.00 9659
7.00 9684
7.00 9709
7.00 9734
8.00 0
8.00 2
8.00 8
8.00 17
8.00 29
8.00 43
8.00 60
8.00 77
8.00 96
8.00 115
8.00 136
8.00 157
8.00 179
8.00 201
8.00 224
8.00 247
8.00 270
8.00 294
8.00 318
8.00 341
8.00 366
8.00 390
8.00 414
8.00 438
8.00 463
8.00 487
8.00 512
8.00 536
8.00 560
8.00 585
8.00 610
8.00 634
8.00 659
8.00 684
8.00 708
8.00 733
8.00 758
8.00 782
8.00 807
8.00 832
8.00 856
8.00 881
8.00 906
8.00 930
8.00 955
8.00 980
8.00 1004
8.00 1029
8.00 1054
8.00 1078
8.00 1103
8.00 1128
8.00 1152
8.00 1177
8.00 1202
8.00 1226
8.00 1251
8.00 1276
8.00 1300
8.00 1325
8.00 1350
8.00 1374
8.00 1399
8.00 1424
8.00 1448
8.00 1473
8.00 1498
8.00 1523
8.00 1547
8.00 1572
8.00 1596
8.00 1621
8.00 1646
8.00 1670
8.00 1695
8.00 1720
8.00 1744
8.00 1769
8.00 1794
8.00 1818
8.00 1843
8.00 1868
8.00 1892
8.00 1917
8.00 1942
8.00 1966
8.00 1991
8.00 2016
8.00 2040
8.00 2065
8.00 2090
8.00 2114
8.00 2139
8.00 2164
8.00 2188
8.00 2213
8.00 2238
8.00 2262
8.00 2287
8.00 2312
8.00 2336
8.00 2361
8.00 2386
8.00 2410
8.00 2435
8.00 2460
8.00 2484
8.00 2509
8.00 2534
8.00 2558
8.00 2583
8.00 2608
8.00 2632
8.00 2657
8.00 2682
8.00 2707
8.00 2731
8.00 2756
8.00 2781
8.00 2805
8.00 2830
8.00 2855
8.00 2880
8.00 2904
8.00 2929
8.00 2954
8.00 2978
8.00 3003
8.00 3028
8.00 3052
8.00 3077
8.00 3101
8.00 3126
8.00 3151
8.00 3175
8.00 3200
8.00 3225
8.00 3249
8.00 3274
8.00 3299
8.00 3323
8.00 3348
8.00 3373
8.00 3397
8.00 3422
8.00 3447
8.00 3471
8.00 3496
8.00 3520
8.00 3545
8.00 3570
8.00 3594
8.00 3619
8.00 3644
8.00 3668
8.00 3693
8.00 3718
8.00 3742
8.00 3767
8.00 3792
8.00 3816
8.00 3841
8.00 3866
8.00 3890
8.00 3915
8.00 3940
8.00 3964
8.00 3989
8.00 4014
8.00 4038
8.00 4063
8.00 4088
8.00 4112
8.00 4137
8.00 4162
8.00 4186
8.00 4211
8.00 4236
8.00 4260
8.00 4285
8.00 4310
8.00 4334
8.00 4359
8.00 4384
8.00 4408
8.00 4433
8.00 4458
8.00 4482
8.00 4507
8.00 4532
8.00 4556
8.00 4581
8.00 4606
8.00 4630
8.00 4655
8.00 4680
8.00 4704
8.00 4729
8.00 4754
8.00 4778
8.00 4803
8.00 4828
8.00 4852
8.00 4877
8.00 4901
8.00 4926
8.00 4951
8.00 4976
8.00 5000
8.00 5025
8.00 5049
8.00 5074
8.00 5099
8.00 5124
8.00 5148
8.00 5173
8.00 5198
8.00 5222
8.00 5247
8.00 5272
8.00 5296
8.00 5321
8.00 5346
8.00 5370
8.00 5395
8.00 5420
8.00 5444
8.00 5469
8.00 5494
8.00 5518
8.00 5543
8.00 5567
8.00 5592
8.00 5617
8.00 5641
8.00 5666
8.00 5691
8.00 5715
8.00 5740
8.00 5764
8.00 5789
8.00 5814
8.00 5839
8.00 5863
8.00 5888
8.00 5913
8.00 5937
8.00 5962
8.00 5987
8.00 6011
8.00 6036
8.00 6061
8.00 6085
8.00 6110
8.00 6135
8.00 6159
8.00 6184
8.00 6208
8.00 6233
8.00 6258
8.00 6282
8.00 6307
8.00 6332
8.00 6357
8.00 6381
8.00 6406
8.00 6431
8.00 6455
8.00 6480
8.00 6505
8.00 6530
8.00 6554
8.00 6579
8.00 6603
8.00 6628
8.00 6653
8.00 6677
8.00 6702
8.00 6727
8.00 6751
8.00 6776
8.00 6801
8.00 6825
8.00 6850
8.00 6875
8.00 6899
8.00 6924
8.00 6949
8.00 6973
8.00 6998
8.00 7023
8.00 7047
8.00 7072
8.00 7097
8.00 7121
8.00 7146
8.00 7171
8.00 7196
8.00 7220
8.00 7245
8.00 7270
8.00 7294
8.00 7319
8.00 7344
8.00 7368
8.00 7393
8.00 7418
8.00 7443
8.00 7467
8.00 7492
8.00 7517
8.00 7542
8.00 7566
8.00 7591
8.00 7616
8.00 7640
8.00 7665
8.00 7690
8.00 7715
8.00 7740
8.00 7764
8.00 7789
8.00 7814
8.00 7838
8.00 7863
8.00 7888
8.00 7913
8.00 7937
8.00 7962
8.00 7987
8.00 8012
8.00 8036
8.00 8061
8.00 8086
8.00 8110
8.00 8135
8.00 8160
8.00 8184
8.00 8209
8.00 8234
8.00 8259
8.00 8284
8.00 8308
8.00 8333
8.00 8358
8.00 8382
8.00 8407
8.00 8432
8.00 8457
8.00 8481
8.00 8506
8.00 8531
8.00 8556
8.00 8580
8.00 8605
8.00 8630
8.00 8655
8.00 8679
8.00 8704
8.00 8729
8.00 8754
8.00 8779
8.00 8804
8.00 8828
8.00 8853
8.00 8878
8.00 8903
8.00 8928
8.00 8952
8.00 8977
8.00 9002
8.00 9027
8.00 9052
8.00 9076
8.00 9101
8.00 9126
8.00 9151
8.00 9176
8.00 9200
8.00 9225
8.00 9250
8.00 9275
8.00 9300
8.00 9324
8.00 9349
8.00 9374
8.00 9399
8.00 9424
8.00 9449
8.00 9473
8.00 9498
8.00 9523
8.00 9548
8.00 9573
8.00 9598
8.00 9622
8.00 9647
8.00 9672
8.00 9697
8.00 9722
9.00 0
9.00 2
9.00 8
9.00 17
9.00 29
9.00 43
9.00 59
9.00 76
9.00 95
9.00 115
9.00 135
9.00 156
9.00 178
9.00 200
9.00 223
9.00 246
9.00 269
9.00 293
9.00 317
9.00 341
9.00 365
9.00 389
9.00 414
9.00 438
9.00 463
9.00 487
9.00 511
9.00 536
9.00 561
9.00 585
9.00 610
9.00 635
9.00 659
9.00 684
9.00 709
9.00 733
9.00 758
9.00 783
9.00 808
9.00 833
9.00 857
9.00 882
9.00 907
9.00 931
9.00 956
9.00 981
9.00 1006
9.00 1030
9.00 1055
9.00 1080
9.00 1105
9.00 1129
9.00 1154
9.00 1179
9.00 1203
9.00 1228
9.00 1253
9.00 1277
9.00 1302
9.00 1327
9.00 1352
9.00 1377
9.00 1401
9.00 1426
9.00 1451
9.00 1475
9.00 1500
9.00 1525
9.00 1550
9.00 1575
9.00 1599
9.00 1624
9.00 1649
9.00 1673
9.00 1698
9.00 1723
9.00 1747
9.00 1772
9.00 1797
9.00 1822
9.00 1846
9.00 1871
9.00 1896
9.00 1921
9.00 1945
9.00 1970
9.00 1995
9.00 2019
9.00 2044
9.00 2069
9.00 2094
9.00 2118
9.00 2143
9.00 2168
9.00 2193
9.00 2217
9.00 2242
9.00 2267
9.00 2291
9.00 2316
9.00 2341
9.00 2366
9.00 2390
9.00 2415
9.00 2440
9.00 2465
9.00 2489
9.00 2514
9.00 2539
9.00 2563
9.00 2588
9.00 2613
9.00 2638
9.00 2662
9.00 2687
9.00 2712
9.00 2737
9.00 2761
9.00 2786
9.00 2811
9.00 2836
9.00 2861
9.00 2885
9.00 2910
9.00 2935
9.00 2960
9.00 2985
9.00 3009
9.00 3034
9.00 3059
9.00 3084
9.00 3109
9.00 3133
9.00 3158
9.00 3183
9.00 3208
9.00 3233
9.00 3258
9.00 3283
9.00 3307
9.00 3332
9.00 3357
9.00 3382
9.00 3407
9.00 3432
9.00 3457
9.00 3481
9.00 3507
9.00 3531
9.00 3556
9.00 3581
9.00 3606
9.00 3631
9.00 3655
9.00 3680
9.00 3705
9.00 3730
9.00 3755
9.00 3780
9.00 3805
9.00 3829
9.00 3854
9.00 3879
9.00 3904
9.00 3929
9.00 3954
9.00 3979
9.00 4003
9.00 4028
9.00 4053
9.00 4078
9.00 4103
9.00 4128
9.00 4153
9.00 4177
9.00 4202
9.00 4227
9.00 4252
9.00 4277
9.00 4301
9.00 4326
9.00 4351
9.00 4376
9.00 4401
9.00 4426
9.00 4451
9.00 4475
9.00 4500
9.00 4525
9.00 4550
9.00 4575
9.00 4600
9.00 4625
9.00 4649
9.00 4674
9.00 4699
9.00 4724
9.00 4749
9.00 4774
9.00 4799
9.00 4823
9.00 4848
9.00 4873
9.00 4898
9.00 4923
9.00 4948
9.00 4973
9.00 4997
9.00 5022
9.00 5047
9.00 5072
9.00 5097
9.00 5122
9.00 5147
9.00 5172
9.00 5197
9.00 5221
9.00 5246
9.00 5271
9.00 5296
9.00 5321
9.00 5346
9.00 5371
9.00 5396
9.00 5421
9.00 5445
9.00 5470
9.00 5495
9.00 5520
9.00 5545
9.00 5570
9.00 5595
9.00 5620
9.00 5645
9.00 5669
9.00 5694
9.00 5719
9.00 5744
9.00 5769
9.00 5794
9.00 5819
9.00 5843
9.00 5868
9.00 5893
9.00 5918
9.00 5943
9.00 5968
9.00 5993
9.00 6017
9.00 6042
9.00 6067
9.00 6092
9.00 6117
9.00 6142
9.00 6167
9.00 6192
9.00 6217
9.00 6241
9.00 6266
9.00 6291
9.00 6316
9.00 6341
9.00 6366
9.00 6391
9.00 6416
9.00 6441
9.00 6465
9.00 6490
9.00 6515
9.00 6540
9.00 6565
9.00 6590
9.00 6615
9.00 6639
9.00 6665
9.00 6689
9.00 6714
9.00 6739
9.00 6764
9.00 6789
9.00 6814
9.00 6839
9.00 6863
9.00 6888
9.00 6913
9.00 6938
9.00 6963
9.00 6988
9.00 7013
9.00 7037
9.00 7062
9.00 7087
9.00 7112
9.00 7137
9.00 7161
9.00 7186
9.00 7211
9.00 7236
9.00 7261
9.00 7286
9.00 7311
9.00 7335
9.00 7360
9.00 7385
9.00 7410
9.00 7435
9.00 7460
9.00 7485
9.00 7509
9.00 7534
9.00 7559
9.00 7584
9.00 7609
9.00 7633
9.00 7658
9.00 7683
9.00 7708
9.00 7733
9.00 7758
9.00 7783
9.00 7807
9.00 7832
9.00 7857
9.00 7882
9.00 7907
9.00 7932
9.00 7957
9.00 7981
9.00 8007
9.00 8031
9.00 8056
9.00 8081
9.00 8106
9.00 8131
9.00 8156
9.00 8181
9.00 8205
9.00 8230
9.00 8255
9.00 8280
9.00 8305
9.00 8330
9.00 8355
9.00 8379
9.00 8405
9.00 8429
9.00 8454
9.00 8479
9.00 8504
9.00 8529
9.00 8553
9.00 8578
9.00 8603
9.00 8628
9.00 8653
9.00 8678
9.00 8703
9.00 8727
9.00 8752
9.00 8777
9.00 8802
9.00 8827
9.00 8852
9.00 8877
9.00 8901
9.00 8926
9.00 8951
9.00 8976
9.00 9001
9.00 9026
9.00 9051
9.00 9076
9.00 9101
9.00 9125
9.00 9150
9.00 9175
9.00 9200
9.00 9225
9.00 9250
9.00 9275
9.00 9299
9.00 9324
9.00 9349
9.00 9374
9.00 9399
9.00 9424
9.00 9449
9.00 9473
9.00 9498
9.00 9523
9.00 9548
9.00 9573
9.00 9598
9.00 9623
9.00 9647
9.00 9672
9.00 9697
9.00 9722
9.00 9747
9.00 9772
10.00 0
10.00 2
10.00 8
10.00 17
10.00 29
10.00 43
10.00 59
10.00 76
10.00 95
10.00 114
10.00 135
10.00 156
10.00 178
10.00 200
10.00 223
10.00 246
10.00 269
10.00 293
10.00 316
10.00 340
10.00 364
10.00 388
10.00 413
10.00 437
10.00 462
10.00 486
10.00 510
10.00 535
10.00 560
10.00 584
10.00 609
10.00 633
10.00 658
10.00 683
10.00 707
10.00 732
10.00 757
10.00 782
10.00 806
10.00 831
10.00 856
10.00 881
10.00 905
10.00 930
10.00 955
10.00 980
10.00 1004
10.00 1029
10.00 1054
10.00 1078
10.00 1103
10.00 1128
10.00 1152
10.00 1177
10.00 1202
10.00 1227
10.00 1252
10.00 1276
10.00 1301
10.00 1326
10.00 1350
10.00 1375
10.00 1400
10.00 1425
10.00 1449
10.00 1474
10.00 1499
10.00 1524
10.00 1548
10.00 1573
10.00 1598
10.00 1622
10.00 1647
10.00 1672
10.00 1697
10.00 1721
10.00 1746
10.00 1771
10.00 1796
10.00 1820
10.00 1845
10.00 1870
10.00 1894
10.00 1919
10.00 1944
10.00 1969
10.00 1993
10.00 2018
10.00 2043
10.00 2068
10.00 2092
10.00 2117
10.00 2142
10.00 2166
10.00 2191
10.00 2216
10.00 2241
10.00 2265
10.00 2290
10.00 2315
10.00 2340
10.00 2364
10.00 2389
10.00 2414
10.00 2438
10.00 2463
10.00 2488
10.00 2513
10.00 2537
10.00 2562
10.00 2587
10.00 2612
10.00 2636
10.00 2661
10.00 2686
10.00 2710
10.00 2735
10.00 2760
10.00 2785
10.00 2809
10.00 2834
10.00 2859
10.00 2884
10.00 2908
10.00 2933
10.00 2958
10.00 2982
10.00 3007
10.00 3032
10.00 3057
10.00 3081
10.00 3106
10.00 3131
10.00 3156
10.00 3180
10.00 3205
10.00 3230
10.00 3254
10.00 3279
10.00 3304
10.00 3329
10.00 3353
10.00 3378
10.00 3403
10.00 3428
10.00 3452
10.00 3477
10.00 3502
10.00 3526
10.00 3551
10.00 3576
10.00 3601
10.00 3626
10.00 3650
10.00 3675
10.00 3700
10.00 3724
10.00 3749
10.00 3774
10.00 3798
10.00 3823
10.00 3848
10.00 3873
10.00 3897
10.00 3922
10.00 3947
10.00 3972
10.00 3996
10.00 4021
10.00 4046
10.00 4070
10.00 4095
10.00 4120
10.00 4145
10.00 4170
10.00 4194
10.00 4219
10.00 4244
10.00 4268
10.00 4293
10.00 4318
10.00 4343
10.00 4367
10.00 4392
10.00 4417
10.00 4442
10.00 4466
10.00 4491
10.00 4516
10.00 4540
10.00 4565
10.00 4590
10.00 4614
10.00 4639
10.00 4664
10.00 4689
10.00 4714
10.00 4738
10.00 4763
10.00 4788
10.00 4812
10.00 4837
10.00 4862
10.00 4886
10.00 4911
10.00 4936
10.00 4961
10.00 4986
10.00 5010
10.00 5035
10.00 5060
10.00 5084
10.00 5109
10.00 5134
10.00 5159
10.00 5183
10.00 5208
10.00 5233
10.00 5258
10.00 5282
10.00 5307
10.00 5332
10.00 5356
10.00 5381
10.00 5406
10.00 5431
10.00 5455
10.00 5480
10.00 5505
10.00 5530
10.00 5554
10.00 5579
10.00 5604
10.00 5628
10.00 5653
10.00 5678
10.00 5702
10.00 5727
10.00 5752
10.00 5777
10.00 5802
10.00 5826
10.00 5851
10.00 5876
10.00 5900
10.00 5925
10.00 5950
10.00 5975
10.00 5999
10.00 6024
10.00 6049
10.00 6074
10.00 6098
10.00 6123
10.00 6148
10.00 6172
10.00 6197
10.00 6222
10.00 6247
10.00 6271
10.00 6296
10.00 6321
10.00 6346
10.00 6370
10.00 6395
10.00 6420
10.00 6444
10.00 6469
10.00 6494
10.00 6519
10.00 6543
10.00 6568
10.00 6593
10.00 6618
10.00 6642
10.00 6667
10.00 6692
10.00 6716
10.00 6741
10.00 6766
10.00 6791
10.00 6815
10.00 6840
10.00 6865
10.00 6890
10.00 6914
10.00 6939
10.00 6964
10.00 6988
10.00 7013
10.00 7038
10.00 7063
10.00 7087
10.00 7112
10.00 7137
10.00 7162
10.00 7186
10.00 7211
10.00 7236
10.00 7260
10.00 7285
10.00 7310
10.00 7335
10.00 7359
10.00 7384
10.00 7409
10.00 7434
10.00 7458
10.00 7483
10.00 7508
10.00 7532
10.00 7557
10.00 7582
10.00 7607
10.00 7631
10.00 7656
10.00 7681
10.00 7706
10.00 7730
10.00 7755
10.00 7780
10.00 7804
10.00 7829
10.00 7854
10.00 7879
10.00 7903
10.00 7928
10.00 7953
10.00 7978
10.00 8002
10.00 8027
10.00 8052
10.00 8076
10.00 8101
10.00 8126
10.00 8151
10.00 8175
10.00 8200
10.00 8225
10.00 8250
10.00 8274
10.00 8299
10.00 8324
10.00 8348
10.00 8373
10.00 8398
10.00 8423
10.00 8447
10.00 8472
10.00 8497
10.00 8522
10.00 8546
10.00 8571
10.00 8596
10.00 8620
10.00 8645
10.00 8670
10.00 8695
10.00 8719
10.00 8744
10.00 8769
10.00 8794
10.00 8818
10.00 8843
10.00 8868
10.00 8892
10.00 8917
10.00 8942
10.00 8967
10.00 8992
10.00 9016
10.00 9041
10.00 9066
10.00 9090
10.00 9115
10.00 9140
10.00 9165
10.00 9189
10.00 9214
10.00 9239
10.00 9264
10.00 9288
10.00 9313
10.00 9338
10.00 9362
10.00 9387
10.00 9412
10.00 9437
10.00 9461
10.00 9486
10.00 9511
10.00 9536
10.00 9560
10.00 9585
10.00 9610
10.00 9634
10.00 9659
10.00 9684
10.00 9708
10.00 9733
