1.0 0
1.0 0
1.0 3
1.0 8
1.0 15
1.0 23
1.0 32
1.0 43
1.0 54
1.0 67
1.0 80
1.0 94
1.0 108
1.0 123
1.0 139
1.0 154
1.0 170
1.0 187
1.0 204
1.0 221
1.0 238
1.0 255
1.0 273
1.0 290
1.0 308
1.0 326
1.0 344
1.0 363
1.0 381
1.0 399
1.0 418
1.0 436
1.0 455
1.0 473
1.0 492
1.0 511
1.0 530
1.0 548
1.0 567
1.0 586
1.0 605
1.0 624
1.0 643
1.0 662
1.0 681
1.0 700
1.0 719
1.0 738
1.0 757
1.0 776
1.0 795
1.0 814
1.0 833
1.0 852
1.0 872
1.0 891
1.0 910
1.0 929
1.0 948
1.0 967
1.0 986
1.0 1005
1.0 1025
1.0 1044
1.0 1063
1.0 1082
1.0 1101
1.0 1120
1.0 1140
1.0 1159
1.0 1178
1.0 1197
1.0 1216
1.0 1236
1.0 1255
1.0 1274
1.0 1293
1.0 1312
1.0 1332
1.0 1351
1.0 1370
1.0 1390
1.0 1409
1.0 1428
1.0 1447
1.0 1466
1.0 1486
1.0 1505
1.0 1524
1.0 1543
1.0 1563
1.0 1582
1.0 1601
1.0 1620
1.0 1640
1.0 1659
1.0 1678
1.0 1697
1.0 1716
1.0 1736
1.0 1755
1.0 1774
1.0 1793
1.0 1813
1.0 1832
1.0 1851
1.0 1871
1.0 1890
1.0 1909
1.0 1928
1.0 1948
1.0 1967
1.0 1986
1.0 2005
1.0 2025
1.0 2044
1.0 2063
1.0 2082
1.0 2102
1.0 2121
1.0 2140
1.0 2160
1.0 2179
1.0 2198
1.0 2217
1.0 2237
1.0 2256
1.0 2275
1.0 2295
1.0 2314
1.0 2333
1.0 2352
1.0 2372
1.0 2391
1.0 2410
1.0 2430
1.0 2449
1.0 2468
1.0 2488
1.0 2507
1.0 2526
1.0 2545
1.0 2565
1.0 2584
1.0 2603
1.0 2623
1.0 2642
1.0 2661
1.0 2681
1.0 2700
1.0 2719
1.0 2739
1.0 2758
1.0 2777
1.0 2797
1.0 2816
1.0 2835
1.0 2855
1.0 2874
1.0 2893
1.0 2912
1.0 2932
1.0 2951
1.0 2971
1.0 2990
1.0 3009
1.0 3028
1.0 3048
1.0 3067
1.0 3087
1.0 3106
1.0 3125
1.0 3145
1.0 3164
1.0 3183
1.0 3203
1.0 3222
1.0 3241
1.0 3260
1.0 3280
1.0 3299
1.0 3318
1.0 3338
1.0 3357
1.0 3376
1.0 3396
1.0 3415
1.0 3434
1.0 3454
1.0 3473
1.0 3492
1.0 3512
1.0 3531
1.0 3550
1.0 3570
1.0 3589
1.0 3608
1.0 3628
1.0 3647
1.0 3666
1.0 3685
1.0 3705
1.0 3724
1.0 3743
1.0 3763
1.0 3782
1.0 3801
1.0 3821
1.0 3840
1.0 3859
1.0 3879
1.0 3898
1.0 3917
1.0 3937
1.0 3956
1.0 3975
1.0 3995
1.0 4014
1.0 4033
1.0 4053
1.0 4072
1.0 4091
1.0 4111
1.0 4130
1.0 4149
1.0 4169
1.0 4188
1.0 4208
1.0 4227
1.0 4246
1.0 4265
1.0 4285
1.0 4304
1.0 4323
1.0 4343
1.0 4362
1.0 4381
1.0 4401
1.0 4420
1.0 4440
1.0 4459
1.0 4478
1.0 4498
1.0 4517
1.0 4536
1.0 4556
1.0 4575
1.0 4594
1.0 4614
1.0 4633
1.0 4652
1.0 4672
1.0 4691
1.0 4710
1.0 4730
1.0 4749
1.0 4768
1.0 4788
1.0 4807
1.0 4827
1.0 4846
1.0 4865
1.0 4885
1.0 4904
1.0 4923
1.0 4943
1.0 4962
1.0 4981
1.0 5001
1.0 5020
1.0 5039
1.0 5059
1.0 5078
1.0 5098
1.0 5117
1.0 5136
1.0 5156
1.0 5175
1.0 5194
1.0 5214
1.0 5233
1.0 5252
1.0 5272
1.0 5291
1.0 5311
1.0 5330
1.0 5349
1.0 5369
1.0 5388
1.0 5408
1.0 5427
1.0 5446
1.0 5466
1.0 5485
1.0 5504
1.0 5524
1.0 5543
1.0 5563
1.0 5582
1.0 5601
1.0 5621
1.0 5640
1.0 5660
1.0 5679
1.0 5698
1.0 5718
1.0 5737
1.0 5756
1.0 5776
1.0 5795
1.0 5815
1.0 5834
1.0 5853
1.0 5873
1.0 5892
1.0 5912
1.0 5931
1.0 5950
1.0 5970
1.0 5989
1.0 6008
1.0 6028
1.0 6047
1.0 6067
1.0 6086
1.0 6105
1.0 6125
1.0 6144
1.0 6164
1.0 6183
1.0 6202
1.0 6222
1.0 6241
1.0 6260
1.0 6280
1.0 6299
1.0 6318
1.0 6338
1.0 6357
1.0 6376
1.0 6396
1.0 6415
1.0 6435
1.0 6454
1.0 6473
1.0 6493
1.0 6512
1.0 6531
1.0 6551
1.0 6570
1.0 6590
1.0 6609
1.0 6628
1.0 6648
1.0 6667
1.0 6686
1.0 6706
1.0 6725
1.0 6744
1.0 6764
1.0 6783
1.0 6803
1.0 6822
1.0 6841
1.0 6861
1.0 6880
1.0 6899
1.0 6919
1.0 6938
1.0 6957
1.0 6977
1.0 6996
1.0 7015
1.0 7035
1.0 7054
1.0 7073
1.0 7093
1.0 7112
1.0 7131
1.0 7151
1.0 7170
1.0 7189
1.0 7209
1.0 7228
1.0 7247
1.0 7267
1.0 7286
1.0 7305
1.0 7325
1.0 7344
1.0 7364
1.0 7383
1.0 7402
1.0 7421
1.0 7441
1.0 7460
1.0 7480
1.0 7499
1.0 7518
1.0 7538
2.0 7642
2.0 7643
2.0 7646
2.0 7652
2.0 7658
2.0 7666
2.0 7676
2.0 7686
2.0 7698
2.0 7710
2.0 7723
2.0 7737
2.0 7752
2.0 7766
2.0 7782
2.0 7797
2.0 7813
2.0 7830
2.0 7846
2.0 7863
2.0 7880
2.0 7898
2.0 7915
2.0 7933
2.0 7950
2.0 7968
2.0 7986
2.0 8005
2.0 8023
2.0 8041
2.0 8060
2.0 8078
2.0 8096
2.0 8115
2.0 8134
2.0 8152
2.0 8171
2.0 8190
2.0 8209
2.0 8228
2.0 8247
2.0 8266
2.0 8285
2.0 8304
2.0 8323
2.0 8342
2.0 8361
2.0 8380
2.0 8399
2.0 8418
2.0 8437
2.0 8456
2.0 8475
2.0 8495
2.0 8514
2.0 8533
2.0 8552
2.0 8571
2.0 8590
2.0 8610
2.0 8629
2.0 8648
2.0 8667
2.0 8687
2.0 8706
2.0 8725
2.0 8744
2.0 8763
2.0 8783
2.0 8802
2.0 8821
2.0 8840
2.0 8860
2.0 8879
2.0 8898
2.0 8918
2.0 8937
2.0 8956
2.0 8975
2.0 8995
2.0 9014
2.0 9033
2.0 9053
2.0 9072
2.0 9091
2.0 9111
2.0 9130
2.0 9149
2.0 9169
2.0 9188
2.0 9207
2.0 9227
2.0 9246
2.0 9265
2.0 9285
2.0 9304
2.0 9323
2.0 9343
2.0 9362
2.0 9381
2.0 9401
2.0 9420
2.0 9439
2.0 9459
2.0 9478
2.0 9497
2.0 9517
2.0 9536
2.0 9555
2.0 9575
2.0 9594
2.0 9613
2.0 9633
2.0 9652
2.0 9672
2.0 9691
2.0 9710
2.0 9730
2.0 9749
2.0 9768
2.0 9788
2.0 9807
2.0 9826
2.0 9846
2.0 9865
2.0 9884
2.0 9904
2.0 9923
2.0 9943
2.0 9962
2.0 9981
2.0 10001
2.0 10020
2.0 10040
2.0 10059
2.0 10078
2.0 10098
2.0 10117
2.0 10136
2.0 10156
2.0 10175
2.0 10195
2.0 10214
2.0 10233
2.0 10253
2.0 10272
2.0 10292
2.0 10311
2.0 10330
2.0 10350
2.0 10369
2.0 10388
2.0 10408
2.0 10427
2.0 10447
2.0 10466
2.0 10485
2.0 10505
2.0 10524
2.0 10543
2.0 10563
2.0 10582
2.0 10602
2.0 10621
2.0 10640
2.0 10660
2.0 10679
2.0 10698
2.0 10718
2.0 10737
2.0 10757
2.0 10776
2.0 10795
2.0 10815
2.0 10834
2.0 10853
2.0 10873
2.0 10892
2.0 10912
2.0 10931
2.0 10950
2.0 10970
2.0 10989
2.0 11008
2.0 11028
2.0 11047
2.0 11066
2.0 11086
2.0 11105
2.0 11125
2.0 11144
2.0 11163
2.0 11183
2.0 11202
2.0 11221
2.0 11241
2.0 11260
2.0 11279
2.0 11299
2.0 11318
2.0 11337
2.0 11357
2.0 11376
2.0 11396
2.0 11415
2.0 11434
2.0 11453
2.0 11473
2.0 11492
2.0 11512
2.0 11531
2.0 11550
2.0 11570
2.0 11589
2.0 11608
2.0 11628
2.0 11647
2.0 11666
2.0 11686
2.0 11705
2.0 11724
2.0 11744
2.0 11763
2.0 11782
2.0 11802
2.0 11821
2.0 11840
2.0 11860
2.0 11879
2.0 11899
2.0 11918
2.0 11937
2.0 11957
2.0 11976
2.0 11995
2.0 12015
2.0 12034
2.0 12053
2.0 12073
2.0 12092
2.0 12112
2.0 12131
2.0 12150
2.0 12170
2.0 12189
2.0 12208
2.0 12228
2.0 12247
2.0 12266
2.0 12286
2.0 12305
2.0 12324
2.0 12344
2.0 12363
2.0 12383
2.0 12402
2.0 12421
2.0 12440
2.0 12460
2.0 12479
2.0 12499
2.0 12518
2.0 12537
2.0 12557
2.0 12576
2.0 12595
2.0 12615
2.0 12634
2.0 12653
2.0 12673
2.0 12692
2.0 12711
2.0 12731
2.0 12750
2.0 12769
2.0 12789
2.0 12808
2.0 12828
2.0 12847
2.0 12866
2.0 12886
2.0 12905
2.0 12924
2.0 12944
2.0 12963
2.0 12982
2.0 13001
2.0 13021
2.0 13040
2.0 13060
2.0 13079
2.0 13098
2.0 13117
2.0 13137
2.0 13156
2.0 13176
2.0 13195
2.0 13214
2.0 13234
2.0 13253
2.0 13272
2.0 13292
2.0 13311
2.0 13330
2.0 13350
2.0 13369
2.0 13388
2.0 13408
2.0 13427
2.0 13446
2.0 13465
2.0 13485
2.0 13504
2.0 13523
2.0 13543
2.0 13562
2.0 13581
2.0 13601
2.0 13620
2.0 13639
2.0 13659
2.0 13678
2.0 13697
2.0 13717
2.0 13736
2.0 13755
2.0 13775
2.0 13794
2.0 13813
2.0 13832
2.0 13852
2.0 13871
2.0 13891
2.0 13910
2.0 13929
2.0 13948
2.0 13968
2.0 13987
2.0 14006
2.0 14026
2.0 14045
2.0 14064
2.0 14084
2.0 14103
2.0 14122
2.0 14142
2.0 14161
2.0 14180
2.0 14200
2.0 14219
2.0 14238
2.0 14258
2.0 14277
2.0 14296
2.0 14316
2.0 14335
2.0 14354
2.0 14374
2.0 14393
2.0 14412
2.0 14432
2.0 14451
2.0 14470
2.0 14490
2.0 14509
2.0 14528
2.0 14548
2.0 14567
2.0 14586
2.0 14606
2.0 14625
2.0 14644
2.0 14664
2.0 14683
2.0 14702
2.0 14722
2.0 14741
2.0 14760
2.0 14779
2.0 14799
2.0 14818
2.0 14837
2.0 14857
2.0 14876
2.0 14895
2.0 14915
2.0 14934
2.0 14953
2.0 14973
2.0 14992
2.0 15011
2.0 15031
2.0 15050
2.0 15069
2.0 15089
2.0 15108
2.0 15127
2.0 15147
2.0 15166
2.0 15185
3.0 15290
3.0 15291
3.0 15294
3.0 15299
3.0 15306
3.0 15314
3.0 15324
3.0 15334
3.0 15346
3.0 15358
3.0 15371
3.0 15385
3.0 15399
3.0 15414
3.0 15429
3.0 15445
3.0 15461
3.0 15477
3.0 15493
3.0 15510
3.0 15527
3.0 15545
3.0 15562
3.0 15580
3.0 15597
3.0 15615
3.0 15633
3.0 15651
3.0 15670
3.0 15688
3.0 15706
3.0 15725
3.0 15743
3.0 15762
3.0 15780
3.0 15799
3.0 15818
3.0 15837
3.0 15855
3.0 15874
3.0 15893
3.0 15912
3.0 15931
3.0 15950
3.0 15969
3.0 15988
3.0 16007
3.0 16026
3.0 16045
3.0 16064
3.0 16084
3.0 16103
3.0 16122
3.0 16141
3.0 16160
3.0 16179
3.0 16198
3.0 16217
3.0 16237
3.0 16256
3.0 16275
3.0 16294
3.0 16313
3.0 16333
3.0 16352
3.0 16371
3.0 16390
3.0 16410
3.0 16429
3.0 16448
3.0 16467
3.0 16487
3.0 16506
3.0 16525
3.0 16544
3.0 16564
3.0 16583
3.0 16602
3.0 16621
3.0 16641
3.0 16660
3.0 16679
3.0 16699
3.0 16718
3.0 16737
3.0 16756
3.0 16776
3.0 16795
3.0 16814
3.0 16834
3.0 16853
3.0 16872
3.0 16892
3.0 16911
3.0 16930
3.0 16949
3.0 16969
3.0 16988
3.0 17007
3.0 17027
3.0 17046
3.0 17065
3.0 17084
3.0 17104
3.0 17123
3.0 17142
3.0 17162
3.0 17181
3.0 17200
3.0 17220
3.0 17239
3.0 17258
3.0 17277
3.0 17297
3.0 17316
3.0 17335
3.0 17355
3.0 17374
3.0 17393
3.0 17412
3.0 17432
3.0 17451
3.0 17470
3.0 17490
3.0 17509
3.0 17528
3.0 17548
3.0 17567
3.0 17586
3.0 17606
3.0 17625
3.0 17644
3.0 17663
3.0 17683
3.0 17702
3.0 17721
3.0 17741
3.0 17760
3.0 17779
3.0 17799
3.0 17818
3.0 17837
3.0 17857
3.0 17876
3.0 17895
3.0 17915
3.0 17934
3.0 17953
3.0 17972
3.0 17992
3.0 18011
3.0 18030
3.0 18050
3.0 18069
3.0 18088
3.0 18108
3.0 18127
3.0 18146
3.0 18166
3.0 18185
3.0 18204
3.0 18224
3.0 18243
3.0 18262
3.0 18281
3.0 18301
3.0 18320
3.0 18339
3.0 18359
3.0 18378
3.0 18397
3.0 18416
3.0 18436
3.0 18455
3.0 18474
3.0 18494
3.0 18513
3.0 18532
3.0 18552
3.0 18571
3.0 18590
3.0 18610
3.0 18629
3.0 18648
3.0 18668
3.0 18687
3.0 18706
3.0 18725
3.0 18745
3.0 18764
3.0 18783
3.0 18803
3.0 18822
3.0 18841
3.0 18861
3.0 18880
3.0 18899
3.0 18919
3.0 18938
3.0 18957
3.0 18976
3.0 18996
3.0 19015
3.0 19034
3.0 19054
3.0 19073
3.0 19093
3.0 19112
3.0 19131
3.0 19151
3.0 19170
3.0 19189
3.0 19208
3.0 19228
3.0 19247
3.0 19266
3.0 19286
3.0 19305
3.0 19324
3.0 19344
3.0 19363
3.0 19382
3.0 19402
3.0 19421
3.0 19440
3.0 19460
3.0 19479
3.0 19498
3.0 19517
3.0 19537
3.0 19556
3.0 19575
3.0 19595
3.0 19614
3.0 19633
3.0 19653
3.0 19672
3.0 19691
3.0 19711
3.0 19730
3.0 19749
3.0 19768
3.0 19788
3.0 19807
3.0 19826
3.0 19846
3.0 19865
3.0 19884
3.0 19904
3.0 19923
3.0 19942
3.0 19962
3.0 19981
3.0 20000
3.0 20020
3.0 20039
3.0 20058
3.0 20077
3.0 20097
3.0 20116
3.0 20135
3.0 20155
3.0 20174
3.0 20193
3.0 20213
3.0 20232
3.0 20251
3.0 20270
3.0 20290
3.0 20309
3.0 20328
3.0 20348
3.0 20367
3.0 20386
3.0 20406
3.0 20425
3.0 20444
3.0 20464
3.0 20483
3.0 20502
3.0 20521
3.0 20541
3.0 20560
3.0 20579
3.0 20599
3.0 20618
3.0 20637
3.0 20657
3.0 20676
3.0 20695
3.0 20714
3.0 20734
3.0 20753
3.0 20772
3.0 20792
3.0 20811
3.0 20830
3.0 20850
3.0 20869
3.0 20888
3.0 20907
3.0 20927
3.0 20946
3.0 20965
3.0 20985
3.0 21004
3.0 21023
3.0 21042
3.0 21062
3.0 21081
3.0 21100
3.0 21120
3.0 21139
3.0 21158
3.0 21177
3.0 21197
3.0 21216
3.0 21235
3.0 21255
3.0 21274
3.0 21293
3.0 21313
3.0 21332
3.0 21351
3.0 21371
3.0 21390
3.0 21409
3.0 21428
3.0 21448
3.0 21467
3.0 21486
3.0 21506
3.0 21525
3.0 21544
3.0 21564
3.0 21583
3.0 21602
3.0 21621
3.0 21641
3.0 21660
3.0 21679
3.0 21699
3.0 21718
3.0 21737
3.0 21756
3.0 21776
3.0 21795
3.0 21814
3.0 21834
3.0 21853
3.0 21872
3.0 21891
3.0 21911
3.0 21930
3.0 21949
3.0 21968
3.0 21988
3.0 22007
3.0 22026
3.0 22046
3.0 22065
3.0 22084
3.0 22103
3.0 22123
3.0 22142
3.0 22161
3.0 22180
3.0 22200
3.0 22219
3.0 22238
3.0 22258
3.0 22277
3.0 22296
3.0 22316
3.0 22335
3.0 22354
3.0 22373
3.0 22393
3.0 22412
3.0 22431
3.0 22450
3.0 22470
3.0 22489
3.0 22508
3.0 22528
3.0 22547
3.0 22566
3.0 22586
3.0 22605
3.0 22624
3.0 22643
3.0 22663
3.0 22682
3.0 22701
3.0 22721
3.0 22740
3.0 22759
3.0 22779
3.0 22798
3.0 22817
4.0 22922
4.0 22923
4.0 22927
4.0 22932
4.0 22938
4.0 22946
4.0 22956
4.0 22966
4.0 22978
4.0 22990
4.0 23003
4.0 23017
4.0 23031
4.0 23046
4.0 23061
4.0 23076
4.0 23092
4.0 23109
4.0 23125
4.0 23142
4.0 23159
4.0 23176
4.0 23194
4.0 23211
4.0 23229
4.0 23247
4.0 23265
4.0 23283
4.0 23301
4.0 23319
4.0 23338
4.0 23356
4.0 23374
4.0 23393
4.0 23412
4.0 23430
4.0 23449
4.0 23468
4.0 23487
4.0 23506
4.0 23524
4.0 23543
4.0 23562
4.0 23581
4.0 23600
4.0 23620
4.0 23639
4.0 23658
4.0 23677
4.0 23696
4.0 23715
4.0 23734
4.0 23753
4.0 23773
4.0 23792
4.0 23811
4.0 23830
4.0 23849
4.0 23869
4.0 23888
4.0 23907
4.0 23926
4.0 23946
4.0 23965
4.0 23984
4.0 24004
4.0 24023
4.0 24042
4.0 24061
4.0 24081
4.0 24100
4.0 24119
4.0 24139
4.0 24158
4.0 24177
4.0 24196
4.0 24216
4.0 24235
4.0 24254
4.0 24274
4.0 24293
4.0 24312
4.0 24332
4.0 24351
4.0 24370
4.0 24390
4.0 24409
4.0 24428
4.0 24448
4.0 24467
4.0 24486
4.0 24506
4.0 24525
4.0 24544
4.0 24564
4.0 24583
4.0 24602
4.0 24622
4.0 24641
4.0 24660
4.0 24680
4.0 24699
4.0 24718
4.0 24738
4.0 24757
4.0 24776
4.0 24796
4.0 24815
4.0 24834
4.0 24854
4.0 24873
4.0 24892
4.0 24912
4.0 24931
4.0 24950
4.0 24970
4.0 24989
4.0 25009
4.0 25028
4.0 25047
4.0 25067
4.0 25086
4.0 25105
4.0 25125
4.0 25144
4.0 25163
4.0 25183
4.0 25202
4.0 25221
4.0 25241
4.0 25260
4.0 25279
4.0 25299
4.0 25318
4.0 25337
4.0 25357
4.0 25376
4.0 25395
4.0 25415
4.0 25434
4.0 25453
4.0 25473
4.0 25492
4.0 25511
4.0 25531
4.0 25550
4.0 25569
4.0 25589
4.0 25608
4.0 25627
4.0 25647
4.0 25666
4.0 25685
4.0 25705
4.0 25724
4.0 25743
4.0 25763
4.0 25782
4.0 25801
4.0 25821
4.0 25840
4.0 25859
4.0 25879
4.0 25898
4.0 25917
4.0 25937
4.0 25956
4.0 25975
4.0 25995
4.0 26014
4.0 26033
4.0 26053
4.0 26072
4.0 26091
4.0 26111
4.0 26130
4.0 26149
4.0 26169
4.0 26188
4.0 26207
4.0 26227
4.0 26246
4.0 26265
4.0 26285
4.0 26304
4.0 26324
4.0 26343
4.0 26362
4.0 26381
4.0 26401
4.0 26420
4.0 26440
4.0 26459
4.0 26478
4.0 26498
4.0 26517
4.0 26536
4.0 26556
4.0 26575
4.0 26594
4.0 26613
4.0 26633
4.0 26652
4.0 26672
4.0 26691
4.0 26710
4.0 26729
4.0 26749
4.0 26768
4.0 26787
4.0 26807
4.0 26826
4.0 26845
4.0 26864
4.0 26884
4.0 26903
4.0 26922
4.0 26942
4.0 26961
4.0 26980
4.0 27000
4.0 27019
4.0 27038
4.0 27058
4.0 27077
4.0 27096
4.0 27116
4.0 27135
4.0 27154
4.0 27174
4.0 27193
4.0 27212
4.0 27232
4.0 27251
4.0 27270
4.0 27290
4.0 27309
4.0 27328
4.0 27348
4.0 27367
4.0 27386
4.0 27406
4.0 27425
4.0 27444
4.0 27464
4.0 27483
4.0 27502
4.0 27521
4.0 27541
4.0 27560
4.0 27580
4.0 27599
4.0 27618
4.0 27637
4.0 27657
4.0 27676
4.0 27696
4.0 27715
4.0 27734
4.0 27754
4.0 27773
4.0 27792
4.0 27812
4.0 27831
4.0 27850
4.0 27870
4.0 27889
4.0 27908
4.0 27928
4.0 27947
4.0 27966
4.0 27986
4.0 28005
4.0 28024
4.0 28044
4.0 28063
4.0 28082
4.0 28102
4.0 28121
4.0 28140
4.0 28160
4.0 28179
4.0 28199
4.0 28218
4.0 28237
4.0 28257
4.0 28276
4.0 28295
4.0 28315
4.0 28334
4.0 28353
4.0 28373
4.0 28392
4.0 28411
4.0 28431
4.0 28450
4.0 28469
4.0 28489
4.0 28508
4.0 28528
4.0 28547
4.0 28566
4.0 28585
4.0 28605
4.0 28624
4.0 28644
4.0 28663
4.0 28682
4.0 28702
4.0 28721
4.0 28740
4.0 28760
4.0 28779
4.0 28798
4.0 28818
4.0 28837
4.0 28856
4.0 28876
4.0 28895
4.0 28914
4.0 28934
4.0 28953
4.0 28972
4.0 28992
4.0 29011
4.0 29030
4.0 29050
4.0 29069
4.0 29088
4.0 29108
4.0 29127
4.0 29147
4.0 29166
4.0 29185
4.0 29204
4.0 29224
4.0 29243
4.0 29263
4.0 29282
4.0 29301
4.0 29321
4.0 29340
4.0 29359
4.0 29379
4.0 29398
4.0 29417
4.0 29437
4.0 29456
4.0 29475
4.0 29495
4.0 29514
4.0 29533
4.0 29553
4.0 29572
4.0 29592
4.0 29611
4.0 29630
4.0 29650
4.0 29669
4.0 29688
4.0 29708
4.0 29727
4.0 29746
4.0 29766
4.0 29785
4.0 29804
4.0 29824
4.0 29843
4.0 29862
4.0 29882
4.0 29901
4.0 29920
4.0 29940
4.0 29959
4.0 29978
4.0 29998
4.0 30017
4.0 30036
4.0 30056
4.0 30075
4.0 30094
4.0 30114
4.0 30133
4.0 30152
4.0 30172
4.0 30191
4.0 30210
4.0 30230
4.0 30249
4.0 30268
4.0 30288
4.0 30307
4.0 30326
4.0 30346
4.0 30365
4.0 30384
4.0 30404
4.0 30423
4.0 30442
4.0 30462
5.0 30566
5.0 30567
5.0 30571
5.0 30576
5.0 30582
5.0 30590
5.0 30600
5.0 30610
5.0 30622
5.0 30634
5.0 30647
5.0 30661
5.0 30675
5.0 30690
5.0 30705
5.0 30721
5.0 30737
5.0 30753
5.0 30769
5.0 30786
5.0 30803
5.0 30821
5.0 30838
5.0 30856
5.0 30873
5.0 30891
5.0 30909
5.0 30927
5.0 30945
5.0 30964
5.0 30982
5.0 31000
5.0 31019
5.0 31038
5.0 31056
5.0 31075
5.0 31094
5.0 31113
5.0 31132
5.0 31150
5.0 31169
5.0 31188
5.0 31207
5.0 31226
5.0 31245
5.0 31264
5.0 31283
5.0 31303
5.0 31322
5.0 31341
5.0 31360
5.0 31379
5.0 31398
5.0 31418
5.0 31437
5.0 31456
5.0 31475
5.0 31494
5.0 31514
5.0 31533
5.0 31552
5.0 31571
5.0 31591
5.0 31610
5.0 31629
5.0 31648
5.0 31668
5.0 31687
5.0 31706
5.0 31726
5.0 31745
5.0 31764
5.0 31784
5.0 31803
5.0 31822
5.0 31842
5.0 31861
5.0 31880
5.0 31900
5.0 31919
5.0 31938
5.0 31958
5.0 31977
5.0 31996
5.0 32016
5.0 32035
5.0 32054
5.0 32074
5.0 32093
5.0 32112
5.0 32132
5.0 32151
5.0 32170
5.0 32190
5.0 32209
5.0 32228
5.0 32248
5.0 32267
5.0 32286
5.0 32306
5.0 32325
5.0 32344
5.0 32364
5.0 32383
5.0 32402
5.0 32422
5.0 32441
5.0 32460
5.0 32480
5.0 32499
5.0 32518
5.0 32538
5.0 32557
5.0 32576
5.0 32596
5.0 32615
5.0 32634
5.0 32654
5.0 32673
5.0 32692
5.0 32712
5.0 32731
5.0 32750
5.0 32770
5.0 32789
5.0 32808
5.0 32828
5.0 32847
5.0 32866
5.0 32886
5.0 32905
5.0 32924
5.0 32944
5.0 32963
5.0 32982
5.0 33002
5.0 33021
5.0 33040
5.0 33059
5.0 33079
5.0 33098
5.0 33117
5.0 33137
5.0 33156
5.0 33175
5.0 33195
5.0 33214
5.0 33233
5.0 33252
5.0 33272
5.0 33291
5.0 33310
5.0 33330
5.0 33349
5.0 33368
5.0 33388
5.0 33407
5.0 33426
5.0 33445
5.0 33465
5.0 33484
5.0 33503
5.0 33523
5.0 33542
5.0 33561
5.0 33580
5.0 33600
5.0 33619
5.0 33638
5.0 33658
5.0 33677
5.0 33696
5.0 33716
5.0 33735
5.0 33755
5.0 33774
5.0 33793
5.0 33812
5.0 33832
5.0 33851
5.0 33870
5.0 33890
5.0 33909
5.0 33928
5.0 33948
5.0 33967
5.0 33986
5.0 34006
5.0 34025
5.0 34044
5.0 34064
5.0 34083
5.0 34102
5.0 34122
5.0 34141
5.0 34160
5.0 34180
5.0 34199
5.0 34218
5.0 34237
5.0 34257
5.0 34276
5.0 34295
5.0 34315
5.0 34334
5.0 34353
5.0 34373
5.0 34392
5.0 34411
5.0 34430
5.0 34450
5.0 34469
5.0 34488
5.0 34508
5.0 34527
5.0 34546
5.0 34566
5.0 34585
5.0 34604
5.0 34624
5.0 34643
5.0 34662
5.0 34682
5.0 34701
5.0 34720
5.0 34740
5.0 34759
5.0 34778
5.0 34798
5.0 34817
5.0 34836
5.0 34856
5.0 34875
5.0 34894
5.0 34913
5.0 34933
5.0 34952
5.0 34971
5.0 34991
5.0 35010
5.0 35029
5.0 35048
5.0 35068
5.0 35087
5.0 35106
5.0 35126
5.0 35145
5.0 35164
5.0 35184
5.0 35203
5.0 35222
5.0 35241
5.0 35261
5.0 35280
5.0 35299
5.0 35319
5.0 35338
5.0 35357
5.0 35376
5.0 35396
5.0 35415
5.0 35434
5.0 35454
5.0 35473
5.0 35492
5.0 35511
5.0 35531
5.0 35550
5.0 35569
5.0 35588
5.0 35608
5.0 35627
5.0 35646
5.0 35666
5.0 35685
5.0 35704
5.0 35723
5.0 35743
5.0 35762
5.0 35781
5.0 35800
5.0 35820
5.0 35839
5.0 35858
5.0 35878
5.0 35897
5.0 35916
5.0 35935
5.0 35955
5.0 35974
5.0 35993
5.0 36013
5.0 36032
5.0 36051
5.0 36071
5.0 36090
5.0 36109
5.0 36128
5.0 36148
5.0 36167
5.0 36186
5.0 36206
5.0 36225
5.0 36244
5.0 36264
5.0 36283
5.0 36302
5.0 36322
5.0 36341
5.0 36360
5.0 36380
5.0 36399
5.0 36418
5.0 36437
5.0 36457
5.0 36476
5.0 36495
5.0 36515
5.0 36534
5.0 36553
5.0 36573
5.0 36592
5.0 36611
5.0 36631
5.0 36650
5.0 36669
5.0 36688
5.0 36708
5.0 36727
5.0 36746
5.0 36766
5.0 36785
5.0 36804
5.0 36824
5.0 36843
5.0 36862
5.0 36882
5.0 36901
5.0 36920
5.0 36940
5.0 36959
5.0 36978
5.0 36997
5.0 37017
5.0 37036
5.0 37055
5.0 37075
5.0 37094
5.0 37113
5.0 37133
5.0 37152
5.0 37171
5.0 37190
5.0 37210
5.0 37229
5.0 37248
5.0 37268
5.0 37287
5.0 37306
5.0 37326
5.0 37345
5.0 37364
5.0 37384
5.0 37403
5.0 37422
5.0 37441
5.0 37461
5.0 37480
5.0 37499
5.0 37519
5.0 37538
5.0 37557
5.0 37576
5.0 37596
5.0 37615
5.0 37634
5.0 37654
5.0 37673
5.0 37692
5.0 37712
5.0 37731
5.0 37750
5.0 37769
5.0 37789
5.0 37808
5.0 37827
5.0 37847
5.0 37866
5.0 37885
5.0 37904
5.0 37924
5.0 37943
5.0 37962
5.0 37981
5.0 38001
5.0 38020
5.0 38039
5.0 38059
5.0 38078
5.0 38097
6.0 38204
6.0 38204
6.0 38207
6.0 38212
6.0 38219
6.0 38227
6.0 38236
6.0 38247
6.0 38258
6.0 38270
6.0 38283
6.0 38297
6.0 38311
6.0 38326
6.0 38341
6.0 38357
6.0 38373
6.0 38389
6.0 38405
6.0 38422
6.0 38439
6.0 38456
6.0 38474
6.0 38492
6.0 38509
6.0 38527
6.0 38545
6.0 38563
6.0 38582
6.0 38600
6.0 38618
6.0 38637
6.0 38655
6.0 38674
6.0 38693
6.0 38711
6.0 38730
6.0 38749
6.0 38768
6.0 38787
6.0 38806
6.0 38825
6.0 38844
6.0 38863
6.0 38882
6.0 38901
6.0 38920
6.0 38939
6.0 38958
6.0 38977
6.0 38997
6.0 39016
6.0 39035
6.0 39054
6.0 39073
6.0 39093
6.0 39112
6.0 39131
6.0 39151
6.0 39170
6.0 39189
6.0 39208
6.0 39228
6.0 39247
6.0 39266
6.0 39286
6.0 39305
6.0 39324
6.0 39344
6.0 39363
6.0 39382
6.0 39401
6.0 39421
6.0 39440
6.0 39459
6.0 39479
6.0 39498
6.0 39517
6.0 39537
6.0 39556
6.0 39575
6.0 39595
6.0 39614
6.0 39633
6.0 39653
6.0 39672
6.0 39691
6.0 39711
6.0 39730
6.0 39749
6.0 39769
6.0 39788
6.0 39807
6.0 39827
6.0 39846
6.0 39865
6.0 39884
6.0 39904
6.0 39923
6.0 39942
6.0 39962
6.0 39981
6.0 40000
6.0 40020
6.0 40039
6.0 40058
6.0 40078
6.0 40097
6.0 40116
6.0 40136
6.0 40155
6.0 40174
6.0 40194
6.0 40213
6.0 40232
6.0 40252
6.0 40271
6.0 40290
6.0 40309
6.0 40329
6.0 40348
6.0 40367
6.0 40387
6.0 40406
6.0 40425
6.0 40445
6.0 40464
6.0 40483
6.0 40503
6.0 40522
6.0 40541
6.0 40560
6.0 40580
6.0 40599
6.0 40618
6.0 40638
6.0 40657
6.0 40676
6.0 40696
6.0 40715
6.0 40734
6.0 40753
6.0 40773
6.0 40792
6.0 40811
6.0 40831
6.0 40850
6.0 40869
6.0 40888
6.0 40908
6.0 40927
6.0 40946
6.0 40966
6.0 40985
6.0 41004
6.0 41023
6.0 41043
6.0 41062
6.0 41081
6.0 41100
6.0 41120
6.0 41139
6.0 41158
6.0 41177
6.0 41197
6.0 41216
6.0 41235
6.0 41255
6.0 41274
6.0 41293
6.0 41312
6.0 41332
6.0 41351
6.0 41370
6.0 41390
6.0 41409
6.0 41428
6.0 41448
6.0 41467
6.0 41486
6.0 41505
6.0 41525
6.0 41544
6.0 41563
6.0 41583
6.0 41602
6.0 41621
6.0 41641
6.0 41660
6.0 41679
6.0 41699
6.0 41718
6.0 41737
6.0 41756
6.0 41776
6.0 41795
6.0 41815
6.0 41834
6.0 41853
6.0 41872
6.0 41892
6.0 41911
6.0 41930
6.0 41950
6.0 41969
6.0 41988
6.0 42008
6.0 42027
6.0 42046
6.0 42066
6.0 42085
6.0 42104
6.0 42124
6.0 42143
6.0 42162
6.0 42182
6.0 42201
6.0 42220
6.0 42240
6.0 42259
6.0 42278
6.0 42298
6.0 42317
6.0 42336
6.0 42356
6.0 42375
6.0 42394
6.0 42414
6.0 42433
6.0 42452
6.0 42472
6.0 42491
6.0 42510
6.0 42529
6.0 42549
6.0 42568
6.0 42587
6.0 42607
6.0 42626
6.0 42645
6.0 42665
6.0 42684
6.0 42703
6.0 42723
6.0 42742
6.0 42761
6.0 42781
6.0 42800
6.0 42819
6.0 42839
6.0 42858
6.0 42877
6.0 42897
6.0 42916
6.0 42935
6.0 42955
6.0 42974
6.0 42993
6.0 43013
6.0 43032
6.0 43051
6.0 43071
6.0 43090
6.0 43109
6.0 43128
6.0 43148
6.0 43167
6.0 43186
6.0 43206
6.0 43225
6.0 43244
6.0 43264
6.0 43283
6.0 43302
6.0 43322
6.0 43341
6.0 43360
6.0 43380
6.0 43399
6.0 43418
6.0 43438
6.0 43457
6.0 43476
6.0 43496
6.0 43515
6.0 43534
6.0 43553
6.0 43573
6.0 43592
6.0 43611
6.0 43631
6.0 43650
6.0 43669
6.0 43689
6.0 43708
6.0 43727
6.0 43747
6.0 43766
6.0 43785
6.0 43805
6.0 43824
6.0 43843
6.0 43863
6.0 43882
6.0 43901
6.0 43921
6.0 43940
6.0 43959
6.0 43979
6.0 43998
6.0 44017
6.0 44036
6.0 44056
6.0 44075
6.0 44094
6.0 44114
6.0 44133
6.0 44152
6.0 44172
6.0 44191
6.0 44210
6.0 44230
6.0 44249
6.0 44268
6.0 44288
6.0 44307
6.0 44326
6.0 44345
6.0 44365
6.0 44384
6.0 44404
6.0 44423
6.0 44442
6.0 44461
6.0 44481
6.0 44500
6.0 44519
6.0 44539
6.0 44558
6.0 44578
6.0 44597
6.0 44616
6.0 44636
6.0 44655
6.0 44674
6.0 44693
6.0 44713
6.0 44732
6.0 44751
6.0 44771
6.0 44790
6.0 44809
6.0 44829
6.0 44848
6.0 44867
6.0 44887
6.0 44906
6.0 44925
6.0 44944
6.0 44964
6.0 44983
6.0 45002
6.0 45022
6.0 45041
6.0 45060
6.0 45080
6.0 45099
6.0 45118
6.0 45138
6.0 45157
6.0 45176
6.0 45196
6.0 45215
6.0 45234
6.0 45253
6.0 45273
6.0 45292
6.0 45311
6.0 45331
6.0 45350
6.0 45369
6.0 45389
6.0 45408
6.0 45427
6.0 45447
6.0 45466
6.0 45485
6.0 45505
6.0 45524
6.0 45543
6.0 45563
6.0 45582
6.0 45601
6.0 45620
6.0 45640
6.0 45659
6.0 45678
6.0 45698
6.0 45717
6.0 45736
7.0 45842
7.0 45844
7.0 45847
7.0 45852
7.0 45858
7.0 45866
7.0 45876
7.0 45886
7.0 45898
7.0 45910
7.0 45923
7.0 45937
7.0 45951
7.0 45966
7.0 45981
7.0 45996
7.0 46012
7.0 46028
7.0 46045
7.0 46062
7.0 46079
7.0 46096
7.0 46114
7.0 46131
7.0 46149
7.0 46167
7.0 46185
7.0 46203
7.0 46221
7.0 46240
7.0 46258
7.0 46276
7.0 46295
7.0 46314
7.0 46332
7.0 46351
7.0 46370
7.0 46389
7.0 46408
7.0 46426
7.0 46445
7.0 46464
7.0 46484
7.0 46502
7.0 46522
7.0 46541
7.0 46560
7.0 46579
7.0 46598
7.0 46617
7.0 46636
7.0 46656
7.0 46675
7.0 46694
7.0 46713
7.0 46733
7.0 46752
7.0 46771
7.0 46790
7.0 46810
7.0 46829
7.0 46848
7.0 46868
7.0 46887
7.0 46906
7.0 46926
7.0 46945
7.0 46964
7.0 46984
7.0 47003
7.0 47022
7.0 47042
7.0 47061
7.0 47080
7.0 47100
7.0 47119
7.0 47138
7.0 47158
7.0 47177
7.0 47196
7.0 47216
7.0 47235
7.0 47255
7.0 47274
7.0 47293
7.0 47313
7.0 47332
7.0 47351
7.0 47371
7.0 47390
7.0 47409
7.0 47429
7.0 47448
7.0 47467
7.0 47487
7.0 47506
7.0 47525
7.0 47545
7.0 47564
7.0 47583
7.0 47603
7.0 47622
7.0 47641
7.0 47661
7.0 47680
7.0 47700
7.0 47719
7.0 47738
7.0 47758
7.0 47777
7.0 47796
7.0 47816
7.0 47835
7.0 47854
7.0 47874
7.0 47893
7.0 47912
7.0 47932
7.0 47951
7.0 47970
7.0 47990
7.0 48009
7.0 48028
7.0 48048
7.0 48067
7.0 48086
7.0 48106
7.0 48125
7.0 48144
7.0 48164
7.0 48183
7.0 48202
7.0 48222
7.0 48241
7.0 48260
7.0 48280
7.0 48299
7.0 48318
7.0 48338
7.0 48357
7.0 48376
7.0 48396
7.0 48415
7.0 48434
7.0 48454
7.0 48473
7.0 48492
7.0 48512
7.0 48531
7.0 48550
7.0 48569
7.0 48589
7.0 48608
7.0 48627
7.0 48647
7.0 48666
7.0 48685
7.0 48705
7.0 48724
7.0 48743
7.0 48763
7.0 48782
7.0 48801
7.0 48820
7.0 48840
7.0 48859
7.0 48878
7.0 48898
7.0 48917
7.0 48936
7.0 48956
7.0 48975
7.0 48994
7.0 49014
7.0 49033
7.0 49052
7.0 49072
7.0 49091
7.0 49110
7.0 49130
7.0 49149
7.0 49168
7.0 49188
7.0 49207
7.0 49226
7.0 49246
7.0 49265
7.0 49284
7.0 49304
7.0 49323
7.0 49342
7.0 49361
7.0 49381
7.0 49400
7.0 49419
7.0 49439
7.0 49458
7.0 49477
7.0 49497
7.0 49516
7.0 49535
7.0 49555
7.0 49574
7.0 49593
7.0 49613
7.0 49632
7.0 49651
7.0 49671
7.0 49690
7.0 49709
7.0 49729
7.0 49748
7.0 49767
7.0 49787
7.0 49806
7.0 49825
7.0 49845
7.0 49864
7.0 49883
7.0 49903
7.0 49922
7.0 49941
7.0 49961
7.0 49980
7.0 49999
7.0 50018
7.0 50038
7.0 50057
7.0 50076
7.0 50096
7.0 50115
7.0 50134
7.0 50154
7.0 50173
7.0 50192
7.0 50212
7.0 50231
7.0 50250
7.0 50270
7.0 50289
7.0 50308
7.0 50328
7.0 50347
7.0 50366
7.0 50386
7.0 50405
7.0 50424
7.0 50444
7.0 50463
7.0 50482
7.0 50502
7.0 50521
7.0 50540
7.0 50560
7.0 50579
7.0 50598
7.0 50617
7.0 50637
7.0 50656
7.0 50675
7.0 50695
7.0 50714
7.0 50733
7.0 50753
7.0 50772
7.0 50791
7.0 50811
7.0 50830
7.0 50849
7.0 50869
7.0 50888
7.0 50907
7.0 50927
7.0 50946
7.0 50965
7.0 50985
7.0 51004
7.0 51023
7.0 51043
7.0 51062
7.0 51081
7.0 51100
7.0 51120
7.0 51139
7.0 51158
7.0 51178
7.0 51197
7.0 51216
7.0 51236
7.0 51255
7.0 51274
7.0 51294
7.0 51313
7.0 51332
7.0 51352
7.0 51371
7.0 51390
7.0 51409
7.0 51429
7.0 51448
7.0 51467
7.0 51487
7.0 51506
7.0 51525
7.0 51544
7.0 51564
7.0 51583
7.0 51602
7.0 51622
7.0 51641
7.0 51660
7.0 51680
7.0 51699
7.0 51718
7.0 51737
7.0 51757
7.0 51776
7.0 51795
7.0 51815
7.0 51834
7.0 51853
7.0 51872
7.0 51892
7.0 51911
7.0 51930
7.0 51950
7.0 51969
7.0 51988
7.0 52008
7.0 52027
7.0 52046
7.0 52065
7.0 52085
7.0 52104
7.0 52123
7.0 52143
7.0 52162
7.0 52181
7.0 52201
7.0 52220
7.0 52239
7.0 52259
7.0 52278
7.0 52297
7.0 52316
7.0 52336
7.0 52355
7.0 52374
7.0 52394
7.0 52413
7.0 52432
7.0 52452
7.0 52471
7.0 52490
7.0 52509
7.0 52529
7.0 52548
7.0 52568
7.0 52587
7.0 52606
7.0 52625
7.0 52645
7.0 52664
7.0 52683
7.0 52703
7.0 52722
7.0 52741
7.0 52760
7.0 52780
7.0 52799
7.0 52818
7.0 52838
7.0 52857
7.0 52876
7.0 52896
7.0 52915
7.0 52934
7.0 52954
7.0 52973
7.0 52992
7.0 53012
7.0 53031
7.0 53050
7.0 53069
7.0 53089
7.0 53108
7.0 53127
7.0 53147
7.0 53166
7.0 53185
7.0 53205
7.0 53224
7.0 53243
7.0 53263
7.0 53282
7.0 53301
7.0 53320
7.0 53340
7.0 53359
7.0 53378
8.0 53485
8.0 53486
8.0 53489
8.0 53494
8.0 53501
8.0 53509
8.0 53518
8.0 53529
8.0 53540
8.0 53552
8.0 53566
8.0 53579
8.0 53594
8.0 53608
8.0 53624
8.0 53639
8.0 53655
8.0 53672
8.0 53688
8.0 53705
8.0 53722
8.0 53739
8.0 53757
8.0 53775
8.0 53792
8.0 53810
8.0 53828
8.0 53847
8.0 53865
8.0 53883
8.0 53902
8.0 53920
8.0 53939
8.0 53957
8.0 53976
8.0 53995
8.0 54014
8.0 54033
8.0 54052
8.0 54071
8.0 54090
8.0 54109
8.0 54128
8.0 54147
8.0 54166
8.0 54185
8.0 54204
8.0 54223
8.0 54242
8.0 54262
8.0 54281
8.0 54300
8.0 54319
8.0 54338
8.0 54358
8.0 54377
8.0 54396
8.0 54416
8.0 54435
8.0 54454
8.0 54473
8.0 54493
8.0 54512
8.0 54531
8.0 54551
8.0 54570
8.0 54589
8.0 54609
8.0 54628
8.0 54648
8.0 54667
8.0 54686
8.0 54706
8.0 54725
8.0 54744
8.0 54764
8.0 54783
8.0 54803
8.0 54822
8.0 54841
8.0 54861
8.0 54880
8.0 54899
8.0 54919
8.0 54938
8.0 54957
8.0 54977
8.0 54996
8.0 55016
8.0 55035
8.0 55054
8.0 55073
8.0 55093
8.0 55112
8.0 55132
8.0 55151
8.0 55170
8.0 55190
8.0 55209
8.0 55228
8.0 55248
8.0 55267
8.0 55286
8.0 55306
8.0 55325
8.0 55344
8.0 55364
8.0 55383
8.0 55402
8.0 55422
8.0 55441
8.0 55460
8.0 55480
8.0 55499
8.0 55519
8.0 55538
8.0 55557
8.0 55577
8.0 55596
8.0 55615
8.0 55635
8.0 55654
8.0 55673
8.0 55693
8.0 55712
8.0 55731
8.0 55751
8.0 55770
8.0 55789
8.0 55809
8.0 55828
8.0 55847
8.0 55867
8.0 55886
8.0 55906
8.0 55925
8.0 55944
8.0 55964
8.0 55983
8.0 56002
8.0 56022
8.0 56041
8.0 56060
8.0 56080
8.0 56099
8.0 56118
8.0 56138
8.0 56157
8.0 56176
8.0 56196
8.0 56215
8.0 56234
8.0 56254
8.0 56273
8.0 56292
8.0 56312
8.0 56331
8.0 56350
8.0 56370
8.0 56389
8.0 56408
8.0 56428
8.0 56447
8.0 56466
8.0 56485
8.0 56505
8.0 56524
8.0 56543
8.0 56563
8.0 56582
8.0 56601
8.0 56621
8.0 56640
8.0 56660
8.0 56679
8.0 56698
8.0 56717
8.0 56737
8.0 56756
8.0 56775
8.0 56795
8.0 56814
8.0 56833
8.0 56853
8.0 56872
8.0 56891
8.0 56911
8.0 56930
8.0 56949
8.0 56969
8.0 56988
8.0 57007
8.0 57027
8.0 57046
8.0 57065
8.0 57085
8.0 57104
8.0 57123
8.0 57143
8.0 57162
8.0 57181
8.0 57200
8.0 57220
8.0 57239
8.0 57258
8.0 57278
8.0 57297
8.0 57316
8.0 57336
8.0 57355
8.0 57374
8.0 57394
8.0 57413
8.0 57432
8.0 57452
8.0 57471
8.0 57490
8.0 57509
8.0 57529
8.0 57548
8.0 57568
8.0 57587
8.0 57606
8.0 57625
8.0 57645
8.0 57664
8.0 57684
8.0 57703
8.0 57722
8.0 57742
8.0 57761
8.0 57780
8.0 57800
8.0 57819
8.0 57838
8.0 57858
8.0 57877
8.0 57896
8.0 57916
8.0 57935
8.0 57954
8.0 57974
8.0 57993
8.0 58012
8.0 58032
8.0 58051
8.0 58071
8.0 58090
8.0 58109
8.0 58129
8.0 58148
8.0 58167
8.0 58187
8.0 58206
8.0 58225
8.0 58245
8.0 58264
8.0 58283
8.0 58303
8.0 58322
8.0 58341
8.0 58361
8.0 58380
8.0 58400
8.0 58419
8.0 58438
8.0 58457
8.0 58477
8.0 58496
8.0 58515
8.0 58535
8.0 58554
8.0 58573
8.0 58592
8.0 58612
8.0 58631
8.0 58650
8.0 58670
8.0 58689
8.0 58708
8.0 58728
8.0 58747
8.0 58766
8.0 58786
8.0 58805
8.0 58824
8.0 58843
8.0 58863
8.0 58882
8.0 58901
8.0 58921
8.0 58940
8.0 58959
8.0 58979
8.0 58998
8.0 59017
8.0 59036
8.0 59056
8.0 59075
8.0 59094
8.0 59114
8.0 59133
8.0 59152
8.0 59171
8.0 59191
8.0 59210
8.0 59229
8.0 59249
8.0 59268
8.0 59287
8.0 59307
8.0 59326
8.0 59345
8.0 59365
8.0 59384
8.0 59403
8.0 59423
8.0 59442
8.0 59461
8.0 59480
8.0 59500
8.0 59519
8.0 59538
8.0 59558
8.0 59577
8.0 59596
8.0 59616
8.0 59635
8.0 59654
8.0 59674
8.0 59693
8.0 59712
8.0 59732
8.0 59751
8.0 59771
8.0 59790
8.0 59809
8.0 59828
8.0 59848
8.0 59867
8.0 59886
8.0 59906
8.0 59925
8.0 59944
8.0 59964
8.0 59983
8.0 60002
8.0 60022
8.0 60041
8.0 60060
8.0 60080
8.0 60099
8.0 60118
8.0 60138
8.0 60157
8.0 60176
8.0 60196
8.0 60215
8.0 60235
8.0 60254
8.0 60273
8.0 60293
8.0 60312
8.0 60331
8.0 60351
8.0 60370
8.0 60389
8.0 60409
8.0 60428
8.0 60447
8.0 60467
8.0 60486
8.0 60505
8.0 60525
8.0 60544
8.0 60563
8.0 60583
8.0 60602
8.0 60622
8.0 60641
8.0 60660
8.0 60680
8.0 60699
8.0 60718
8.0 60738
8.0 60757
8.0 60776
8.0 60796
8.0 60815
8.0 60835
8.0 60854
8.0 60873
8.0 60892
8.0 60912
8.0 60931
8.0 60951
8.0 60970
8.0 60989
8.0 61009
8.0 61028
9.0 61134
9.0 61135
9.0 61138
9.0 61143
9.0 61149
9.0 61157
9.0 61167
9.0 61177
9.0 61188
9.0 61201
9.0 61214
9.0 61227
9.0 61241
9.0 61256
9.0 61271
9.0 61287
9.0 61303
9.0 61319
9.0 61336
9.0 61353
9.0 61370
9.0 61387
9.0 61405
9.0 61422
9.0 61440
9.0 61458
9.0 61476
9.0 61494
9.0 61513
9.0 61531
9.0 61549
9.0 61568
9.0 61587
9.0 61605
9.0 61624
9.0 61643
9.0 61662
9.0 61681
9.0 61700
9.0 61719
9.0 61738
9.0 61757
9.0 61776
9.0 61795
9.0 61814
9.0 61833
9.0 61852
9.0 61872
9.0 61891
9.0 61910
9.0 61929
9.0 61949
9.0 61968
9.0 61987
9.0 62007
9.0 62026
9.0 62045
9.0 62064
9.0 62084
9.0 62103
9.0 62122
9.0 62142
9.0 62161
9.0 62180
9.0 62200
9.0 62219
9.0 62238
9.0 62258
9.0 62277
9.0 62296
9.0 62316
9.0 62335
9.0 62355
9.0 62374
9.0 62393
9.0 62413
9.0 62432
9.0 62451
9.0 62471
9.0 62490
9.0 62509
9.0 62529
9.0 62548
9.0 62568
9.0 62587
9.0 62606
9.0 62626
9.0 62645
9.0 62664
9.0 62684
9.0 62703
9.0 62723
9.0 62742
9.0 62761
9.0 62781
9.0 62800
9.0 62819
9.0 62839
9.0 62858
9.0 62878
9.0 62897
9.0 62916
9.0 62936
9.0 62955
9.0 62975
9.0 62994
9.0 63013
9.0 63032
9.0 63052
9.0 63071
9.0 63091
9.0 63110
9.0 63129
9.0 63149
9.0 63168
9.0 63188
9.0 63207
9.0 63226
9.0 63246
9.0 63265
9.0 63284
9.0 63304
9.0 63323
9.0 63342
9.0 63362
9.0 63381
9.0 63400
9.0 63420
9.0 63439
9.0 63458
9.0 63478
9.0 63497
9.0 63516
9.0 63536
9.0 63555
9.0 63574
9.0 63594
9.0 63613
9.0 63632
9.0 63652
9.0 63671
9.0 63690
9.0 63710
9.0 63729
9.0 63748
9.0 63768
9.0 63787
9.0 63806
9.0 63826
9.0 63845
9.0 63864
9.0 63884
9.0 63903
9.0 63922
9.0 63942
9.0 63961
9.0 63980
9.0 64000
9.0 64019
9.0 64038
9.0 64058
9.0 64077
9.0 64096
9.0 64116
9.0 64135
9.0 64154
9.0 64174
9.0 64193
9.0 64212
9.0 64232
9.0 64251
9.0 64270
9.0 64289
9.0 64309
9.0 64328
9.0 64347
9.0 64367
9.0 64386
9.0 64405
9.0 64425
9.0 64444
9.0 64463
9.0 64483
9.0 64502
9.0 64521
9.0 64540
9.0 64560
9.0 64579
9.0 64598
9.0 64618
9.0 64637
9.0 64656
9.0 64676
9.0 64695
9.0 64714
9.0 64734
9.0 64753
9.0 64772
9.0 64791
9.0 64811
9.0 64830
9.0 64849
9.0 64869
9.0 64888
9.0 64907
9.0 64927
9.0 64946
9.0 64965
9.0 64984
9.0 65004
9.0 65023
9.0 65042
9.0 65062
9.0 65081
9.0 65100
9.0 65120
9.0 65139
9.0 65158
9.0 65177
9.0 65197
9.0 65216
9.0 65235
9.0 65255
9.0 65274
9.0 65293
9.0 65312
9.0 65332
9.0 65351
9.0 65370
9.0 65390
9.0 65409
9.0 65428
9.0 65447
9.0 65467
9.0 65486
9.0 65505
9.0 65525
9.0 65544
9.0 65563
9.0 65582
9.0 65602
9.0 65621
9.0 65640
9.0 65660
9.0 65679
9.0 65698
9.0 65718
9.0 65737
9.0 65756
9.0 65776
9.0 65795
9.0 65814
9.0 65833
9.0 65853
9.0 65872
9.0 65891
9.0 65911
9.0 65930
9.0 65949
9.0 65969
9.0 65988
9.0 66007
9.0 66026
9.0 66046
9.0 66065
9.0 66084
9.0 66104
9.0 66123
9.0 66142
9.0 66162
9.0 66181
9.0 66200
9.0 66220
9.0 66239
9.0 66258
9.0 66277
9.0 66297
9.0 66316
9.0 66335
9.0 66355
9.0 66374
9.0 66393
9.0 66412
9.0 66432
9.0 66451
9.0 66470
9.0 66490
9.0 66509
9.0 66528
9.0 66547
9.0 66567
9.0 66586
9.0 66605
9.0 66624
9.0 66644
9.0 66663
9.0 66682
9.0 66702
9.0 66721
9.0 66740
9.0 66759
9.0 66779
9.0 66798
9.0 66817
9.0 66837
9.0 66856
9.0 66875
9.0 66894
9.0 66914
9.0 66933
9.0 66952
9.0 66972
9.0 66991
9.0 67010
9.0 67029
9.0 67049
9.0 67068
9.0 67087
9.0 67106
9.0 67126
9.0 67145
9.0 67164
9.0 67184
9.0 67203
9.0 67222
9.0 67241
9.0 67261
9.0 67280
9.0 67299
9.0 67319
9.0 67338
9.0 67357
9.0 67376
9.0 67396
9.0 67415
9.0 67434
9.0 67453
9.0 67473
9.0 67492
9.0 67511
9.0 67530
9.0 67550
9.0 67569
9.0 67588
9.0 67607
9.0 67627
9.0 67646
9.0 67665
9.0 67685
9.0 67704
9.0 67723
9.0 67742
9.0 67762
9.0 67781
9.0 67800
9.0 67820
9.0 67839
9.0 67858
9.0 67877
9.0 67897
9.0 67916
9.0 67935
9.0 67954
9.0 67974
9.0 67993
9.0 68012
9.0 68031
9.0 68051
9.0 68070
9.0 68089
9.0 68108
9.0 68128
9.0 68147
9.0 68166
9.0 68185
9.0 68205
9.0 68224
9.0 68243
9.0 68263
9.0 68282
9.0 68301
9.0 68320
9.0 68340
9.0 68359
9.0 68378
9.0 68398
9.0 68417
9.0 68436
9.0 68455
9.0 68475
9.0 68494
9.0 68513
9.0 68532
9.0 68552
9.0 68571
9.0 68590
9.0 68609
9.0 68629
9.0 68648
9.0 68667
10.0 68774
10.0 68776
10.0 68779
10.0 68784
10.0 68790
10.0 68798
10.0 68808
10.0 68818
10.0 68830
10.0 68842
10.0 68855
10.0 68868
10.0 68882
10.0 68897
10.0 68912
10.0 68928
10.0 68944
10.0 68960
10.0 68976
10.0 68993
10.0 69010
10.0 69027
10.0 69045
10.0 69062
10.0 69080
10.0 69098
10.0 69116
10.0 69134
10.0 69152
10.0 69170
10.0 69189
10.0 69207
10.0 69226
10.0 69244
10.0 69263
10.0 69282
10.0 69301
10.0 69320
10.0 69338
10.0 69357
10.0 69376
10.0 69395
10.0 69415
10.0 69434
10.0 69453
10.0 69472
10.0 69491
10.0 69510
10.0 69529
10.0 69548
10.0 69568
10.0 69587
10.0 69606
10.0 69625
10.0 69644
10.0 69664
10.0 69683
10.0 69702
10.0 69721
10.0 69741
10.0 69760
10.0 69779
10.0 69799
10.0 69818
10.0 69837
10.0 69856
10.0 69876
10.0 69895
10.0 69914
10.0 69934
10.0 69953
10.0 69972
10.0 69992
10.0 70011
10.0 70030
10.0 70049
10.0 70069
10.0 70088
10.0 70107
10.0 70127
10.0 70146
10.0 70165
10.0 70184
10.0 70204
10.0 70223
10.0 70242
10.0 70262
10.0 70281
10.0 70300
10.0 70319
10.0 70339
10.0 70358
10.0 70377
10.0 70397
10.0 70416
10.0 70435
10.0 70454
10.0 70474
10.0 70493
10.0 70512
10.0 70532
10.0 70551
10.0 70570
10.0 70590
10.0 70609
10.0 70628
10.0 70648
10.0 70667
10.0 70686
10.0 70705
10.0 70725
10.0 70744
10.0 70763
10.0 70783
10.0 70802
10.0 70821
10.0 70841
10.0 70860
10.0 70879
10.0 70899
10.0 70918
10.0 70937
10.0 70956
10.0 70976
10.0 70995
10.0 71014
10.0 71034
10.0 71053
10.0 71072
10.0 71092
10.0 71111
10.0 71130
10.0 71149
10.0 71169
10.0 71188
10.0 71207
10.0 71226
10.0 71246
10.0 71265
10.0 71284
10.0 71303
10.0 71323
10.0 71342
10.0 71361
10.0 71380
10.0 71400
10.0 71419
10.0 71438
10.0 71458
10.0 71477
10.0 71496
10.0 71515
10.0 71535
10.0 71554
10.0 71573
10.0 71592
10.0 71612
10.0 71631
10.0 71650
10.0 71670
10.0 71689
10.0 71708
10.0 71727
10.0 71747
10.0 71766
10.0 71785
10.0 71805
10.0 71824
10.0 71843
10.0 71862
10.0 71882
10.0 71901
10.0 71920
10.0 71940
10.0 71959
10.0 71978
10.0 71997
10.0 72017
10.0 72036
10.0 72055
10.0 72074
10.0 72094
10.0 72113
10.0 72132
10.0 72152
10.0 72171
10.0 72190
10.0 72209
10.0 72229
10.0 72248
10.0 72267
10.0 72286
10.0 72306
10.0 72325
10.0 72344
10.0 72363
10.0 72383
10.0 72402
10.0 72421
10.0 72440
10.0 72460
10.0 72479
10.0 72498
10.0 72517
10.0 72537
10.0 72556
10.0 72575
10.0 72595
10.0 72614
10.0 72633
10.0 72652
10.0 72672
10.0 72691
10.0 72710
10.0 72730
10.0 72749
10.0 72768
10.0 72788
10.0 72807
10.0 72826
10.0 72845
10.0 72865
10.0 72884
10.0 72903
10.0 72922
10.0 72942
10.0 72961
10.0 72980
10.0 72999
10.0 73019
10.0 73038
10.0 73057
10.0 73076
10.0 73096
10.0 73115
10.0 73134
10.0 73154
10.0 73173
10.0 73192
10.0 73211
10.0 73231
10.0 73250
10.0 73269
10.0 73288
10.0 73308
10.0 73327
10.0 73346
10.0 73365
10.0 73384
10.0 73404
10.0 73423
10.0 73442
10.0 73462
10.0 73481
10.0 73500
10.0 73519
10.0 73538
10.0 73558
10.0 73577
10.0 73596
10.0 73615
10.0 73635
10.0 73654
10.0 73673
10.0 73692
10.0 73712
10.0 73731
10.0 73750
10.0 73769
10.0 73789
10.0 73808
10.0 73827
10.0 73847
10.0 73866
10.0 73885
10.0 73904
10.0 73924
10.0 73943
10.0 73962
10.0 73982
10.0 74001
10.0 74020
10.0 74040
10.0 74059
10.0 74078
10.0 74098
10.0 74117
10.0 74136
10.0 74156
10.0 74175
10.0 74194
10.0 74213
10.0 74233
10.0 74252
10.0 74271
10.0 74291
10.0 74310
10.0 74329
10.0 74348
10.0 74368
10.0 74387
10.0 74406
10.0 74426
10.0 74445
10.0 74464
10.0 74484
10.0 74503
10.0 74522
10.0 74542
10.0 74561
10.0 74580
10.0 74599
10.0 74619
10.0 74638
10.0 74657
10.0 74677
10.0 74696
10.0 74715
10.0 74734
10.0 74754
10.0 74773
10.0 74792
10.0 74812
10.0 74831
10.0 74850
10.0 74869
10.0 74889
10.0 74908
10.0 74927
10.0 74946
10.0 74966
10.0 74985
10.0 75004
10.0 75023
10.0 75043
10.0 75062
10.0 75081
10.0 75100
10.0 75120
10.0 75139
10.0 75158
10.0 75177
10.0 75196
10.0 75216
10.0 75235
10.0 75254
10.0 75273
10.0 75292
10.0 75312
10.0 75331
10.0 75350
10.0 75369
10.0 75389
10.0 75408
10.0 75427
10.0 75446
10.0 75466
10.0 75485
10.0 75504
10.0 75523
10.0 75542
10.0 75562
10.0 75581
10.0 75600
10.0 75619
10.0 75639
10.0 75658
10.0 75677
10.0 75696
10.0 75716
10.0 75735
10.0 75754
10.0 75773
10.0 75793
10.0 75812
10.0 75831
10.0 75850
10.0 75870
10.0 75889
10.0 75908
10.0 75927
10.0 75947
10.0 75966
10.0 75985
10.0 76004
10.0 76024
10.0 76043
10.0 76062
10.0 76081
10.0 76101
10.0 76120
10.0 76139
10.0 76159
10.0 76178
10.0 76197
10.0 76216
10.0 76235
10.0 76255
10.0 76274
10.0 76293
11.0 76401
11.0 76402
11.0 76405
11.0 76410
11.0 76417
11.0 76425
11.0 76434
11.0 76444
11.0 76456
11.0 76468
11.0 76481
11.0 76495
11.0 76509
11.0 76523
11.0 76538
11.0 76554
11.0 76570
11.0 76586
11.0 76602
11.0 76619
11.0 76636
11.0 76653
11.0 76670
11.0 76688
11.0 76706
11.0 76723
11.0 76741
11.0 76759
11.0 76777
11.0 76796
11.0 76814
11.0 76832
11.0 76851
11.0 76869
11.0 76888
11.0 76907
11.0 76925
11.0 76944
11.0 76963
11.0 76982
11.0 77001
11.0 77020
11.0 77039
11.0 77058
11.0 77077
11.0 77096
11.0 77115
11.0 77134
11.0 77153
11.0 77172
11.0 77191
11.0 77210
11.0 77230
11.0 77249
11.0 77268
11.0 77287
11.0 77306
11.0 77326
11.0 77345
11.0 77364
11.0 77383
11.0 77403
11.0 77422
11.0 77441
11.0 77460
11.0 77480
11.0 77499
11.0 77518
11.0 77537
11.0 77557
11.0 77576
11.0 77595
11.0 77615
11.0 77634
11.0 77653
11.0 77672
11.0 77692
11.0 77711
11.0 77730
11.0 77749
11.0 77769
11.0 77788
11.0 77807
11.0 77826
11.0 77846
11.0 77865
11.0 77884
11.0 77904
11.0 77923
11.0 77942
11.0 77961
11.0 77981
11.0 78000
11.0 78019
11.0 78039
11.0 78058
11.0 78077
11.0 78096
11.0 78116
11.0 78135
11.0 78154
11.0 78173
11.0 78193
11.0 78212
11.0 78231
11.0 78251
11.0 78270
11.0 78289
11.0 78308
11.0 78328
11.0 78347
11.0 78366
11.0 78385
11.0 78405
11.0 78424
11.0 78443
11.0 78463
11.0 78482
11.0 78501
11.0 78520
11.0 78540
11.0 78559
11.0 78578
11.0 78597
11.0 78617
11.0 78636
11.0 78655
11.0 78675
11.0 78694
11.0 78713
11.0 78733
11.0 78752
11.0 78771
11.0 78791
11.0 78810
11.0 78829
11.0 78848
11.0 78868
11.0 78887
11.0 78906
11.0 78926
11.0 78945
11.0 78964
11.0 78984
11.0 79003
11.0 79022
11.0 79042
11.0 79061
11.0 79080
11.0 79099
11.0 79119
11.0 79138
11.0 79157
11.0 79177
11.0 79196
11.0 79215
11.0 79234
11.0 79254
11.0 79273
11.0 79292
11.0 79311
11.0 79331
11.0 79350
11.0 79369
11.0 79388
11.0 79408
11.0 79427
11.0 79446
11.0 79465
11.0 79485
11.0 79504
11.0 79523
11.0 79543
11.0 79562
11.0 79581
11.0 79600
11.0 79620
11.0 79639
11.0 79658
11.0 79677
11.0 79697
11.0 79716
11.0 79735
11.0 79754
11.0 79774
11.0 79793
11.0 79812
11.0 79832
11.0 79851
11.0 79870
11.0 79889
11.0 79909
11.0 79928
11.0 79947
11.0 79967
11.0 79986
11.0 80005
11.0 80024
11.0 80044
11.0 80063
11.0 80082
11.0 80102
11.0 80121
11.0 80140
11.0 80159
11.0 80179
11.0 80198
11.0 80217
11.0 80236
11.0 80256
11.0 80275
11.0 80294
11.0 80314
11.0 80333
11.0 80352
11.0 80372
11.0 80391
11.0 80410
11.0 80429
11.0 80449
11.0 80468
11.0 80487
11.0 80506
11.0 80526
11.0 80545
11.0 80564
11.0 80584
11.0 80603
11.0 80622
11.0 80641
11.0 80661
11.0 80680
11.0 80699
11.0 80718
11.0 80738
11.0 80757
11.0 80776
11.0 80796
11.0 80815
11.0 80834
11.0 80853
11.0 80873
11.0 80892
11.0 80911
11.0 80930
11.0 80950
11.0 80969
11.0 80988
11.0 81008
11.0 81027
11.0 81046
11.0 81065
11.0 81085
11.0 81104
11.0 81123
11.0 81142
11.0 81162
11.0 81181
11.0 81200
11.0 81219
11.0 81239
11.0 81258
11.0 81277
11.0 81296
11.0 81316
11.0 81335
11.0 81354
11.0 81373
11.0 81393
11.0 81412
11.0 81431
11.0 81450
11.0 81470
11.0 81489
11.0 81508
11.0 81527
11.0 81547
11.0 81566
11.0 81585
11.0 81604
11.0 81624
11.0 81643
11.0 81662
11.0 81682
11.0 81701
11.0 81720
11.0 81739
11.0 81759
11.0 81778
11.0 81797
11.0 81816
11.0 81836
11.0 81855
11.0 81874
11.0 81893
11.0 81913
11.0 81932
11.0 81951
11.0 81970
11.0 81989
11.0 82009
11.0 82028
11.0 82047
11.0 82067
11.0 82086
11.0 82105
11.0 82124
11.0 82143
11.0 82163
11.0 82182
11.0 82201
11.0 82220
11.0 82240
11.0 82259
11.0 82278
11.0 82297
11.0 82317
11.0 82336
11.0 82355
11.0 82374
11.0 82394
11.0 82413
11.0 82432
11.0 82452
11.0 82471
11.0 82490
11.0 82509
11.0 82529
11.0 82548
11.0 82567
11.0 82586
11.0 82606
11.0 82625
11.0 82644
11.0 82664
11.0 82683
11.0 82702
11.0 82721
11.0 82741
11.0 82760
11.0 82779
11.0 82799
11.0 82818
11.0 82837
11.0 82856
11.0 82876
11.0 82895
11.0 82914
11.0 82933
11.0 82953
11.0 82972
11.0 82991
11.0 83010
11.0 83030
11.0 83049
11.0 83068
11.0 83088
11.0 83107
11.0 83126
11.0 83145
11.0 83165
11.0 83184
11.0 83203
11.0 83222
11.0 83242
11.0 83261
11.0 83280
11.0 83300
11.0 83319
11.0 83338
11.0 83357
11.0 83377
11.0 83396
11.0 83415
11.0 83435
11.0 83454
11.0 83473
11.0 83492
11.0 83512
11.0 83531
11.0 83550
11.0 83569
11.0 83589
11.0 83608
11.0 83627
11.0 83647
11.0 83666
11.0 83685
11.0 83704
11.0 83724
11.0 83743
11.0 83762
11.0 83781
11.0 83801
11.0 83820
11.0 83839
11.0 83858
11.0 83878
11.0 83897
11.0 83916
12.0 84024
12.0 84024
12.0 84027
12.0 84032
12.0 84039
12.0 84047
12.0 84056
12.0 84066
12.0 84078
12.0 84090
12.0 84103
12.0 84116
12.0 84131
12.0 84145
12.0 84160
12.0 84176
12.0 84191
12.0 84208
12.0 84224
12.0 84241
12.0 84258
12.0 84275
12.0 84292
12.0 84310
12.0 84327
12.0 84345
12.0 84363
12.0 84381
12.0 84399
12.0 84418
12.0 84436
12.0 84454
12.0 84473
12.0 84491
12.0 84510
12.0 84529
12.0 84548
12.0 84566
12.0 84585
12.0 84604
12.0 84623
12.0 84642
12.0 84661
12.0 84680
12.0 84699
12.0 84718
12.0 84737
12.0 84756
12.0 84775
12.0 84794
12.0 84814
12.0 84833
12.0 84852
12.0 84871
12.0 84890
12.0 84909
12.0 84929
12.0 84948
12.0 84967
12.0 84986
12.0 85006
12.0 85025
12.0 85044
12.0 85063
12.0 85082
12.0 85102
12.0 85121
12.0 85140
12.0 85160
12.0 85179
12.0 85198
12.0 85217
12.0 85237
12.0 85256
12.0 85275
12.0 85294
12.0 85314
12.0 85333
12.0 85352
12.0 85372
12.0 85391
12.0 85410
12.0 85429
12.0 85449
12.0 85468
12.0 85487
12.0 85506
12.0 85526
12.0 85545
12.0 85564
12.0 85584
12.0 85603
12.0 85622
12.0 85641
12.0 85661
12.0 85680
12.0 85699
12.0 85718
12.0 85738
12.0 85757
12.0 85776
12.0 85795
12.0 85814
12.0 85834
12.0 85853
12.0 85872
12.0 85891
12.0 85911
12.0 85930
12.0 85949
12.0 85968
12.0 85988
12.0 86007
12.0 86026
12.0 86045
12.0 86065
12.0 86084
12.0 86103
12.0 86122
12.0 86142
12.0 86161
12.0 86180
12.0 86199
12.0 86219
12.0 86238
12.0 86257
12.0 86276
12.0 86296
12.0 86315
12.0 86334
12.0 86353
12.0 86373
12.0 86392
12.0 86411
12.0 86430
12.0 86450
12.0 86469
12.0 86488
12.0 86507
12.0 86527
12.0 86546
12.0 86565
12.0 86585
12.0 86604
12.0 86623
12.0 86642
12.0 86662
12.0 86681
12.0 86700
12.0 86720
12.0 86739
12.0 86758
12.0 86777
12.0 86797
12.0 86816
12.0 86835
12.0 86854
12.0 86874
12.0 86893
12.0 86912
12.0 86932
12.0 86951
12.0 86970
12.0 86989
12.0 87009
12.0 87028
12.0 87047
12.0 87066
12.0 87086
12.0 87105
12.0 87124
12.0 87143
12.0 87163
12.0 87182
12.0 87201
12.0 87220
12.0 87240
12.0 87259
12.0 87278
12.0 87298
12.0 87317
12.0 87336
12.0 87356
12.0 87375
12.0 87394
12.0 87413
12.0 87432
12.0 87452
12.0 87471
12.0 87490
12.0 87509
12.0 87529
12.0 87548
12.0 87567
12.0 87586
12.0 87606
12.0 87625
12.0 87644
12.0 87663
12.0 87683
12.0 87702
12.0 87721
12.0 87740
12.0 87760
12.0 87779
12.0 87798
12.0 87817
12.0 87837
12.0 87856
12.0 87875
12.0 87894
12.0 87914
12.0 87933
12.0 87952
12.0 87971
12.0 87991
12.0 88010
12.0 88029
12.0 88048
12.0 88068
12.0 88087
12.0 88106
12.0 88126
12.0 88145
12.0 88164
12.0 88184
12.0 88203
12.0 88222
12.0 88241
12.0 88261
12.0 88280
12.0 88299
12.0 88319
12.0 88338
12.0 88357
12.0 88376
12.0 88396
12.0 88415
12.0 88434
12.0 88453
12.0 88473
12.0 88492
12.0 88511
12.0 88531
12.0 88550
12.0 88569
12.0 88588
12.0 88608
12.0 88627
12.0 88646
12.0 88665
12.0 88685
12.0 88704
12.0 88723
12.0 88742
12.0 88762
12.0 88781
12.0 88800
12.0 88819
12.0 88838
12.0 88858
12.0 88877
12.0 88896
12.0 88916
12.0 88935
12.0 88954
12.0 88973
12.0 88992
12.0 89012
12.0 89031
12.0 89050
12.0 89069
12.0 89089
12.0 89108
12.0 89127
12.0 89146
12.0 89166
12.0 89185
12.0 89204
12.0 89223
12.0 89243
12.0 89262
12.0 89281
12.0 89300
12.0 89319
12.0 89339
12.0 89358
12.0 89377
12.0 89396
12.0 89416
12.0 89435
12.0 89454
12.0 89473
12.0 89493
12.0 89512
12.0 89531
12.0 89550
12.0 89570
12.0 89589
12.0 89608
12.0 89627
12.0 89647
12.0 89666
12.0 89685
12.0 89704
12.0 89724
12.0 89743
12.0 89762
12.0 89782
12.0 89801
12.0 89820
12.0 89839
12.0 89859
12.0 89878
12.0 89897
12.0 89916
12.0 89936
12.0 89955
12.0 89974
12.0 89993
12.0 90013
12.0 90032
12.0 90051
12.0 90070
12.0 90090
12.0 90109
12.0 90128
12.0 90147
12.0 90167
12.0 90186
12.0 90205
12.0 90224
12.0 90244
12.0 90263
12.0 90282
12.0 90301
12.0 90321
12.0 90340
12.0 90359
12.0 90379
12.0 90398
12.0 90417
12.0 90436
12.0 90456
12.0 90475
12.0 90494
12.0 90514
12.0 90533
12.0 90552
12.0 90571
12.0 90591
12.0 90610
12.0 90629
12.0 90648
12.0 90668
12.0 90687
12.0 90706
12.0 90726
12.0 90745
12.0 90764
12.0 90783
12.0 90803
12.0 90822
12.0 90841
12.0 90860
12.0 90880
12.0 90899
12.0 90918
12.0 90938
12.0 90957
12.0 90976
12.0 90995
12.0 91015
12.0 91034
12.0 91053
12.0 91072
12.0 91092
12.0 91111
12.0 91130
12.0 91150
12.0 91169
12.0 91188
12.0 91207
12.0 91227
12.0 91246
12.0 91265
12.0 91284
12.0 91304
12.0 91323
12.0 91342
12.0 91361
12.0 91380
12.0 91400
12.0 91419
12.0 91438
12.0 91457
12.0 91477
12.0 91496
12.0 91515
12.0 91535
13.0 91644
13.0 91644
13.0 91647
13.0 91652
13.0 91659
13.0 91667
13.0 91676
13.0 91686
13.0 91698
13.0 91710
13.0 91723
13.0 91736
13.0 91751
13.0 91765
13.0 91780
13.0 91796
13.0 91812
13.0 91828
13.0 91844
13.0 91861
13.0 91878
13.0 91895
13.0 91912
13.0 91930
13.0 91948
13.0 91966
13.0 91983
13.0 92002
13.0 92020
13.0 92038
13.0 92056
13.0 92075
13.0 92093
13.0 92112
13.0 92131
13.0 92149
13.0 92168
13.0 92187
13.0 92206
13.0 92225
13.0 92244
13.0 92263
13.0 92282
13.0 92301
13.0 92320
13.0 92339
13.0 92358
13.0 92377
13.0 92396
13.0 92415
13.0 92434
13.0 92453
13.0 92473
13.0 92492
13.0 92511
13.0 92530
13.0 92549
13.0 92569
13.0 92588
13.0 92607
13.0 92626
13.0 92645
13.0 92665
13.0 92684
13.0 92703
13.0 92723
13.0 92742
13.0 92761
13.0 92780
13.0 92800
13.0 92819
13.0 92838
13.0 92857
13.0 92877
13.0 92896
13.0 92915
13.0 92934
13.0 92954
13.0 92973
13.0 92992
13.0 93012
13.0 93031
13.0 93050
13.0 93069
13.0 93089
13.0 93108
13.0 93127
13.0 93146
13.0 93166
13.0 93185
13.0 93204
13.0 93224
13.0 93243
13.0 93262
13.0 93281
13.0 93301
13.0 93320
13.0 93339
13.0 93359
13.0 93378
13.0 93397
13.0 93416
13.0 93436
13.0 93455
13.0 93474
13.0 93494
13.0 93513
13.0 93532
13.0 93551
13.0 93571
13.0 93590
13.0 93609
13.0 93628
13.0 93648
13.0 93667
13.0 93686
13.0 93706
13.0 93725
13.0 93744
13.0 93763
13.0 93783
13.0 93802
13.0 93821
13.0 93840
13.0 93860
13.0 93879
13.0 93898
13.0 93918
13.0 93937
13.0 93956
13.0 93976
13.0 93995
13.0 94014
13.0 94033
13.0 94053
13.0 94072
13.0 94091
13.0 94111
13.0 94130
13.0 94149
13.0 94168
13.0 94188
13.0 94207
13.0 94226
13.0 94246
13.0 94265
13.0 94284
13.0 94304
13.0 94323
13.0 94342
13.0 94361
13.0 94381
13.0 94400
13.0 94419
13.0 94439
13.0 94458
13.0 94477
13.0 94496
13.0 94516
13.0 94535
13.0 94554
13.0 94573
13.0 94593
13.0 94612
13.0 94631
13.0 94650
13.0 94670
13.0 94689
13.0 94708
13.0 94728
13.0 94747
13.0 94766
13.0 94785
13.0 94805
13.0 94824
13.0 94843
13.0 94863
13.0 94882
13.0 94901
13.0 94920
13.0 94940
13.0 94959
13.0 94978
13.0 94997
13.0 95017
13.0 95036
13.0 95055
13.0 95074
13.0 95094
13.0 95113
13.0 95132
13.0 95151
13.0 95171
13.0 95190
13.0 95209
13.0 95228
13.0 95248
13.0 95267
13.0 95286
13.0 95305
13.0 95325
13.0 95344
13.0 95363
13.0 95382
13.0 95402
13.0 95421
13.0 95440
13.0 95459
13.0 95479
13.0 95498
13.0 95517
13.0 95536
13.0 95556
13.0 95575
13.0 95594
13.0 95613
13.0 95633
13.0 95652
13.0 95671
13.0 95690
13.0 95710
13.0 95729
13.0 95748
13.0 95768
13.0 95787
13.0 95806
13.0 95825
13.0 95845
13.0 95864
13.0 95883
13.0 95903
13.0 95922
13.0 95941
13.0 95960
13.0 95980
13.0 95999
13.0 96018
13.0 96038
13.0 96057
13.0 96076
13.0 96096
13.0 96115
13.0 96134
13.0 96154
13.0 96173
13.0 96192
13.0 96212
13.0 96231
13.0 96250
13.0 96269
13.0 96289
13.0 96308
13.0 96327
13.0 96347
13.0 96366
13.0 96385
13.0 96404
13.0 96424
13.0 96443
13.0 96462
13.0 96482
13.0 96501
13.0 96520
13.0 96539
13.0 96559
13.0 96578
13.0 96597
13.0 96617
13.0 96636
13.0 96655
13.0 96675
13.0 96694
13.0 96713
13.0 96732
13.0 96752
13.0 96771
13.0 96790
13.0 96809
13.0 96829
13.0 96848
13.0 96867
13.0 96887
13.0 96906
13.0 96925
13.0 96944
13.0 96964
13.0 96983
13.0 97002
13.0 97022
13.0 97041
13.0 97060
13.0 97080
13.0 97099
13.0 97118
13.0 97138
13.0 97157
13.0 97176
13.0 97196
13.0 97215
13.0 97234
13.0 97253
13.0 97273
13.0 97292
13.0 97311
13.0 97331
13.0 97350
13.0 97369
13.0 97388
13.0 97408
13.0 97427
13.0 97446
13.0 97466
13.0 97485
13.0 97504
13.0 97523
13.0 97543
13.0 97562
13.0 97581
13.0 97600
13.0 97620
13.0 97639
13.0 97658
13.0 97678
13.0 97697
13.0 97716
13.0 97736
13.0 97755
13.0 97774
13.0 97793
13.0 97813
13.0 97832
13.0 97851
13.0 97870
13.0 97890
13.0 97909
13.0 97928
13.0 97948
13.0 97967
13.0 97986
13.0 98005
13.0 98025
13.0 98044
13.0 98063
13.0 98083
13.0 98102
13.0 98121
13.0 98140
13.0 98160
13.0 98179
13.0 98198
13.0 98217
13.0 98237
13.0 98256
13.0 98275
13.0 98295
13.0 98314
13.0 98333
13.0 98352
13.0 98372
13.0 98391
13.0 98410
13.0 98429
13.0 98449
13.0 98468
13.0 98487
13.0 98507
13.0 98526
13.0 98545
13.0 98564
13.0 98584
13.0 98603
13.0 98622
13.0 98641
13.0 98661
13.0 98680
13.0 98699
13.0 98719
13.0 98738
13.0 98757
13.0 98776
13.0 98796
13.0 98815
13.0 98834
13.0 98854
13.0 98873
13.0 98892
13.0 98912
13.0 98931
13.0 98950
13.0 98969
13.0 98989
13.0 99008
13.0 99027
13.0 99047
13.0 99066
13.0 99085
13.0 99104
13.0 99124
13.0 99143
13.0 99162
14.0 99270
14.0 99271
14.0 99274
14.0 99279
14.0 99286
14.0 99294
14.0 99303
14.0 99314
14.0 99325
14.0 99337
14.0 99350
14.0 99364
14.0 99378
14.0 99393
14.0 99408
14.0 99424
14.0 99440
14.0 99456
14.0 99472
14.0 99489
14.0 99506
14.0 99523
14.0 99541
14.0 99558
14.0 99576
14.0 99594
14.0 99612
14.0 99630
14.0 99648
14.0 99666
14.0 99685
14.0 99703
14.0 99722
14.0 99740
14.0 99759
14.0 99778
14.0 99797
14.0 99816
14.0 99834
14.0 99853
14.0 99872
14.0 99891
14.0 99910
14.0 99929
14.0 99949
14.0 99968
14.0 99987
14.0 100006
14.0 100025
14.0 100044
14.0 100063
14.0 100082
14.0 100102
14.0 100121
14.0 100140
14.0 100159
14.0 100178
14.0 100198
14.0 100217
14.0 100236
14.0 100255
14.0 100275
14.0 100294
14.0 100313
14.0 100332
14.0 100352
14.0 100371
14.0 100390
14.0 100409
14.0 100429
14.0 100448
14.0 100467
14.0 100487
14.0 100506
14.0 100525
14.0 100544
14.0 100564
14.0 100583
14.0 100602
14.0 100621
14.0 100641
14.0 100660
14.0 100679
14.0 100699
14.0 100718
14.0 100737
14.0 100756
14.0 100776
14.0 100795
14.0 100814
14.0 100834
14.0 100853
14.0 100872
14.0 100892
14.0 100911
14.0 100930
14.0 100949
14.0 100969
14.0 100988
14.0 101007
14.0 101026
14.0 101046
14.0 101065
14.0 101084
14.0 101104
14.0 101123
14.0 101142
14.0 101161
14.0 101181
14.0 101200
14.0 101219
14.0 101238
14.0 101258
14.0 101277
14.0 101296
14.0 101316
14.0 101335
14.0 101354
14.0 101373
14.0 101393
14.0 101412
14.0 101431
14.0 101451
14.0 101470
14.0 101489
14.0 101508
14.0 101528
14.0 101547
14.0 101566
14.0 101586
14.0 101605
14.0 101624
14.0 101643
14.0 101663
14.0 101682
14.0 101701
14.0 101720
14.0 101740
14.0 101759
14.0 101778
14.0 101798
14.0 101817
14.0 101836
14.0 101855
14.0 101875
14.0 101894
14.0 101913
14.0 101932
14.0 101952
14.0 101971
14.0 101990
14.0 102010
14.0 102029
14.0 102048
14.0 102068
14.0 102087
14.0 102106
14.0 102125
14.0 102145
14.0 102164
14.0 102183
14.0 102202
14.0 102222
14.0 102241
14.0 102260
14.0 102279
14.0 102299
14.0 102318
14.0 102337
14.0 102356
14.0 102376
14.0 102395
14.0 102414
14.0 102434
14.0 102453
14.0 102472
14.0 102491
14.0 102511
14.0 102530
14.0 102549
14.0 102568
14.0 102588
14.0 102607
14.0 102626
14.0 102646
14.0 102665
14.0 102684
14.0 102703
14.0 102723
14.0 102742
14.0 102761
14.0 102780
14.0 102800
14.0 102819
14.0 102838
14.0 102858
14.0 102877
14.0 102896
14.0 102915
14.0 102935
14.0 102954
14.0 102973
14.0 102992
14.0 103012
14.0 103031
14.0 103050
14.0 103070
14.0 103089
14.0 103108
14.0 103128
14.0 103147
14.0 103166
14.0 103185
14.0 103205
14.0 103224
14.0 103243
14.0 103262
14.0 103282
14.0 103301
14.0 103320
14.0 103340
14.0 103359
14.0 103378
14.0 103397
14.0 103417
14.0 103436
14.0 103455
14.0 103475
14.0 103494
14.0 103513
14.0 103532
14.0 103552
14.0 103571
14.0 103590
14.0 103609
14.0 103629
14.0 103648
14.0 103667
14.0 103687
14.0 103706
14.0 103725
14.0 103744
14.0 103764
14.0 103783
14.0 103802
14.0 103822
14.0 103841
14.0 103860
14.0 103879
14.0 103899
14.0 103918
14.0 103937
14.0 103956
14.0 103976
14.0 103995
14.0 104014
14.0 104033
14.0 104053
14.0 104072
14.0 104091
14.0 104111
14.0 104130
14.0 104149
14.0 104168
14.0 104188
14.0 104207
14.0 104226
14.0 104245
14.0 104265
14.0 104284
14.0 104303
14.0 104322
14.0 104342
14.0 104361
14.0 104380
14.0 104399
14.0 104419
14.0 104438
14.0 104457
14.0 104476
14.0 104496
14.0 104515
14.0 104534
14.0 104554
14.0 104573
14.0 104592
14.0 104611
14.0 104631
14.0 104650
14.0 104669
14.0 104688
14.0 104708
14.0 104727
14.0 104746
14.0 104765
14.0 104785
14.0 104804
14.0 104823
14.0 104842
14.0 104862
14.0 104881
14.0 104900
14.0 104919
14.0 104939
14.0 104958
14.0 104977
14.0 104996
14.0 105016
14.0 105035
14.0 105054
14.0 105073
14.0 105092
14.0 105112
14.0 105131
14.0 105150
14.0 105169
14.0 105189
14.0 105208
14.0 105227
14.0 105246
14.0 105266
14.0 105285
14.0 105304
14.0 105323
14.0 105343
14.0 105362
14.0 105381
14.0 105400
14.0 105420
14.0 105439
14.0 105458
14.0 105477
14.0 105497
14.0 105516
14.0 105535
14.0 105554
14.0 105574
14.0 105593
14.0 105612
14.0 105631
14.0 105651
14.0 105670
14.0 105689
14.0 105708
14.0 105728
14.0 105747
14.0 105766
14.0 105785
14.0 105805
14.0 105824
14.0 105843
14.0 105862
14.0 105881
14.0 105901
14.0 105920
14.0 105939
14.0 105959
14.0 105978
14.0 105997
14.0 106016
14.0 106036
14.0 106055
14.0 106074
14.0 106093
14.0 106113
14.0 106132
14.0 106151
14.0 106170
14.0 106190
14.0 106209
14.0 106228
14.0 106247
14.0 106267
14.0 106286
14.0 106305
14.0 106325
14.0 106344
14.0 106363
14.0 106382
14.0 106402
14.0 106421
14.0 106440
14.0 106460
14.0 106479
14.0 106498
14.0 106517
14.0 106537
14.0 106556
14.0 106575
14.0 106595
14.0 106614
14.0 106633
14.0 106653
14.0 106672
14.0 106691
14.0 106711
14.0 106730
14.0 106749
14.0 106768
14.0 106788
15.0 106896
15.0 106896
15.0 106899
15.0 106904
15.0 106911
15.0 106919
15.0 106928
15.0 106938
15.0 106950
15.0 106962
15.0 106975
15.0 106988
15.0 107003
15.0 107017
15.0 107032
15.0 107048
15.0 107064
15.0 107080
15.0 107096
15.0 107113
15.0 107130
15.0 107147
15.0 107165
15.0 107182
15.0 107200
15.0 107218
15.0 107236
15.0 107254
15.0 107272
15.0 107290
15.0 107308
15.0 107327
15.0 107345
15.0 107364
15.0 107383
15.0 107401
15.0 107420
15.0 107439
15.0 107458
15.0 107477
15.0 107496
15.0 107515
15.0 107534
15.0 107553
15.0 107572
15.0 107591
15.0 107610
15.0 107629
15.0 107648
15.0 107668
15.0 107687
15.0 107706
15.0 107725
15.0 107744
15.0 107763
15.0 107783
15.0 107802
15.0 107821
15.0 107840
15.0 107860
15.0 107879
15.0 107898
15.0 107917
15.0 107936
15.0 107956
15.0 107975
15.0 107994
15.0 108014
15.0 108033
15.0 108052
15.0 108071
15.0 108091
15.0 108110
15.0 108129
15.0 108149
15.0 108168
15.0 108187
15.0 108206
15.0 108226
15.0 108245
15.0 108264
15.0 108284
15.0 108303
15.0 108322
15.0 108341
15.0 108361
15.0 108380
15.0 108399
15.0 108419
15.0 108438
15.0 108457
15.0 108476
15.0 108496
15.0 108515
15.0 108534
15.0 108554
15.0 108573
15.0 108592
15.0 108612
15.0 108631
15.0 108650
15.0 108670
15.0 108689
15.0 108708
15.0 108727
15.0 108747
15.0 108766
15.0 108785
15.0 108805
15.0 108824
15.0 108843
15.0 108862
15.0 108882
15.0 108901
15.0 108920
15.0 108940
15.0 108959
15.0 108978
15.0 108997
15.0 109017
15.0 109036
15.0 109055
15.0 109075
15.0 109094
15.0 109113
15.0 109132
15.0 109152
15.0 109171
15.0 109190
15.0 109210
15.0 109229
15.0 109248
15.0 109267
15.0 109287
15.0 109306
15.0 109325
15.0 109344
15.0 109364
15.0 109383
15.0 109402
15.0 109422
15.0 109441
15.0 109460
15.0 109479
15.0 109499
15.0 109518
15.0 109537
15.0 109557
15.0 109576
15.0 109595
15.0 109614
15.0 109634
15.0 109653
15.0 109672
15.0 109692
15.0 109711
15.0 109730
15.0 109750
15.0 109769
15.0 109788
15.0 109808
15.0 109827
15.0 109846
15.0 109865
15.0 109885
15.0 109904
15.0 109923
15.0 109943
15.0 109962
15.0 109981
15.0 110000
15.0 110020
15.0 110039
15.0 110058
15.0 110078
15.0 110097
15.0 110116
15.0 110136
15.0 110155
15.0 110174
15.0 110194
15.0 110213
15.0 110232
15.0 110252
15.0 110271
15.0 110290
15.0 110310
15.0 110329
15.0 110348
15.0 110368
15.0 110387
15.0 110406
15.0 110426
15.0 110445
15.0 110464
15.0 110484
15.0 110503
15.0 110522
15.0 110542
15.0 110561
15.0 110580
15.0 110600
15.0 110619
15.0 110639
15.0 110658
15.0 110677
15.0 110697
15.0 110716
15.0 110735
15.0 110755
15.0 110774
15.0 110793
15.0 110813
15.0 110832
15.0 110851
15.0 110871
15.0 110890
15.0 110909
15.0 110929
15.0 110948
15.0 110967
15.0 110987
15.0 111006
15.0 111025
15.0 111044
15.0 111064
15.0 111083
15.0 111102
15.0 111122
15.0 111141
15.0 111160
15.0 111180
15.0 111199
15.0 111218
15.0 111237
15.0 111257
15.0 111276
15.0 111295
15.0 111315
15.0 111334
15.0 111353
15.0 111373
15.0 111392
15.0 111411
15.0 111431
15.0 111450
15.0 111469
15.0 111488
15.0 111508
15.0 111527
15.0 111546
15.0 111566
15.0 111585
15.0 111604
15.0 111624
15.0 111643
15.0 111662
15.0 111682
15.0 111701
15.0 111720
15.0 111740
15.0 111759
15.0 111778
15.0 111798
15.0 111817
15.0 111836
15.0 111856
15.0 111875
15.0 111894
15.0 111914
15.0 111933
15.0 111952
15.0 111972
15.0 111991
15.0 112010
15.0 112030
15.0 112049
15.0 112068
15.0 112088
15.0 112107
15.0 112126
15.0 112145
15.0 112165
15.0 112184
15.0 112204
15.0 112223
15.0 112242
15.0 112261
15.0 112281
15.0 112300
15.0 112319
15.0 112339
15.0 112358
15.0 112377
15.0 112397
15.0 112416
15.0 112435
15.0 112454
15.0 112474
15.0 112493
15.0 112512
15.0 112532
15.0 112551
15.0 112570
15.0 112589
15.0 112609
15.0 112628
15.0 112647
15.0 112667
15.0 112686
15.0 112705
15.0 112724
15.0 112744
15.0 112763
15.0 112782
15.0 112801
15.0 112820
15.0 112840
15.0 112859
15.0 112878
15.0 112897
15.0 112917
15.0 112936
15.0 112955
15.0 112974
15.0 112994
15.0 113013
15.0 113032
15.0 113052
15.0 113071
15.0 113090
15.0 113109
15.0 113129
15.0 113148
15.0 113167
15.0 113186
15.0 113206
15.0 113225
15.0 113244
15.0 113264
15.0 113283
15.0 113302
15.0 113321
15.0 113341
15.0 113360
15.0 113379
15.0 113398
15.0 113418
15.0 113437
15.0 113456
15.0 113476
15.0 113495
15.0 113514
15.0 113533
15.0 113553
15.0 113572
15.0 113591
15.0 113610
15.0 113630
15.0 113649
15.0 113668
15.0 113687
15.0 113707
15.0 113726
15.0 113745
15.0 113764
15.0 113784
15.0 113803
15.0 113822
15.0 113842
15.0 113861
15.0 113880
15.0 113899
15.0 113919
15.0 113938
15.0 113957
15.0 113976
15.0 113996
15.0 114015
15.0 114034
15.0 114053
15.0 114073
15.0 114092
15.0 114111
15.0 114130
15.0 114150
15.0 114169
15.0 114188
15.0 114208
15.0 114227
15.0 114246
15.0 114265
15.0 114285
15.0 114304
15.0 114323
15.0 114342
15.0 114362
15.0 114381
15.0 114400
15.0 114420
16.0 114527
16.0 114528
16.0 114531
16.0 114536
16.0 114543
16.0 114551
16.0 114560
16.0 114571
16.0 114582
16.0 114594
16.0 114607
16.0 114621
16.0 114635
16.0 114650
16.0 114665
16.0 114680
16.0 114697
16.0 114713
16.0 114729
16.0 114746
16.0 114763
16.0 114780
16.0 114798
16.0 114815
16.0 114833
16.0 114851
16.0 114869
16.0 114887
16.0 114905
16.0 114924
16.0 114942
16.0 114961
16.0 114979
16.0 114998
16.0 115016
16.0 115035
16.0 115054
16.0 115073
16.0 115092
16.0 115111
16.0 115130
16.0 115149
16.0 115168
16.0 115187
16.0 115206
16.0 115225
16.0 115244
16.0 115263
16.0 115282
16.0 115301
16.0 115321
16.0 115340
16.0 115359
16.0 115378
16.0 115397
16.0 115416
16.0 115436
16.0 115455
16.0 115474
16.0 115493
16.0 115513
16.0 115532
16.0 115551
16.0 115570
16.0 115590
16.0 115609
16.0 115628
16.0 115647
16.0 115667
16.0 115686
16.0 115705
16.0 115724
16.0 115744
16.0 115763
16.0 115782
16.0 115802
16.0 115821
16.0 115840
16.0 115859
16.0 115879
16.0 115898
16.0 115917
16.0 115936
16.0 115956
16.0 115975
16.0 115994
16.0 116013
16.0 116033
16.0 116052
16.0 116071
16.0 116090
16.0 116110
16.0 116129
16.0 116148
16.0 116168
16.0 116187
16.0 116206
16.0 116225
16.0 116245
16.0 116264
16.0 116283
16.0 116302
16.0 116322
16.0 116341
16.0 116360
16.0 116379
16.0 116399
16.0 116418
16.0 116437
16.0 116456
16.0 116476
16.0 116495
16.0 116514
16.0 116534
16.0 116553
16.0 116572
16.0 116591
16.0 116611
16.0 116630
16.0 116649
16.0 116668
16.0 116688
16.0 116707
16.0 116726
16.0 116746
16.0 116765
16.0 116784
16.0 116803
16.0 116823
16.0 116842
16.0 116861
16.0 116880
16.0 116900
16.0 116919
16.0 116938
16.0 116958
16.0 116977
16.0 116996
16.0 117015
16.0 117035
16.0 117054
16.0 117073
16.0 117093
16.0 117112
16.0 117131
16.0 117150
16.0 117170
16.0 117189
16.0 117208
16.0 117228
16.0 117247
16.0 117266
16.0 117285
16.0 117305
16.0 117324
16.0 117343
16.0 117363
16.0 117382
16.0 117401
16.0 117420
16.0 117440
16.0 117459
16.0 117478
16.0 117497
16.0 117517
16.0 117536
16.0 117555
16.0 117575
16.0 117594
16.0 117613
16.0 117632
16.0 117652
16.0 117671
16.0 117690
16.0 117710
16.0 117729
16.0 117748
16.0 117768
16.0 117787
16.0 117806
16.0 117825
16.0 117845
16.0 117864
16.0 117883
16.0 117902
16.0 117922
16.0 117941
16.0 117960
16.0 117980
16.0 117999
16.0 118018
16.0 118037
16.0 118057
16.0 118076
16.0 118095
16.0 118115
16.0 118134
16.0 118153
16.0 118172
16.0 118192
16.0 118211
16.0 118230
16.0 118250
16.0 118269
16.0 118288
16.0 118307
16.0 118327
16.0 118346
16.0 118365
16.0 118384
16.0 118404
16.0 118423
16.0 118442
16.0 118462
16.0 118481
16.0 118500
16.0 118519
16.0 118539
16.0 118558
16.0 118577
16.0 118596
16.0 118616
16.0 118635
16.0 118654
16.0 118673
16.0 118693
16.0 118712
16.0 118731
16.0 118751
16.0 118770
16.0 118789
16.0 118808
16.0 118828
16.0 118847
16.0 118866
16.0 118885
16.0 118905
16.0 118924
16.0 118943
16.0 118962
16.0 118982
16.0 119001
16.0 119020
16.0 119040
16.0 119059
16.0 119078
16.0 119097
16.0 119117
16.0 119136
16.0 119155
16.0 119174
16.0 119194
16.0 119213
16.0 119232
16.0 119252
16.0 119271
16.0 119290
16.0 119309
16.0 119329
16.0 119348
16.0 119367
16.0 119387
16.0 119406
16.0 119425
16.0 119444
16.0 119464
16.0 119483
16.0 119502
16.0 119522
16.0 119541
16.0 119560
16.0 119580
16.0 119599
16.0 119618
16.0 119638
16.0 119657
16.0 119676
16.0 119695
16.0 119715
16.0 119734
16.0 119753
16.0 119773
16.0 119792
16.0 119811
16.0 119830
16.0 119850
16.0 119869
16.0 119888
16.0 119907
16.0 119927
16.0 119946
16.0 119965
16.0 119985
16.0 120004
16.0 120023
16.0 120042
16.0 120062
16.0 120081
16.0 120100
16.0 120120
16.0 120139
16.0 120158
16.0 120178
16.0 120197
16.0 120216
16.0 120236
16.0 120255
16.0 120274
16.0 120293
16.0 120313
16.0 120332
16.0 120351
16.0 120371
16.0 120390
16.0 120409
16.0 120429
16.0 120448
16.0 120467
16.0 120487
16.0 120506
16.0 120525
16.0 120545
16.0 120564
16.0 120583
16.0 120603
16.0 120622
16.0 120641
16.0 120661
16.0 120680
16.0 120699
16.0 120719
16.0 120738
16.0 120757
16.0 120776
16.0 120796
16.0 120815
16.0 120834
16.0 120854
16.0 120873
16.0 120892
16.0 120912
16.0 120931
16.0 120950
16.0 120970
16.0 120989
16.0 121008
16.0 121028
16.0 121047
16.0 121066
16.0 121085
16.0 121105
16.0 121124
16.0 121143
16.0 121163
16.0 121182
16.0 121201
16.0 121220
16.0 121240
16.0 121259
16.0 121278
16.0 121298
16.0 121317
16.0 121336
16.0 121355
16.0 121375
16.0 121394
16.0 121413
16.0 121432
16.0 121452
16.0 121471
16.0 121490
16.0 121510
16.0 121529
16.0 121548
16.0 121567
16.0 121587
16.0 121606
16.0 121625
16.0 121644
16.0 121664
16.0 121683
16.0 121702
16.0 121721
16.0 121741
16.0 121760
16.0 121779
16.0 121799
16.0 121818
16.0 121837
16.0 121856
16.0 121876
16.0 121895
16.0 121914
16.0 121933
16.0 121953
16.0 121972
16.0 121991
16.0 122011
16.0 122030
16.0 122049
17.0 122159
17.0 122160
17.0 122163
17.0 122168
17.0 122174
17.0 122183
17.0 122192
17.0 122202
17.0 122214
17.0 122226
17.0 122239
17.0 122253
17.0 122267
17.0 122281
17.0 122297
17.0 122312
17.0 122328
17.0 122344
17.0 122361
17.0 122378
17.0 122395
17.0 122412
17.0 122429
17.0 122447
17.0 122465
17.0 122483
17.0 122500
17.0 122519
17.0 122537
17.0 122555
17.0 122574
17.0 122592
17.0 122611
17.0 122629
17.0 122648
17.0 122667
17.0 122686
17.0 122704
17.0 122723
17.0 122742
17.0 122761
17.0 122780
17.0 122799
17.0 122818
17.0 122837
17.0 122857
17.0 122876
17.0 122895
17.0 122914
17.0 122933
17.0 122952
17.0 122972
17.0 122991
17.0 123010
17.0 123029
17.0 123049
17.0 123068
17.0 123087
17.0 123106
17.0 123126
17.0 123145
17.0 123164
17.0 123184
17.0 123203
17.0 123222
17.0 123241
17.0 123261
17.0 123280
17.0 123299
17.0 123319
17.0 123338
17.0 123357
17.0 123376
17.0 123396
17.0 123415
17.0 123434
17.0 123454
17.0 123473
17.0 123492
17.0 123512
17.0 123531
17.0 123550
17.0 123569
17.0 123589
17.0 123608
17.0 123627
17.0 123647
17.0 123666
17.0 123685
17.0 123705
17.0 123724
17.0 123743
17.0 123763
17.0 123782
17.0 123801
17.0 123820
17.0 123840
17.0 123859
17.0 123878
17.0 123898
17.0 123917
17.0 123936
17.0 123956
17.0 123975
17.0 123994
17.0 124013
17.0 124033
17.0 124052
17.0 124071
17.0 124091
17.0 124110
17.0 124129
17.0 124148
17.0 124168
17.0 124187
17.0 124206
17.0 124225
17.0 124245
17.0 124264
17.0 124283
17.0 124302
17.0 124322
17.0 124341
17.0 124360
17.0 124379
17.0 124399
17.0 124418
17.0 124437
17.0 124456
17.0 124476
17.0 124495
17.0 124514
17.0 124533
17.0 124553
17.0 124572
17.0 124591
17.0 124610
17.0 124630
17.0 124649
17.0 124668
17.0 124688
17.0 124707
17.0 124726
17.0 124745
17.0 124765
17.0 124784
17.0 124803
17.0 124823
17.0 124842
17.0 124861
17.0 124880
17.0 124900
17.0 124919
17.0 124938
17.0 124958
17.0 124977
17.0 124996
17.0 125016
17.0 125035
17.0 125054
17.0 125074
17.0 125093
17.0 125112
17.0 125132
17.0 125151
17.0 125170
17.0 125190
17.0 125209
17.0 125228
17.0 125248
17.0 125267
17.0 125286
17.0 125306
17.0 125325
17.0 125344
17.0 125364
17.0 125383
17.0 125402
17.0 125422
17.0 125441
17.0 125460
17.0 125480
17.0 125499
17.0 125518
17.0 125538
17.0 125557
17.0 125576
17.0 125596
17.0 125615
17.0 125634
17.0 125653
17.0 125673
17.0 125692
17.0 125711
17.0 125731
17.0 125750
17.0 125769
17.0 125788
17.0 125808
17.0 125827
17.0 125846
17.0 125866
17.0 125885
17.0 125904
17.0 125924
17.0 125943
17.0 125962
17.0 125981
17.0 126001
17.0 126020
17.0 126039
17.0 126059
17.0 126078
17.0 126097
17.0 126117
17.0 126136
17.0 126155
17.0 126175
17.0 126194
17.0 126213
17.0 126232
17.0 126252
17.0 126271
17.0 126290
17.0 126310
17.0 126329
17.0 126348
17.0 126368
17.0 126387
17.0 126406
17.0 126426
17.0 126445
17.0 126464
17.0 126484
17.0 126503
17.0 126522
17.0 126542
17.0 126561
17.0 126580
17.0 126600
17.0 126619
17.0 126638
17.0 126658
17.0 126677
17.0 126696
17.0 126716
17.0 126735
17.0 126755
17.0 126774
17.0 126793
17.0 126812
17.0 126832
17.0 126851
17.0 126870
17.0 126890
17.0 126909
17.0 126928
17.0 126948
17.0 126967
17.0 126987
17.0 127006
17.0 127025
17.0 127045
17.0 127064
17.0 127083
17.0 127103
17.0 127122
17.0 127141
17.0 127160
17.0 127180
17.0 127199
17.0 127218
17.0 127238
17.0 127257
17.0 127276
17.0 127296
17.0 127315
17.0 127334
17.0 127354
17.0 127373
17.0 127392
17.0 127412
17.0 127431
17.0 127450
17.0 127469
17.0 127489
17.0 127508
17.0 127527
17.0 127547
17.0 127566
17.0 127585
17.0 127604
17.0 127624
17.0 127643
17.0 127662
17.0 127682
17.0 127701
17.0 127720
17.0 127739
17.0 127759
17.0 127778
17.0 127797
17.0 127817
17.0 127836
17.0 127855
17.0 127874
17.0 127894
17.0 127913
17.0 127932
17.0 127952
17.0 127971
17.0 127990
17.0 128009
17.0 128029
17.0 128048
17.0 128067
17.0 128087
17.0 128106
17.0 128125
17.0 128145
17.0 128164
17.0 128183
17.0 128203
17.0 128222
17.0 128241
17.0 128260
17.0 128280
17.0 128299
17.0 128318
17.0 128338
17.0 128357
17.0 128376
17.0 128395
17.0 128415
17.0 128434
17.0 128453
17.0 128472
17.0 128492
17.0 128511
17.0 128530
17.0 128549
17.0 128569
17.0 128588
17.0 128607
17.0 128627
17.0 128646
17.0 128665
17.0 128684
17.0 128704
17.0 128723
17.0 128742
17.0 128762
17.0 128781
17.0 128800
17.0 128819
17.0 128839
17.0 128858
17.0 128877
17.0 128896
17.0 128916
17.0 128935
17.0 128954
17.0 128974
17.0 128993
17.0 129012
17.0 129031
17.0 129051
17.0 129070
17.0 129089
17.0 129108
17.0 129128
17.0 129147
17.0 129166
17.0 129185
17.0 129205
17.0 129224
17.0 129243
17.0 129262
17.0 129282
17.0 129301
17.0 129320
17.0 129339
17.0 129359
17.0 129378
17.0 129397
17.0 129416
17.0 129436
17.0 129455
17.0 129474
17.0 129493
17.0 129513
17.0 129532
17.0 129551
17.0 129570
17.0 129590
17.0 129609
17.0 129628
17.0 129647
17.0 129667
17.0 129686
18.0 129794
18.0 129796
18.0 129799
18.0 129804
18.0 129810
18.0 129818
18.0 129828
18.0 129838
18.0 129849
18.0 129862
18.0 129875
18.0 129888
18.0 129902
18.0 129917
18.0 129932
18.0 129948
18.0 129964
18.0 129980
18.0 129996
18.0 130013
18.0 130030
18.0 130047
18.0 130064
18.0 130082
18.0 130100
18.0 130118
18.0 130136
18.0 130154
18.0 130172
18.0 130190
18.0 130209
18.0 130227
18.0 130246
18.0 130264
18.0 130283
18.0 130302
18.0 130320
18.0 130339
18.0 130358
18.0 130377
18.0 130396
18.0 130415
18.0 130434
18.0 130453
18.0 130472
18.0 130491
18.0 130510
18.0 130529
18.0 130549
18.0 130568
18.0 130587
18.0 130606
18.0 130625
18.0 130644
18.0 130664
18.0 130683
18.0 130702
18.0 130721
18.0 130740
18.0 130760
18.0 130779
18.0 130798
18.0 130817
18.0 130837
18.0 130856
18.0 130875
18.0 130894
18.0 130914
18.0 130933
18.0 130952
18.0 130972
18.0 130991
18.0 131010
18.0 131029
18.0 131049
18.0 131068
18.0 131087
18.0 131107
18.0 131126
18.0 131145
18.0 131164
18.0 131184
18.0 131203
18.0 131222
18.0 131242
18.0 131261
18.0 131280
18.0 131300
18.0 131319
18.0 131338
18.0 131357
18.0 131377
18.0 131396
18.0 131415
18.0 131435
18.0 131454
18.0 131473
18.0 131493
18.0 131512
18.0 131531
18.0 131551
18.0 131570
18.0 131589
18.0 131608
18.0 131628
18.0 131647
18.0 131666
18.0 131686
18.0 131705
18.0 131725
18.0 131744
18.0 131763
18.0 131783
18.0 131802
18.0 131821
18.0 131840
18.0 131860
18.0 131879
18.0 131898
18.0 131918
18.0 131937
18.0 131956
18.0 131976
18.0 131995
18.0 132014
18.0 132034
18.0 132053
18.0 132072
18.0 132092
18.0 132111
18.0 132130
18.0 132150
18.0 132169
18.0 132188
18.0 132208
18.0 132227
18.0 132246
18.0 132266
18.0 132285
18.0 132304
18.0 132323
18.0 132343
18.0 132362
18.0 132381
18.0 132401
18.0 132420
18.0 132439
18.0 132459
18.0 132478
18.0 132497
18.0 132516
18.0 132536
18.0 132555
18.0 132574
18.0 132594
18.0 132613
18.0 132632
18.0 132652
18.0 132671
18.0 132690
18.0 132709
18.0 132729
18.0 132748
18.0 132767
18.0 132787
18.0 132806
18.0 132825
18.0 132845
18.0 132864
18.0 132883
18.0 132903
18.0 132922
18.0 132941
18.0 132961
18.0 132980
18.0 132999
18.0 133019
18.0 133038
18.0 133057
18.0 133077
18.0 133096
18.0 133115
18.0 133135
18.0 133154
18.0 133173
18.0 133193
18.0 133212
18.0 133231
18.0 133251
18.0 133270
18.0 133289
18.0 133309
18.0 133328
18.0 133347
18.0 133367
18.0 133386
18.0 133405
18.0 133424
18.0 133444
18.0 133463
18.0 133482
18.0 133502
18.0 133521
18.0 133540
18.0 133559
18.0 133579
18.0 133598
18.0 133617
18.0 133637
18.0 133656
18.0 133675
18.0 133695
18.0 133714
18.0 133733
18.0 133752
18.0 133772
18.0 133791
18.0 133810
18.0 133830
18.0 133849
18.0 133868
18.0 133887
18.0 133907
18.0 133926
18.0 133945
18.0 133964
18.0 133984
18.0 134003
18.0 134022
18.0 134041
18.0 134061
18.0 134080
18.0 134099
18.0 134119
18.0 134138
18.0 134157
18.0 134176
18.0 134196
18.0 134215
18.0 134234
18.0 134253
18.0 134273
18.0 134292
18.0 134311
18.0 134331
18.0 134350
18.0 134369
18.0 134388
18.0 134408
18.0 134427
18.0 134446
18.0 134466
18.0 134485
18.0 134504
18.0 134523
18.0 134543
18.0 134562
18.0 134581
18.0 134600
18.0 134620
18.0 134639
18.0 134658
18.0 134678
18.0 134697
18.0 134716
18.0 134735
18.0 134755
18.0 134774
18.0 134793
18.0 134812
18.0 134832
18.0 134851
18.0 134870
18.0 134890
18.0 134909
18.0 134928
18.0 134947
18.0 134967
18.0 134986
18.0 135005
18.0 135024
18.0 135044
18.0 135063
18.0 135082
18.0 135101
18.0 135121
18.0 135140
18.0 135159
18.0 135178
18.0 135198
18.0 135217
18.0 135236
18.0 135255
18.0 135275
18.0 135294
18.0 135313
18.0 135332
18.0 135352
18.0 135371
18.0 135390
18.0 135409
18.0 135429
18.0 135448
18.0 135467
18.0 135487
18.0 135506
18.0 135525
18.0 135544
18.0 135564
18.0 135583
18.0 135602
18.0 135622
18.0 135641
18.0 135660
18.0 135679
18.0 135699
18.0 135718
18.0 135737
18.0 135756
18.0 135776
18.0 135795
18.0 135814
18.0 135834
18.0 135853
18.0 135872
18.0 135891
18.0 135911
18.0 135930
18.0 135949
18.0 135968
18.0 135988
18.0 136007
18.0 136026
18.0 136046
18.0 136065
18.0 136084
18.0 136103
18.0 136123
18.0 136142
18.0 136161
18.0 136180
18.0 136200
18.0 136219
18.0 136238
18.0 136258
18.0 136277
18.0 136296
18.0 136315
18.0 136335
18.0 136354
18.0 136373
18.0 136393
18.0 136412
18.0 136431
18.0 136451
18.0 136470
18.0 136489
18.0 136508
18.0 136528
18.0 136547
18.0 136566
18.0 136585
18.0 136605
18.0 136624
18.0 136643
18.0 136662
18.0 136682
18.0 136701
18.0 136720
18.0 136739
18.0 136759
18.0 136778
18.0 136797
18.0 136816
18.0 136836
18.0 136855
18.0 136874
18.0 136893
18.0 136912
18.0 136932
18.0 136951
18.0 136970
18.0 136990
18.0 137009
18.0 137028
18.0 137047
18.0 137067
18.0 137086
18.0 137105
18.0 137124
18.0 137144
18.0 137163
18.0 137182
18.0 137201
18.0 137221
18.0 137240
18.0 137259
18.0 137279
18.0 137298
18.0 137317
19.0 137426
19.0 137428
19.0 137431
19.0 137436
19.0 137442
19.0 137450
19.0 137460
19.0 137470
19.0 137482
19.0 137494
19.0 137507
19.0 137520
19.0 137534
19.0 137549
19.0 137564
19.0 137580
19.0 137596
19.0 137612
19.0 137628
19.0 137645
19.0 137662
19.0 137679
19.0 137696
19.0 137714
19.0 137732
19.0 137750
19.0 137768
19.0 137786
19.0 137804
19.0 137822
19.0 137841
19.0 137859
19.0 137878
19.0 137896
19.0 137915
19.0 137934
19.0 137953
19.0 137972
19.0 137990
19.0 138009
19.0 138028
19.0 138047
19.0 138066
19.0 138085
19.0 138104
19.0 138124
19.0 138143
19.0 138162
19.0 138181
19.0 138200
19.0 138219
19.0 138238
19.0 138257
19.0 138277
19.0 138296
19.0 138315
19.0 138334
19.0 138353
19.0 138373
19.0 138392
19.0 138411
19.0 138430
19.0 138450
19.0 138469
19.0 138488
19.0 138507
19.0 138527
19.0 138546
19.0 138565
19.0 138584
19.0 138604
19.0 138623
19.0 138642
19.0 138661
19.0 138681
19.0 138700
19.0 138719
19.0 138739
19.0 138758
19.0 138777
19.0 138796
19.0 138816
19.0 138835
19.0 138854
19.0 138873
19.0 138893
19.0 138912
19.0 138931
19.0 138950
19.0 138970
19.0 138989
19.0 139008
19.0 139028
19.0 139047
19.0 139066
19.0 139085
19.0 139105
19.0 139124
19.0 139143
19.0 139162
19.0 139182
19.0 139201
19.0 139220
19.0 139240
19.0 139259
19.0 139278
19.0 139297
19.0 139317
19.0 139336
19.0 139355
19.0 139374
19.0 139394
19.0 139413
19.0 139432
19.0 139452
19.0 139471
19.0 139490
19.0 139509
19.0 139529
19.0 139548
19.0 139567
19.0 139586
19.0 139606
19.0 139625
19.0 139644
19.0 139664
19.0 139683
19.0 139702
19.0 139721
19.0 139741
19.0 139760
19.0 139779
19.0 139798
19.0 139818
19.0 139837
19.0 139856
19.0 139875
19.0 139895
19.0 139914
19.0 139933
19.0 139952
19.0 139972
19.0 139991
19.0 140010
19.0 140029
19.0 140049
19.0 140068
19.0 140087
19.0 140106
19.0 140126
19.0 140145
19.0 140164
19.0 140184
19.0 140203
19.0 140222
19.0 140241
19.0 140261
19.0 140280
19.0 140299
19.0 140319
19.0 140338
19.0 140357
19.0 140376
19.0 140396
19.0 140415
19.0 140434
19.0 140453
19.0 140473
19.0 140492
19.0 140511
19.0 140531
19.0 140550
19.0 140569
19.0 140588
19.0 140608
19.0 140627
19.0 140646
19.0 140665
19.0 140685
19.0 140704
19.0 140723
19.0 140743
19.0 140762
19.0 140781
19.0 140800
19.0 140820
19.0 140839
19.0 140858
19.0 140878
19.0 140897
19.0 140916
19.0 140935
19.0 140955
19.0 140974
19.0 140993
19.0 141012
19.0 141032
19.0 141051
19.0 141070
19.0 141090
19.0 141109
19.0 141128
19.0 141147
19.0 141167
19.0 141186
19.0 141205
19.0 141224
19.0 141244
19.0 141263
19.0 141282
19.0 141302
19.0 141321
19.0 141340
19.0 141360
19.0 141379
19.0 141398
19.0 141417
19.0 141437
19.0 141456
19.0 141475
19.0 141495
19.0 141514
19.0 141533
19.0 141552
19.0 141572
19.0 141591
19.0 141610
19.0 141630
19.0 141649
19.0 141668
19.0 141687
19.0 141707
19.0 141726
19.0 141745
19.0 141764
19.0 141784
19.0 141803
19.0 141822
19.0 141841
19.0 141861
19.0 141880
19.0 141899
19.0 141918
19.0 141938
19.0 141957
19.0 141976
19.0 141996
19.0 142015
19.0 142034
19.0 142053
19.0 142073
19.0 142092
19.0 142111
19.0 142130
19.0 142150
19.0 142169
19.0 142188
19.0 142208
19.0 142227
19.0 142246
19.0 142265
19.0 142285
19.0 142304
19.0 142323
19.0 142342
19.0 142362
19.0 142381
19.0 142400
19.0 142419
19.0 142439
19.0 142458
19.0 142477
19.0 142496
19.0 142516
19.0 142535
19.0 142554
19.0 142573
19.0 142592
19.0 142612
19.0 142631
19.0 142650
19.0 142669
19.0 142688
19.0 142708
19.0 142727
19.0 142746
19.0 142765
19.0 142785
19.0 142804
19.0 142823
19.0 142842
19.0 142862
19.0 142881
19.0 142900
19.0 142919
19.0 142939
19.0 142958
19.0 142977
19.0 142996
19.0 143016
19.0 143035
19.0 143054
19.0 143073
19.0 143093
19.0 143112
19.0 143131
19.0 143150
19.0 143170
19.0 143189
19.0 143208
19.0 143228
19.0 143247
19.0 143266
19.0 143285
19.0 143305
19.0 143324
19.0 143343
19.0 143362
19.0 143382
19.0 143401
19.0 143420
19.0 143439
19.0 143459
19.0 143478
19.0 143497
19.0 143516
19.0 143536
19.0 143555
19.0 143574
19.0 143593
19.0 143613
19.0 143632
19.0 143651
19.0 143671
19.0 143690
19.0 143709
19.0 143728
19.0 143748
19.0 143767
19.0 143786
19.0 143805
19.0 143825
19.0 143844
19.0 143863
19.0 143882
19.0 143902
19.0 143921
19.0 143940
19.0 143959
19.0 143979
19.0 143998
19.0 144017
19.0 144036
19.0 144056
19.0 144075
19.0 144094
19.0 144113
19.0 144133
19.0 144152
19.0 144171
19.0 144190
19.0 144209
19.0 144229
19.0 144248
19.0 144267
19.0 144286
19.0 144306
19.0 144325
19.0 144344
19.0 144363
19.0 144383
19.0 144402
19.0 144421
19.0 144440
19.0 144459
19.0 144479
19.0 144498
19.0 144517
19.0 144536
19.0 144556
19.0 144575
19.0 144594
19.0 144613
19.0 144633
19.0 144652
19.0 144671
19.0 144690
19.0 144710
19.0 144729
19.0 144748
19.0 144767
19.0 144787
19.0 144806
19.0 144825
19.0 144844
19.0 144863
19.0 144883
19.0 144902
19.0 144921
19.0 144940
20.0 145050
20.0 145051
20.0 145054
20.0 145059
20.0 145065
20.0 145073
20.0 145082
20.0 145093
20.0 145104
20.0 145116
20.0 145129
20.0 145142
20.0 145156
20.0 145171
20.0 145186
20.0 145201
20.0 145217
20.0 145233
20.0 145249
20.0 145266
20.0 145283
20.0 145300
20.0 145317
20.0 145335
20.0 145352
20.0 145370
20.0 145388
20.0 145406
20.0 145424
20.0 145442
20.0 145461
20.0 145479
20.0 145498
20.0 145516
20.0 145535
20.0 145553
20.0 145572
20.0 145591
20.0 145610
20.0 145628
20.0 145647
20.0 145666
20.0 145685
20.0 145704
20.0 145723
20.0 145742
20.0 145761
20.0 145780
20.0 145799
20.0 145818
20.0 145837
20.0 145856
20.0 145876
20.0 145895
20.0 145914
20.0 145933
20.0 145952
20.0 145972
20.0 145991
20.0 146010
20.0 146029
20.0 146048
20.0 146068
20.0 146087
20.0 146106
20.0 146125
20.0 146144
20.0 146164
20.0 146183
20.0 146202
20.0 146221
20.0 146240
20.0 146260
20.0 146279
20.0 146298
20.0 146317
20.0 146337
20.0 146356
20.0 146375
20.0 146394
20.0 146413
20.0 146433
20.0 146452
20.0 146471
20.0 146490
20.0 146509
20.0 146529
20.0 146548
20.0 146567
20.0 146586
20.0 146606
20.0 146625
20.0 146644
20.0 146663
20.0 146682
20.0 146702
20.0 146721
20.0 146740
20.0 146759
20.0 146779
20.0 146798
20.0 146817
20.0 146836
20.0 146856
20.0 146875
20.0 146894
20.0 146913
20.0 146933
20.0 146952
20.0 146971
20.0 146990
20.0 147010
20.0 147029
20.0 147048
20.0 147067
20.0 147086
20.0 147106
20.0 147125
20.0 147144
20.0 147163
20.0 147183
20.0 147202
20.0 147221
20.0 147240
20.0 147260
20.0 147279
20.0 147298
20.0 147317
20.0 147336
20.0 147356
20.0 147375
20.0 147394
20.0 147413
20.0 147432
20.0 147452
20.0 147471
20.0 147490
20.0 147509
20.0 147528
20.0 147548
20.0 147567
20.0 147586
20.0 147605
20.0 147624
20.0 147644
20.0 147663
20.0 147682
20.0 147701
20.0 147720
20.0 147740
20.0 147759
20.0 147778
20.0 147797
20.0 147817
20.0 147836
20.0 147855
20.0 147874
20.0 147893
20.0 147913
20.0 147932
20.0 147951
20.0 147970
20.0 147989
20.0 148009
20.0 148028
20.0 148047
20.0 148066
20.0 148086
20.0 148105
20.0 148124
20.0 148143
20.0 148162
20.0 148182
20.0 148201
20.0 148220
20.0 148239
20.0 148259
20.0 148278
20.0 148297
20.0 148316
20.0 148335
20.0 148355
20.0 148374
20.0 148393
20.0 148412
20.0 148432
20.0 148451
20.0 148470
20.0 148489
20.0 148508
20.0 148528
20.0 148547
20.0 148566
20.0 148585
20.0 148604
20.0 148624
20.0 148643
20.0 148662
20.0 148681
20.0 148700
20.0 148720
20.0 148739
20.0 148758
20.0 148777
20.0 148797
20.0 148816
20.0 148835
20.0 148854
20.0 148873
20.0 148893
20.0 148912
20.0 148931
20.0 148950
20.0 148970
20.0 148989
20.0 149008
20.0 149027
20.0 149047
20.0 149066
20.0 149085
20.0 149104
20.0 149124
20.0 149143
20.0 149162
20.0 149181
20.0 149200
20.0 149220
20.0 149239
20.0 149258
20.0 149277
20.0 149297
20.0 149316
20.0 149335
20.0 149354
20.0 149374
20.0 149393
20.0 149412
20.0 149431
20.0 149450
20.0 149470
20.0 149489
20.0 149508
20.0 149527
20.0 149546
20.0 149566
20.0 149585
20.0 149604
20.0 149623
20.0 149643
20.0 149662
20.0 149681
20.0 149700
20.0 149720
20.0 149739
20.0 149758
20.0 149777
20.0 149796
20.0 149816
20.0 149835
20.0 149854
20.0 149873
20.0 149892
20.0 149912
20.0 149931
20.0 149950
20.0 149969
20.0 149989
20.0 150008
20.0 150027
20.0 150046
20.0 150065
20.0 150085
20.0 150104
20.0 150123
20.0 150142
20.0 150162
20.0 150181
20.0 150200
20.0 150219
20.0 150239
20.0 150258
20.0 150277
20.0 150296
20.0 150315
20.0 150335
20.0 150354
20.0 150373
20.0 150392
20.0 150412
20.0 150431
20.0 150450
20.0 150469
20.0 150488
20.0 150508
20.0 150527
20.0 150546
20.0 150565
20.0 150584
20.0 150604
20.0 150623
20.0 150642
20.0 150661
20.0 150680
20.0 150700
20.0 150719
20.0 150738
20.0 150757
20.0 150777
20.0 150796
20.0 150815
20.0 150834
20.0 150853
20.0 150873
20.0 150892
20.0 150911
20.0 150930
20.0 150949
20.0 150969
20.0 150988
20.0 151007
20.0 151026
20.0 151046
20.0 151065
20.0 151084
20.0 151103
20.0 151122
20.0 151142
20.0 151161
20.0 151180
20.0 151199
20.0 151219
20.0 151238
20.0 151257
20.0 151276
20.0 151295
20.0 151315
20.0 151334
20.0 151353
20.0 151372
20.0 151391
20.0 151411
20.0 151430
20.0 151449
20.0 151468
20.0 151488
20.0 151507
20.0 151526
20.0 151545
20.0 151564
20.0 151584
20.0 151603
20.0 151622
20.0 151641
20.0 151661
20.0 151680
20.0 151699
20.0 151718
20.0 151738
20.0 151757
20.0 151776
20.0 151795
20.0 151814
20.0 151834
20.0 151853
20.0 151872
20.0 151891
20.0 151910
20.0 151930
20.0 151949
20.0 151968
20.0 151988
20.0 152007
20.0 152026
20.0 152045
20.0 152064
20.0 152084
20.0 152103
20.0 152122
20.0 152141
20.0 152161
20.0 152180
20.0 152199
20.0 152218
20.0 152237
20.0 152257
20.0 152276
20.0 152295
20.0 152314
20.0 152334
20.0 152353
20.0 152372
20.0 152391
20.0 152411
20.0 152430
20.0 152449
20.0 152468
20.0 152487
20.0 152507
20.0 152526
20.0 152545
