63406785 90.47 42.19 -90.12 82.09 22.91 -179.67 81.29 60.50 179.66 61.84 23.13 179.99 61.45 60.36 179.69 10.67 42.32 90.16 19.92 60.35 -0.03 19.75 23.00 -0.43 39.46 60.30  0.47 39.87 23.10 -0.27
63406805 90.47 42.19 -90.12 82.09 22.91 -179.66 81.29 60.49 179.66 61.84 23.14 179.97 61.45 60.36 179.68 10.67 42.32 90.16 19.92 60.35 -0.06 19.75 23.00 -0.44 39.45 60.30  0.50 39.87 23.10 -0.27
63406824 90.47 42.08 -90.13 82.09 22.91 178.16 81.27 60.49 -179.84 61.76 23.14 177.87 61.40 60.36 -178.40 10.67 42.32 90.16 19.97 60.35 -4.11 19.81 23.00  3.78 39.52 60.30 -3.95 39.91 23.10  3.14
63406843 90.47 41.85 -90.13 82.09 22.91 174.41 81.22 60.49 -179.05 61.61 23.14 174.26 61.31 60.36 -175.46 10.67 42.32 90.17 20.07 60.34 -11.05 19.92 23.00 11.05 39.66 60.29 -11.65 39.98 23.11  9.01
63406861 90.47 41.53 -90.13 82.08 22.91 169.50 81.16 60.49 -177.00 61.39 23.16 169.60 61.27 60.35 -171.67 10.67 42.31 90.18 20.21 60.32 -19.98 20.08 23.02 20.44 39.85 60.26 -21.65 40.08 23.12 16.52
63406879 90.47 41.42 -90.13 82.08 22.91 163.92 81.07 60.49 -174.07 61.11 23.20 164.12 61.28 60.36 -167.12 10.67 42.31 90.18 20.37 60.28 -30.15 20.26 23.08 31.19 40.07 60.19 -33.18 40.19 23.14 25.00
63406897 90.47 41.38 -90.13 82.01 22.93 157.18 80.97 60.48 -170.53 60.78 23.27 158.21 61.33 60.37 -161.91 10.67 42.31 90.18 20.55 60.20 -40.94 20.52 23.20 40.62 40.31 60.08 -45.63 40.32 23.19 33.85
63406917 90.47 41.37 -90.13 81.86 22.99 149.75 80.84 60.46 -169.58 60.41 23.39 152.22 61.42 60.40 -158.51 10.67 42.31 90.18 20.72 60.09 -51.77 20.81 23.41 49.10 40.54 59.91 -58.46 40.51 23.29 40.95
63406936 90.47 41.36 -90.14 81.67 23.09 141.96 80.71 60.44 -167.56 60.01 23.56 146.35 61.55 60.45 -153.84 10.67 42.31 90.20 20.87 59.95 -62.18 21.13 23.71 56.89 40.73 59.69 -71.16 40.74 23.46 46.79
63406955 90.47 41.36 -90.16 81.44 23.24 134.12 80.55 60.41 -164.69 59.59 23.80 140.68 61.71 60.52 -148.62 10.67 42.31 90.20 21.03 59.72 -70.41 21.45 24.11 64.18 40.87 59.45 -83.31 41.00 23.70 51.73
63406972 90.47 41.36 -90.17 81.18 23.46 126.40 80.39 60.37 -161.23 59.16 24.10 135.22 61.89 60.61 -142.86 10.67 42.31 90.19 21.17 59.42 -77.07 21.75 24.60 71.13 40.97 59.13 -92.80 41.28 24.01 56.01
63406991 90.47 41.36 -90.18 80.93 23.75 118.93 80.21 60.32 -157.39 58.73 24.46 130.09 62.09 60.74 -136.54 10.67 42.31 90.19 21.30 59.04 -82.59 22.02 25.18 77.81 41.00 58.74 -100.38 41.57 24.39 59.82
63407008 90.47 41.36 -90.19 80.68 24.10 111.81 80.03 60.26 -153.32 58.31 24.88 125.34 62.29 60.91 -129.63 10.67 42.21 90.19 21.40 58.59 -87.30 22.23 25.83 83.95 40.97 58.30 -106.58 41.86 24.84 63.29
63407027 90.47 41.36 -90.20 80.46 24.52 105.05 79.84 60.18 -149.13 57.91 25.36 121.05 62.49 61.11 -122.14 10.67 42.03 90.19 21.46 58.08 -91.41 22.37 26.56 89.24 40.88 57.81 -111.77 42.15 25.35 66.50
63407045 90.47 41.36 -90.20 80.28 25.00 98.68 79.65 60.08 -144.92 57.53 25.90 117.24 62.69 61.36 -114.02 10.67 41.97 90.19 21.48 57.51 -93.68 22.45 27.33 93.51 40.72 57.28 -116.25 42.43 25.92 69.54
63407064 90.47 41.35 -90.21 80.15 25.53 92.71 79.46 59.96 -140.75 57.18 26.49 113.91 62.81 61.55 -105.51 10.67 41.95 90.19 21.47 56.89 -94.62 22.46 28.15 96.66 40.49 56.72 -120.19 42.70 26.55 71.03
63407082 90.47 41.35 -90.21 80.07 26.11 87.89 79.27 59.82 -136.67 56.85 27.13 111.07 62.89 61.70 -96.96 10.67 41.94 90.19 21.43 56.22 -94.59 22.42 29.00 98.69 40.20 56.14 -123.76 42.96 27.23 71.41
63407101 90.47 41.35 -90.20 80.04 26.72 83.89 79.08 59.67 -132.71 56.55 27.81 108.64 62.93 61.79 -88.62 10.67 41.94 90.18 21.39 55.50 -93.86 22.32 29.90 99.68 39.85 55.55 -125.63 43.23 27.96 70.97
63407120 90.47 41.35 -90.20 80.06 27.36 80.50 78.90 59.50 -128.90 56.27 28.54 106.60 62.95 61.82 -80.70 10.67 41.94 90.18 21.33 54.74 -92.63 22.19 30.83 99.78 39.45 54.93 -126.29 43.50 28.73 69.94
63407138 90.47 41.35 -90.20 80.13 28.04 77.53 78.73 59.31 -125.25 56.01 29.29 104.90 62.96 61.80 -73.34 10.67 41.94 90.18 21.29 53.94 -91.02 22.04 31.80 99.16 39.00 54.29 -126.05 43.78 29.54 68.49
63407156 90.47 41.35 -90.19 80.15 28.27 75.39 78.56 59.10 -121.78 55.77 30.08 103.52 62.99 61.74 -66.63 10.67 41.93 90.17 21.26 53.09 -89.15 21.88 32.80 98.03 38.53 53.62 -126.59 44.10 30.37 66.73
63407174 90.47 41.36 -90.19 80.14 28.35 73.84 78.41 58.88 -118.47 55.55 30.90 102.45 63.03 61.63 -60.63 10.67 41.93 90.15 21.25 52.21 -87.09 21.72 33.84 96.55 38.02 52.92 -127.68 44.44 31.23 64.75
63407193 90.47 41.36 -90.18 80.14 28.38 72.73 78.26 58.65 -115.35 55.35 31.74 101.67 63.10 61.50 -55.36 10.67 41.93 90.16 21.27 51.30 -84.89 21.58 34.92 94.91 37.48 52.21 -129.19 44.83 32.10 62.61
63407212 90.47 41.36 -90.18 80.13 28.39 71.95 78.13 58.40 -112.40 55.15 32.61 101.11 63.20 61.34 -50.81 10.67 41.93 90.16 21.33 50.35 -82.59 21.46 36.03 93.25 36.91 51.48 -130.98 45.26 32.99 60.34
63407230 90.47 41.36 -90.17 80.13 28.39 71.39 78.01 58.14 -109.62 54.96 33.50 100.77 63.33 61.15 -46.98 10.67 41.94 90.17 21.42 49.38 -80.21 21.37 37.17 91.69 36.34 50.78 -135.17 45.73 33.89 58.00
63407249 90.47 41.36 -90.17 80.13 28.39 71.01 77.90 57.87 -107.01 54.78 34.42 100.61 63.50 60.96 -43.81 10.67 41.94 90.17 21.55 48.39 -77.78 21.30 38.33 90.33 35.71 50.10 -133.59 46.24 34.79 57.01
63407267 90.46 41.35 -90.16 80.13 28.39 70.74 77.80 57.60 -104.55 54.60 35.35 100.56 63.70 60.75 -41.27 10.67 41.94 90.17 21.73 47.38 -75.31 21.27 39.52 89.22 35.06 49.40 -127.84 46.80 35.69 57.00
63407290 90.46 41.35 -90.16 80.13 28.39 70.57 77.71 57.31 -102.25 54.42 36.29 100.66 63.92 60.53 -39.28 10.67 41.94 90.18 21.96 46.35 -74.23 21.26 40.73 88.41 34.42 48.65 -119.06 47.38 36.61 57.69
63407314 90.46 41.35 -90.16 80.13 28.39 70.46 77.63 57.01 -100.09 54.24 37.26 100.89 64.18 60.30 -37.80 10.67 41.94 90.18 22.22 45.31 -74.15 21.27 41.77 87.88 33.85 47.82 -111.99 47.97 37.55 58.91
63407335 90.46 41.35 -90.15 80.13 28.39 70.44 77.57 56.71 -98.07 54.05 38.24 101.17 64.47 60.07 -36.75 10.67 41.94 90.18 22.50 45.05 -99.00 21.26 41.88 89.83 33.38 46.93 -106.17 48.56 38.51 60.50
63407355 90.46 41.35 -90.15 80.13 28.39 70.45 77.51 56.40 -96.18 53.86 39.22 101.44 64.78 59.83 -36.08 10.67 41.94 90.19 22.66 44.94 -118.49 21.23 41.67 84.34 32.99 45.98 -101.24 49.12 39.45 62.73
63407376 90.46 41.35 -90.15 80.13 28.39 70.45 77.47 56.09 -94.15 53.67 40.22 101.70 65.11 59.58 -35.41 10.67 41.94 90.19 22.71 44.83 -130.61 21.18 41.34 79.33 32.70 44.99 -96.96 49.65 40.41 65.25
63407397 90.46 41.45 -90.14 80.13 28.39 70.45 77.43 55.77 -91.75 53.60 41.26 92.35 65.46 59.32 -34.76 10.67 41.94 90.19 22.71 44.74 -136.56 21.11 40.94 76.00 32.49 43.96 -93.15 50.01 41.37 70.03
63407418 90.47 41.65 -90.14 80.13 28.40 70.46 77.41 55.44 -88.89 53.61 42.32 79.49 65.84 59.05 -34.11 10.67 42.04 90.19 22.66 44.66 -137.43 21.01 40.49 74.34 32.35 42.90 -89.68 50.31 42.34 74.52
63407439 90.47 41.94 -90.14 80.13 28.39 70.45 77.40 55.08 -86.64 53.81 43.35 72.57 66.23 58.78 -33.46 10.67 42.22 90.19 22.58 44.56 -134.20 20.88 39.98 74.11 32.29 41.81 -86.46 50.51 43.36 75.15
63407460 90.47 42.31 -90.14 80.13 28.40 70.45 77.41 54.79 -82.90 54.10 44.36 68.89 66.64 58.50 -32.82 10.67 42.48 90.19 22.46 44.44 -127.87 20.73 39.42 75.03 32.29 40.71 -83.43 50.72 44.41 73.59
63407481 90.47 42.76 -90.14 80.13 28.40 70.45 77.42 54.56 -78.42 54.45 45.36 64.91 67.07 58.22 -32.19 10.67 42.82 90.19 22.33 44.28 -119.25 20.57 38.81 76.79 32.36 39.59 -80.52 50.98 45.46 71.73
63407501 90.47 43.29 -90.14 80.13 28.40 70.45 77.44 54.40 -73.65 54.85 46.35 60.80 67.51 57.93 -31.57 10.67 43.23 90.19 22.19 44.07 -108.99 20.41 38.16 79.10 32.49 38.46 -77.70 51.28 46.53 69.66
63407523 90.47 43.89 -90.14 80.13 28.39 70.45 77.45 54.29 -68.74 55.31 47.32 56.82 67.97 57.64 -30.95 10.66 43.71 90.19 22.07 43.83 -97.65 20.25 37.45 81.70 32.68 37.33 -74.95 51.63 47.60 67.45
63407543 90.47 44.57 -90.14 80.13 28.39 70.44 77.47 54.20 -66.83 55.84 48.25 53.43 68.45 57.35 -30.34 10.66 44.26 90.19 21.99 43.55 -85.67 20.12 36.70 84.35 32.93 36.19 -72.25 52.03 48.67 66.56
63407563 90.47 45.32 -90.14 80.13 28.39 70.44 77.50 54.12 -67.23 56.43 49.15 50.76 68.94 57.06 -29.73 10.66 44.86 90.19 21.97 43.26 -73.42 20.01 35.91 86.87 33.24 35.05 -69.59 52.47 49.74 66.62
63407583 90.48 46.14 -90.14 80.13 28.39 70.43 77.51 54.09 -65.00 57.06 50.03 48.90 69.44 56.77 -29.13 10.66 45.52 90.19 22.00 42.96 -61.26 19.93 35.07 89.10 33.60 33.91 -66.95 52.92 50.83 67.37
63407601 90.48 47.03 -90.14 80.13 28.39 70.43 77.51 54.09 -60.89 57.74 50.87 47.84 69.96 56.47 -28.53 10.66 46.23 90.19 22.09 42.68 -49.48 19.88 34.19 90.94 34.02 32.79 -64.33 53.38 51.94 68.63
63407623 90.48 47.98 -90.14 80.13 28.39 70.43 77.48 54.14 -55.54 58.45 51.71 47.57 70.49 56.18 -27.93 10.65 47.00 90.19 22.22 42.44 -38.34 19.87 33.45 92.98 34.50 31.67 -61.73 53.84 53.06 70.24
63407646 90.48 48.79 -90.14 80.13 28.39 70.43 77.43 54.21 -49.46 59.18 52.53 47.74 71.03 55.88 -27.34 10.65 47.80 90.19 22.45 42.19 -29.57 19.87 32.85 93.75 35.01 30.61 -56.68 54.27 54.20 72.12
63407667 90.48 49.47 -90.14 80.13 28.39 70.42 77.35 54.31 -43.07 59.92 53.36 48.37 71.58 55.59 -26.75 10.65 48.66 90.19 22.76 41.95 -22.51 19.88 32.38 93.60 35.57 29.62 -49.08 54.68 55.37 74.32
63407687 90.49 50.02 -90.15 80.13 28.39 70.42 77.24 54.43 -36.69 60.67 54.19 49.53 72.15 55.30 -26.17 10.64 49.55 90.19 23.15 41.74 -16.70 19.90 32.02 92.79 36.21 28.71 -39.22 55.06 56.55 76.79
63407706 90.49 50.45 -90.15 80.13 28.39 70.41 77.09 54.56 -30.78 61.41 55.04 51.28 72.72 55.01 -25.60 10.64 50.48 90.18 23.62 41.55 -11.77 19.91 31.77 91.49 36.95 27.91 -27.62 55.38 57.75 79.34
63407725 90.49 50.74 -90.15 80.13 28.39 70.41 76.91 54.69 -25.49 62.13 55.91 53.58 73.31 54.72 -25.03 10.64 51.27 90.18 24.17 41.39 -9.87 19.91 31.63 89.84 37.78 27.27 -14.74 55.67 58.98 81.94
63407744 90.49 50.92 -90.15 80.13 28.39 70.41 76.94 54.70 -18.02 62.83 56.80 56.42 73.62 54.56 -12.54 10.64 51.91 90.18 24.79 41.25 -10.15 19.92 31.59 87.96 38.66 26.84 -1.01 55.90 60.22 84.58
63407763 90.49 51.01 -90.15 80.13 28.39 70.40 77.08 54.67 -7.68 63.50 57.72 59.71 73.85 54.47 -1.46 10.63 52.41 90.18 25.49 41.11 -12.01 19.92 31.64 85.90 39.55 26.61 13.20 56.07 61.48 87.24
63407782 90.49 51.01 -90.17 80.13 28.39 70.40 77.20 54.66  2.03 64.12 58.68 63.32 74.06 54.42  5.01 10.63 52.80 90.18 26.24 40.96 -15.02 19.93 31.77 83.71 40.40 26.59 27.55 56.19 62.75 88.48
63407801 90.49 50.93 -90.21 80.13 28.39 70.40 77.33 54.65  9.38 64.69 59.67 67.17 74.25 54.41  8.84 10.63 53.06 90.18 27.05 40.76 -18.86 19.95 31.99 81.42 41.14 26.76 41.67 56.26 64.02 88.68
63407820 90.49 50.77 -90.24 80.13 28.39 70.39 77.48 54.66 12.40 65.19 60.69 71.19 74.40 54.40 12.45 10.63 53.22 90.19 27.89 40.51 -23.30 19.99 32.28 79.05 41.76 27.05 55.21 56.31 65.25 88.60
63407845 90.49 50.53 -90.26 80.13 28.39 70.39 77.63 54.69 14.04 65.63 61.74 75.27 74.53 54.42 13.76 10.63 53.27 90.19 28.77 40.20 -28.17 20.05 32.63 76.63 42.23 27.44 67.80 56.35 66.44 88.32
63407867 90.49 50.23 -90.28 80.13 28.39 70.39 77.77 54.71 13.74 65.99 62.82 79.34 74.65 54.44 14.10 10.63 53.23 90.18 29.65 39.80 -33.37 20.14 33.05 74.17 42.59 27.94 77.62 56.39 67.58 87.90
63407889 90.48 49.86 -90.29 80.13 28.39 70.39 77.89 54.74 12.89 66.28 63.92 83.32 74.77 54.46 12.86 10.63 53.09 90.18 30.53 39.30 -38.79 20.26 33.53 73.32 42.83 28.51 85.44 56.43 68.68 87.38
63407910 90.48 49.39 -90.30 80.13 28.39 70.39 78.00 54.76 11.15 66.48 65.04 87.17 74.89 54.49 11.02 10.63 52.87 90.17 31.40 38.72 -44.37 20.41 34.08 73.79 42.98 29.14 91.82 56.47 69.74 86.78
63407929 90.48 48.84 -90.30 80.12 28.39 70.39 78.11 54.78  8.80 66.62 66.16 90.88 75.00 54.51  8.82 10.63 52.57 90.17 32.23 38.03 -50.08 20.59 34.70 75.28 43.05 29.82 97.14 56.52 70.77 86.13
63407948 90.48 48.21 -90.31 80.12 28.39 70.39 78.21 54.80  4.98 66.67 67.31 94.60 75.11 54.54  4.99 10.64 52.20 90.17 33.01 37.26 -55.87 20.77 35.37 77.48 43.03 30.54 100.29 56.57 71.76 85.44
63407967 90.48 47.99 -90.31 80.12 28.39 70.38 78.32 54.82  0.25 66.65 68.46 98.34 75.22 54.55  0.17 10.64 51.75 90.16 33.72 36.38 -61.73 20.95 36.11 80.10 42.95 31.30 101.86 56.64 72.72 84.72
63407986 90.47 47.92 -90.31 80.12 28.39 70.38 78.45 54.82 -4.96 66.56 69.62 102.08 75.31 54.56 -5.03 10.64 51.24 90.16 34.36 35.43 -67.63 21.11 36.90 82.87 42.82 32.09 102.29 56.71 73.64 83.71
63408004 90.48 47.97 -90.32 80.12 28.39 70.39 78.57 54.82 -9.66 66.38 70.78 105.84 75.37 54.56 -9.09 10.64 50.67 90.15 34.90 34.39 -73.56 21.25 37.74 85.57 42.67 32.91 101.90 56.77 74.45 80.13
63408024 90.48 48.13 -90.32 80.12 28.39 70.38 78.65 54.81 -10.05 66.13 71.94 109.60 75.44 54.56 -10.78 10.64 50.04 90.15 35.35 33.29 -79.53 21.36 38.63 88.05 42.49 33.77 100.97 56.87 75.22 76.02
63408042 90.48 48.40 -90.32 80.12 28.38 70.38 78.71 54.81 -8.46 65.81 73.08 113.03 75.50 54.55 -9.50 10.64 49.35 90.15 35.68 32.13 -85.50 21.43 39.57 90.16 42.32 34.66 99.62 57.00 75.52 89.07
63408061 90.48 48.49 -90.32 80.13 28.38 70.38 78.74 54.81 -5.50 65.40 74.21 116.22 75.57 54.54 -6.28 10.65 48.61 90.15 35.90 30.93 -91.49 21.46 40.54 91.83 42.14 35.58 98.00 57.07 75.57 89.42
63408080 90.48 48.52 -90.33 80.13 28.38 70.37 78.75 54.81 -1.78 64.97 75.12 116.21 75.63 54.53 -1.55 10.65 48.02 90.15 35.99 29.69 -97.49 21.46 41.54 93.05 41.99 36.54 96.12 57.10 75.52 87.66
63408103 90.48 48.53 -90.34 80.13 28.38 70.37 78.76 54.81  3.28 64.67 75.30 98.64 75.67 54.52  3.40 10.65 47.55 90.14 35.95 28.45 -103.50 21.44 42.39 93.79 41.85 37.52 94.05 57.12 75.47 85.69
63408125 90.48 48.53 -90.34 80.13 28.38 70.37 78.78 54.81  8.64 64.54 75.26 78.65 75.68 54.52  8.49 10.65 47.20 90.14 35.78 27.20 -109.51 21.41 43.09 94.11 41.75 38.54 91.83 57.13 75.42 83.70
63408147 90.48 48.53 -90.33 80.13 28.38 70.36 78.81 54.81  9.77 64.44 74.88 73.31 75.69 54.52 10.40 10.65 46.97 90.13 35.47 25.96 -115.52 21.38 43.66 94.06 41.68 39.59 89.51 57.13 75.36 81.25
63408168 90.48 48.53 -90.32 80.13 28.38 70.36 78.84 54.82  8.37 64.31 74.44 70.16 75.71 54.52  9.59 10.65 46.85 90.13 35.06 24.80 -123.00 21.35 44.10 93.73 41.65 40.65 87.12 57.13 75.30 78.54
63408188 90.48 48.54 -90.30 80.13 28.38 70.36 78.88 54.82  5.17 64.15 73.95 68.92 75.73 54.52  6.93 10.65 46.83 90.12 34.53 23.72 -131.44 21.33 44.42 93.19 41.66 41.74 84.68 57.13 75.23 75.36
63408208 90.48 48.54 -90.29 80.13 28.38 70.35 78.92 54.83  0.99 63.96 73.42 69.05 75.75 54.53  2.91 10.65 46.90 90.11 33.89 22.76 -140.47 21.32 44.63 92.53 41.72 42.85 82.20 57.12 75.17 71.29
63408225 90.48 48.54 -90.27 80.13 28.37 70.35 78.94 54.83 -1.91 63.90 73.23 69.16 75.79 54.53 -1.31 10.65 47.06 90.11 33.11 21.91 -148.68 21.32 44.74 91.82 41.83 43.97 79.70 57.11 75.09 66.17
63408245 90.47 48.54 -90.25 80.13 28.37 70.34 78.97 54.83 -4.13 63.88 73.17 69.22 75.82 54.54 -4.52 10.65 47.31 90.11 32.22 21.18 -156.28 21.31 44.75 91.14 41.99 45.11 77.18 57.09 75.02 60.43
63408262 90.47 48.54 -90.23 80.13 28.37 70.34 79.01 54.83 -6.55 63.87 73.15 69.26 75.84 54.54 -6.28 10.65 47.63 90.11 31.22 20.57 -163.45 21.31 44.66 90.51 42.20 46.25 76.06 57.09 74.97 53.55
63408280 90.47 48.54 -90.21 80.13 28.37 70.34 79.04 54.82 -7.69 63.87 73.14 69.29 75.87 54.54 -8.08 10.65 48.03 90.11 30.15 20.10 -170.30 21.32 44.49 89.98 42.45 47.40 75.96 57.09 74.94 46.00
63408299 90.47 48.54 -90.19 80.13 28.37 70.33 79.08 54.82 -9.13 63.87 73.14 69.31 75.89 54.53 -8.47 10.65 48.49 90.11 29.02 19.76 -176.92 21.32 44.23 89.55 42.72 48.56 76.59 57.10 74.93 37.80
63408318 90.48 48.54 -90.18 80.13 28.37 70.33 79.12 54.81 -9.41 63.87 73.14 69.31 75.91 54.53 -9.15 10.65 49.03 90.11 27.84 19.56 176.62 21.32 43.90 89.24 43.00 49.74 77.76 57.12 74.94 29.19
63408336 90.48 48.54 -90.17 80.13 28.37 70.32 79.15 54.81 -9.30 63.87 73.14 69.31 75.94 54.53 -9.61 10.64 49.62 90.12 26.64 19.50 170.28 21.31 43.49 89.02 43.27 50.93 77.90 57.22 75.00 18.37
63408355 90.48 48.54 -90.17 80.13 28.37 70.32 79.17 54.81 -9.26 63.87 73.14 69.31 75.97 54.53 -9.58 10.64 50.26 90.12 25.43 19.58 164.03 21.30 43.02 88.92 43.54 52.14 77.29 57.40 75.07  5.94
63408373 90.48 48.54 -90.17 80.13 28.38 70.31 79.19 54.80 -9.04 63.87 73.14 69.31 76.00 54.52 -9.36 10.64 50.78 90.12 24.22 19.79 157.84 21.30 42.48 88.92 43.81 53.36 76.14 57.66 75.12 -7.65
63408393 90.48 48.55 -90.14 80.13 28.38 70.31 79.22 54.80 -8.83 63.87 73.15 69.32 76.02 54.52 -8.68 10.64 51.17 90.12 23.02 20.13 151.70 21.29 41.88 89.00 44.10 54.59 74.60 57.97 75.12 -22.06
63408411 90.48 48.55 -90.13 80.13 28.38 70.30 79.25 54.79 -8.70 63.87 73.15 69.32 76.05 54.51 -8.04 10.64 51.44 90.12 21.87 20.61 145.59 21.27 41.23 89.13 44.41 55.83 72.78 58.34 74.96 -33.34
63408430 90.48 48.55 -90.13 80.13 28.38 70.30 79.27 54.79 -8.55 63.87 73.15 69.32 76.07 54.51 -7.42 10.64 51.60 90.13 20.76 21.21 139.50 21.26 40.52 89.30 44.76 57.07 70.75 58.71 74.76 -45.75
63408447 90.48 48.55 -90.13 80.13 28.38 70.30 79.30 54.79 -7.95 63.87 73.15 69.32 76.10 54.51 -7.34 10.64 51.66 90.13 19.76 21.90 131.22 21.25 39.77 89.49 45.15 58.30 68.57 59.05 74.49 -58.74
63408467 90.48 48.55 -90.13 80.13 28.38 70.29 79.32 54.79 -7.46 63.87 73.15 69.33 76.12 54.50 -7.35 10.64 51.62 90.12 18.89 22.66 121.45 21.24 38.96 89.68 45.59 59.52 66.29 59.34 74.17 -71.84
63408483 90.48 48.55 -90.13 80.13 28.38 70.29 79.34 54.78 -7.10 63.87 73.15 69.33 76.15 54.50 -7.33 10.64 51.49 90.12 18.19 23.49 110.78 21.24 38.12 89.85 46.07 60.74 63.92 59.54 73.81 -84.59
63408502 90.48 48.56 -90.14 80.13 28.38 70.28 79.37 54.78 -7.05 63.87 73.15 69.33 76.17 54.50 -7.01 10.64 51.28 90.11 17.67 24.34 101.13 21.23 37.41 89.98 46.60 61.94 61.50 59.66 73.45 -96.60
63408521 90.48 48.56 -90.14 80.13 28.38 70.28 79.39 54.78 -7.23 63.87 73.15 69.34 76.19 54.49 -6.67 10.64 50.98 90.11 17.33 25.18 92.46 21.23 36.85 90.07 47.19 63.12 59.04 59.69 73.02 -106.01
63408540 90.48 48.56 -90.15 80.13 28.39 70.27 79.41 54.77 -6.91 63.87 73.15 69.34 76.23 54.49 -7.11 10.64 50.61 90.10 17.15 25.98 84.73 21.23 36.41 90.14 47.82 64.29 56.55 59.63 72.56 -113.52
63408557 90.48 48.56 -90.15 80.13 28.39 70.28 79.43 54.77 -6.65 63.87 73.15 69.34 76.25 54.49 -7.23 10.64 50.17 90.10 17.09 26.77 78.77 21.23 36.10 90.19 48.46 65.36 53.72 59.49 72.06 -119.67
63408581 90.48 48.57 -90.16 80.13 28.39 70.28 79.45 54.77 -6.03 63.87 73.15 69.35 76.27 54.48 -6.95 10.64 49.66 90.09 17.14 27.54 74.09 21.23 35.89 90.22 49.11 66.34 50.48 59.27 71.55 -124.84
63408604 90.48 48.57 -90.16 80.13 28.39 70.27 79.47 54.77 -5.53 63.87 73.15 69.35 76.30 54.48 -6.23 10.65 49.09 90.09 17.27 28.28 70.34 21.23 35.80 90.25 49.77 67.23 46.74 58.96 71.02 -129.29
63408628 90.48 48.57 -90.17 80.13 28.39 70.27 79.48 54.77 -4.89 63.87 73.16 69.35 76.33 54.47 -5.48 10.65 48.47 90.09 17.46 29.00 67.26 21.23 35.80 90.26 50.44 68.04 42.39 58.59 70.48 -133.22
63408648 90.47 48.57 -90.17 80.13 28.39 70.27 79.50 54.76 -4.27 63.87 73.16 69.36 76.36 54.47 -4.65 10.65 47.97 90.09 17.69 29.70 64.67 21.23 35.90 90.28 51.12 68.76 37.39 58.15 69.94 -135.36
63408668 90.47 48.58 -90.18 80.13 28.39 70.26 79.52 54.76 -4.17 63.87 73.16 69.36 76.39 54.46 -3.48 10.65 47.60 90.09 17.97 30.38 62.43 21.23 36.08 90.30 51.86 69.42 29.43 57.64 69.39 -136.20
63408687 90.47 48.58 -90.18 80.13 28.39 70.25 79.53 54.76 -3.25 63.87 73.16 69.37 76.42 54.46 -3.43 10.65 47.34 90.09 18.28 31.04 60.45 21.22 36.34 90.32 52.65 69.99 19.20 57.09 68.83 -136.11
63408707 90.47 48.58 -90.19 80.13 28.39 70.25 79.55 54.76 -2.78 63.87 73.16 69.37 76.44 54.46 -3.03 10.65 47.20 90.08 18.61 31.69 58.65 21.22 36.69 90.33 53.48 70.45  7.63 56.52 68.24 -134.78
63408724 90.47 48.58 -90.20 80.13 28.39 70.25 79.57 54.76 -2.57 63.87 73.16 69.37 76.46 54.46 -2.78 10.65 47.15 90.08 18.96 32.32 56.98 21.22 37.10 90.34 54.16 70.88 -3.11 56.07 67.47 -130.80
63408743 90.47 48.58 -90.20 80.13 28.39 70.24 79.59 54.76 -2.47 63.87 73.16 69.38 76.48 54.46 -2.68 10.65 47.21 90.08 19.34 32.94 56.13 21.22 37.58 90.35 54.74 71.13 -16.02 55.65 66.70 -133.17
63408761 90.47 48.58 -90.20 80.13 28.39 70.24 79.62 54.76 -2.44 63.84 73.09 69.45 76.49 54.46 -2.56 10.65 47.35 90.08 19.73 33.55 55.88 21.21 38.13 90.35 55.33 71.18 -30.50 55.10 65.94 -135.85
63408781 90.47 48.58 -90.21 80.13 28.40 70.23 79.64 54.76 -2.42 63.79 72.96 69.58 76.51 54.45 -2.52 10.65 47.58 90.09 20.13 34.16 56.06 21.21 38.74 90.35 55.87 71.06 -45.45 54.46 65.21 -138.50
63408798 90.47 48.58 -90.22 80.13 28.40 70.21 79.66 54.76 -2.37 63.72 72.76 69.74 76.53 54.45 -2.47 10.65 47.89 90.09 20.55 34.80 56.90 21.21 39.40 90.36 56.32 70.82 -60.51 53.77 64.51 -141.12
63408817 90.47 48.58 -90.23 80.13 28.40 70.16 79.68 54.75 -2.35 63.62 72.51 69.93 76.55 54.45 -2.35 10.65 48.27 90.10 21.00 35.47 58.22 21.20 40.11 90.36 56.66 70.49 -75.28 53.02 63.85 -143.45
63408835 90.47 48.58 -90.24 80.13 28.40 70.14 79.70 54.75 -2.28 63.51 72.20 70.22 76.57 54.45 -2.21 10.65 48.72 90.10 21.46 36.19 59.88 21.20 40.88 90.36 56.88 70.12 -89.37 52.23 63.22 -145.62
63408854 90.47 48.58 -90.25 80.13 28.40 70.12 79.72 54.75 -2.26 63.38 71.83 70.57 76.59 54.45 -1.86 10.65 49.23 90.11 21.92 36.95 61.79 21.19 41.50 90.36 56.99 69.75 -102.33 51.40 62.61 -147.91
63408872 90.47 48.59 -90.25 80.13 28.40 70.11 79.74 54.75 -2.12 63.23 71.43 71.04 76.61 54.45 -1.63 10.64 49.81 90.11 22.37 37.75 63.88 21.19 41.99 90.36 56.99 69.33 -112.42 50.53 62.01 -150.28
63408891 90.47 48.59 -90.26 80.13 28.40 70.09 79.75 54.75 -1.91 63.07 70.97 71.95 76.63 54.45 -1.35 10.64 50.45 90.11 22.81 38.59 66.10 21.19 42.54 91.07 56.90 68.88 -120.44 49.61 61.44 -152.70
63408909 90.47 48.51 -90.25 80.13 28.41 70.03 79.77 54.75 -1.67 62.91 70.47 73.32 76.65 54.45 -0.98 10.64 50.95 90.12 23.24 39.46 68.67 21.18 42.98 91.94 56.71 68.42 -126.95 48.70 60.93 -151.06
63408928 90.47 48.48 -90.24 80.13 28.41 70.02 79.79 54.75 -1.01 62.73 69.93 75.02 76.67 54.45 -0.89 10.64 51.33 90.12 23.63 40.21 75.85 21.17 43.46 99.38 56.43 67.94 -132.37 47.81 60.43 -146.21
63408946 90.47 48.47 -90.24 80.13 28.41 70.01 79.80 54.75 -0.66 62.56 69.34 76.96 76.69 54.45 -0.50 10.64 51.59 90.12 23.94 40.97 84.33 21.14 43.89 107.36 56.07 67.47 -137.01 46.96 59.90 -138.90
63408966 90.47 48.47 -90.25 80.13 28.41 69.96 79.82 54.76 -0.05 62.41 68.75 76.79 76.71 54.45 -0.27 10.64 51.75 90.12 24.16 41.73 93.57 21.07 44.25 115.25 55.64 66.99 -139.66 46.17 59.33 -129.84
63408983 90.47 48.47 -90.25 80.13 28.41 69.94 79.79 54.76  0.06 62.25 68.11 75.70 76.68 54.45 -0.49 10.64 51.80 90.12 24.28 42.45 103.33 20.96 44.58 122.75 55.14 66.52 -140.87 45.49 58.69 -119.62
63409007 90.47 48.47 -90.26 80.13 28.41 69.93 79.73 54.76 -0.23 62.09 67.45 73.93 76.60 54.45 -0.95 10.64 51.75 90.13 24.29 43.13 112.71 20.83 44.86 128.72 54.59 66.03 -141.04 44.94 58.00 -108.76
63409027 90.47 48.47 -90.27 80.13 28.41 69.91 79.62 54.76 -0.76 61.90 66.75 71.68 76.49 54.45 -1.55 10.64 51.61 90.13 24.20 43.74 121.99 20.68 45.12 133.02 54.00 65.54 -140.45 44.53 57.28 -97.74
63409047 90.47 48.47 -90.27 80.13 28.42 69.87 79.48 54.76 -1.42 61.68 66.03 69.13 76.33 54.45 -2.17 10.64 51.39 90.14 24.03 44.28 131.06 20.50 45.35 135.31 53.37 65.01 -139.31 44.29 56.56 -87.01
63409064 90.47 48.48 -90.28 80.16 28.49 71.82 79.30 54.76 -2.08 61.43 65.30 66.51 76.14 54.46 -2.79 10.64 51.09 90.15 23.79 44.74 140.16 20.30 45.57 136.25 52.71 64.46 -137.78 44.18 55.80 -78.53
63409083 90.47 48.48 -90.28 80.21 28.63 75.22 79.08 54.77 -2.67 61.14 64.55 63.91 75.91 54.47 -3.36 10.64 50.71 90.15 23.52 45.09 146.44 20.07 45.80 139.78 52.04 63.87 -135.97 44.22 55.02 -71.68
63409101 90.47 48.48 -90.28 80.27 28.84 79.67 78.84 54.78 -3.15 60.81 63.80 61.38 75.65 54.48 -3.81 10.64 50.26 90.15 23.22 45.38 149.44 19.82 46.01 143.81 51.36 63.24 -133.94 44.36 54.24 -66.00
63409122 90.47 48.48 -90.29 80.33 29.12 84.78 78.56 54.79 -4.55 60.43 63.04 59.05 75.36 54.50 -5.22 10.65 49.75 90.15 22.89 45.62 149.50 19.57 46.20 147.84 50.68 62.57 -131.77 44.61 53.45 -61.19
63409141 90.47 48.49 -90.29 80.38 29.45 90.30 78.26 54.81 -6.59 60.01 62.28 56.93 75.04 54.52 -7.12 10.65 49.18 90.15 22.52 45.87 147.79 19.21 46.44 148.29 50.00 61.86 -129.49 44.95 52.68 -58.40
63409158 90.47 48.49 -90.29 80.40 29.84 96.19 77.94 54.84 -9.55 59.56 61.51 55.54 74.69 54.56 -9.70 10.65 48.54 90.15 22.13 46.12 146.05 18.75 46.74 145.26 49.33 61.10 -127.12 45.36 51.90 -57.09
63409176 90.47 48.37 -90.30 80.39 30.28 102.22 77.60 54.89 -11.96 59.06 60.75 54.82 74.31 54.61 -11.93 10.65 47.85 90.15 21.71 46.40 140.21 18.23 47.09 140.14 48.67 60.29 -124.70 45.82 51.11 -56.85
63409195 90.47 48.15 -90.30 80.32 30.76 108.25 77.25 54.94 -15.84 58.55 59.98 54.67 73.90 54.69 -15.74 10.65 47.12 90.15 21.30 46.70 133.23 17.65 47.53 133.34 48.04 59.44 -122.24 46.32 50.30 -57.39
63409213 90.47 47.83 -90.30 80.20 31.27 114.15 76.91 55.02 -20.63 58.01 59.21 55.06 73.45 54.79 -20.74 10.65 46.33 90.15 20.93 47.03 126.04 17.06 48.08 125.29 47.42 58.55 -119.75 46.83 49.50 -62.20
63409232 90.46 47.40 -90.30 80.02 31.80 119.85 76.60 55.11 -25.77 57.46 58.42 55.91 73.03 54.92 -24.34 10.66 45.50 90.16 20.59 47.41 118.20 16.48 48.74 117.37 46.84 57.62 -117.24 47.31 48.67 -70.12
63409250 90.46 46.89 -90.31 79.77 32.34 125.27 76.31 55.22 -30.14 56.91 57.61 57.17 72.62 55.08 -28.02 10.66 44.62 90.16 20.28 47.86 108.18 15.98 49.50 107.36 46.28 56.64 -114.71 47.71 47.81 -80.21
63409268 90.46 46.29 -90.31 79.45 32.88 130.43 76.05 55.35 -34.11 56.36 56.78 58.72 72.24 55.25 -31.48 10.66 43.71 90.16 20.02 48.38 96.31 15.60 50.29 96.03 45.77 55.63 -112.17 47.99 46.92 -91.72
63409286 90.45 45.61 -90.31 79.06 33.42 135.27 75.85 55.46 -37.92 55.82 55.93 60.55 71.91 55.42 -35.09 10.66 42.76 90.16 19.86 48.98 83.11 15.37 51.09 83.88 45.29 54.58 -111.04 48.11 46.05 -104.01
63409305 90.45 44.86 -90.31 78.62 33.94 139.88 75.69 55.56 -41.63 55.30 55.06 62.59 71.62 55.59 -38.68 10.67 41.77 90.16 19.82 49.60 68.94 15.29 51.87 71.26 44.83 53.50 -110.93 48.08 45.23 -116.50
63409324 90.45 44.04 -90.30 78.11 34.44 144.26 75.59 55.63 -45.24 54.79 54.16 64.84 71.37 55.76 -42.16 10.67 41.44 90.16 19.93 50.23 54.07 15.37 52.60 58.46 44.39 52.39 -111.56 47.90 44.50 -128.67
63409342 90.44 43.15 -90.30 77.54 34.91 148.41 75.51 55.69 -48.68 54.32 53.24 67.25 71.17 55.92 -45.49 10.67 41.32 90.16 20.18 50.82 38.70 15.58 53.24 45.70 43.95 51.28 -112.72 47.60 43.88 -140.00
63409360 90.44 42.19 -90.30 76.96 35.33 152.04 75.47 55.73 -52.29 53.88 52.29 69.70 71.00 56.07 -48.91 10.67 41.12 90.16 20.57 51.32 22.96 15.90 53.78 33.15 43.48 50.15 -114.26 47.18 43.34 -148.91
63409380 90.43 41.18 -90.30 76.33 35.72 155.57 75.44 55.75 -56.00 53.48 51.31 72.19 70.87 56.19 -52.37 10.67 40.84 90.16 21.02 51.69 15.36 16.29 54.19 20.95 43.00 49.01 -116.09 46.65 42.88 -156.09
63409397 90.43 40.12 -90.30 75.66 36.07 159.04 75.44 55.75 -59.73 53.11 50.31 74.63 70.77 56.30 -55.82 10.67 40.49 90.15 21.57 51.95  5.24 16.72 54.49  9.20 42.48 47.88 -118.13 46.03 42.49 -162.00
63409419 90.42 39.00 -90.30 74.94 36.40 162.46 75.47 55.69 -64.88 52.78 49.29 75.56 70.73 56.34 -59.85 10.67 40.06 90.15 22.17 52.11 -6.69 17.16 54.68 -2.00 41.92 46.76 -118.89 45.35 42.18 -165.58
63409441 90.41 37.83 -90.30 74.18 36.69 165.85 75.54 55.56 -71.12 52.49 48.25 75.32 70.74 56.32 -64.23 10.67 39.56 90.14 22.80 52.15 -19.92 17.60 54.76 -12.59 41.33 45.63 -118.73 44.60 41.92 -167.46
63409461 90.41 36.62 -90.30 73.38 36.94 169.21 75.61 55.36 -78.15 52.20 47.21 74.24 70.78 56.23 -68.80 10.67 39.00 90.14 23.43 52.06 -34.00 18.03 54.75 -24.03 40.72 44.50 -117.91 43.81 41.70 -168.11
63409481 90.40 35.37 -90.30 72.55 37.14 172.15 75.69 55.09 -85.72 51.90 46.15 72.55 70.84 56.08 -73.40 10.68 38.39 90.13 23.98 51.85 -47.90 18.44 54.66 -35.80 40.03 43.49 -119.19 43.13 41.44 -168.88
63409501 90.39 34.08 -90.30 71.69 37.31 174.70 75.74 54.76 -93.63 51.59 45.09 70.48 70.91 55.86 -77.89 10.68 37.71 90.13 24.42 51.57 -74.55 18.81 54.50 -47.46 39.18 42.54 -121.48 42.65 41.14 -170.43
63409519 90.39 32.74 -90.30 70.81 37.43 176.99 75.75 54.37 -101.73 51.25 44.04 68.21 70.99 55.57 -82.25 10.68 36.99 90.13 24.68 51.25 -110.22 19.12 54.28 -58.63 38.38 41.63 -119.17 42.22 40.89 -171.43
63409537 90.38 31.56 -90.30 69.90 37.52 179.07 75.71 53.94 -109.86 50.87 42.99 65.93 71.05 55.23 -86.38 10.68 36.22 90.13 24.78 51.01 -150.46 19.40 53.96 -67.42 37.61 40.55 -116.38 41.69 40.71 -171.56
63409554 90.38 30.51 -90.30 68.97 37.57 -178.98 75.61 53.54 -116.64 50.45 41.96 65.18 71.10 54.84 -90.29 10.68 35.40 90.12 24.83 50.89 168.62 19.64 53.56 -74.49 36.92 39.42 -113.65 41.16 40.58 -169.14
63409573 90.37 29.61 -90.30 68.03 37.58 -177.14 75.48 53.15 -122.33 50.00 40.93 65.69 71.12 54.39 -94.00 10.68 34.53 90.12 24.93 50.82 130.18 19.84 53.08 -80.32 36.32 38.24 -110.96 40.64 40.47 -164.78
63409591 90.37 28.86 -90.30 67.07 37.56 -175.31 75.30 52.79 -127.15 49.55 39.90 67.23 71.11 53.89 -97.52 10.69 33.63 90.12 25.04 50.71 98.35 19.99 52.54 -85.25 35.78 37.03 -108.31 40.13 40.34 -159.04
63409609 90.36 28.26 -90.30 66.10 37.52 -173.48 75.10 52.46 -131.23 49.11 38.87 67.52 71.07 53.36 -100.87 10.69 32.69 90.12 25.09 50.68 70.70 20.09 51.93 -89.53 35.30 35.79 -105.68 39.58 40.16 -154.18
63409628 90.36 27.82 -90.31 65.11 37.43 -171.65 74.87 52.15 -134.68 48.67 37.83 66.87 70.99 52.78 -104.06 10.69 31.71 90.12 25.14 50.75 46.07 20.14 51.28 -93.33 34.88 34.52 -103.07 39.00 39.93 -149.95
63409646 90.36 27.52 -90.31 64.12 37.32 -169.75 74.62 51.86 -137.59 48.22 36.78 65.55 70.87 52.18 -107.09 10.69 30.89 90.12 25.26 50.88 23.63 20.15 50.57 -96.80 34.51 33.23 -100.47 38.40 39.63 -146.17
63409663 90.36 27.36 -90.31 63.11 37.17 -167.88 74.46 51.57 -137.58 47.77 35.73 63.83 70.61 51.58 -108.58 10.69 30.21 90.13 25.44 50.99 11.78 20.10 49.83 -94.70 34.21 31.93 -97.88 37.78 39.27 -138.83
63409683 90.36 27.32 -90.31 62.10 36.99 -165.74 74.30 51.30 -136.83 47.28 34.70 62.01 70.33 50.94 -109.18 10.69 29.66 90.13 25.69 51.09  7.80 20.05 49.05 -88.57 33.97 30.60 -95.29 37.18 38.83 -128.90
63409701 90.36 27.41 -90.31 61.09 36.76 -163.42 74.14 51.05 -135.80 46.77 33.67 60.26 70.03 50.28 -109.08 10.70 29.24 90.13 26.03 51.16  9.53 20.03 48.23 -79.52 33.79 29.27 -92.72 36.62 38.29 -117.10
63409720 90.36 27.60 -90.31 60.08 36.50 -160.90 73.97 50.82 -134.67 46.23 32.65 58.70 69.74 49.58 -108.32 10.70 28.95 90.13 26.43 51.24  6.18 20.10 47.38 -68.35 33.66 27.93 -90.14 36.16 37.65 -103.94
63409738 90.36 27.90 -90.31 59.07 36.20 -158.23 73.79 50.60 -134.05 45.65 31.65 57.43 69.46 48.84 -108.29 10.70 28.76 90.13 26.89 51.30 -0.87 20.30 46.55 -55.65 33.60 26.57 -87.57 35.83 36.94 -89.81
63409757 90.36 28.30 -90.31 58.06 35.84 -155.31 73.59 50.38 -133.86 45.06 30.66 56.57 69.19 48.07 -108.85 10.70 28.68 90.13 27.42 51.33 -10.57 20.65 45.77 -41.84 33.60 25.29 -83.22 35.67 36.19 -74.96
63409776 90.37 28.79 -90.31 57.08 35.44 -152.20 73.38 50.16 -133.95 44.43 29.68 56.17 68.91 47.27 -109.82 10.70 28.70 90.12 27.98 51.29 -22.21 21.15 45.10 -27.23 33.66 24.06 -77.56 35.69 35.44 -59.59
63409796 90.37 29.37 -90.31 56.10 34.98 -149.04 73.18 49.94 -134.24 43.80 28.70 56.25 68.62 46.45 -111.08 10.70 28.81 90.11 28.57 51.14 -35.25 21.75 44.58 -21.09 33.83 22.85 -72.74 35.89 34.74 -43.86
63409813 90.37 30.03 -90.31 55.15 34.48 -145.91 72.96 49.72 -134.65 43.15 27.73 56.80 68.31 45.61 -112.52 10.70 29.00 90.10 29.12 50.88 -49.27 22.42 44.18 -21.19 34.09 21.64 -68.47 36.26 34.13 -27.85
63409831 90.38 30.76 -90.30 54.22 33.91 -142.80 72.75 49.50 -135.12 42.51 26.75 57.77 67.98 44.75 -114.09 10.70 29.28 90.09 29.60 50.51 -63.86 23.15 43.83 -25.83 34.41 20.52 -62.78 36.76 33.67 -11.64
63409849 90.38 31.57 -90.30 53.32 33.30 -139.77 72.53 49.28 -135.60 41.87 25.76 59.11 67.61 43.89 -115.73 10.70 29.63 90.09 29.97 50.07 -78.57 23.90 43.46 -33.76 34.82 19.49 -55.48 37.34 33.37  4.71
63409868 90.39 32.41 -90.30 52.45 32.64 -136.87 72.30 49.05 -136.07 41.25 24.76 60.79 67.22 43.02 -117.40 10.69 30.06 90.08 30.21 49.58 -92.93 24.64 43.04 -44.03 35.30 18.57 -48.73 37.96 33.25 21.16
63409886 90.39 33.28 -90.30 51.61 31.93 -134.13 72.07 48.83 -136.49 40.65 23.74 62.79 66.79 42.14 -119.09 10.69 30.55 90.07 30.31 49.11 -106.49 25.32 42.53 -55.90 35.84 17.77 -41.95 38.57 33.31 37.68
63409906 90.40 34.22 -90.30 50.81 31.18 -131.50 71.84 48.61 -136.85 40.08 22.71 65.01 66.33 41.25 -120.78 10.69 31.11 90.07 30.28 48.60 -117.01 25.88 41.93 -68.78 36.43 17.08 -35.12 39.13 33.53 54.24
63409925 90.40 35.22 -90.30 50.03 30.38 -129.03 71.61 48.38 -137.15 39.55 21.65 67.46 65.84 40.37 -122.46 10.69 31.72 90.06 30.14 48.09 -125.35 26.30 41.28 -82.19 37.09 16.48 -25.76 39.58 33.89 70.84
63409943 90.41 36.27 -90.30 49.30 29.55 -126.66 71.37 48.16 -137.37 39.06 20.59 69.79 65.31 39.49 -124.12 10.69 32.39 90.06 29.88 47.58 -132.09 26.56 40.60 -95.67 37.83 15.99 -14.39 39.91 34.35 87.44
63409961 90.41 37.14 -90.30 48.60 28.69 -124.38 71.13 47.93 -137.52 38.64 19.53 71.48 64.75 38.61 -125.75 10.69 33.11 90.06 29.53 47.08 -137.69 26.66 39.94 -108.82 38.64 15.63 -1.55 40.08 34.86 103.90
63409980 90.41 37.84 -90.30 47.93 27.79 -122.16 70.88 47.71 -137.58 38.25 18.71 79.98 64.16 37.74 -127.35 10.69 33.89 90.05 29.10 46.60 -141.03 26.61 39.34 -121.26 39.46 15.26  7.58 40.10 35.35 120.02
63410000 90.42 38.38 -90.30 47.29 26.86 -119.98 70.63 47.48 -137.57 37.96 17.98 92.72 63.53 36.87 -128.93 10.69 34.70 90.05 28.60 46.13 -142.74 26.42 38.76 -130.98 40.34 15.01 16.66 40.00 35.80 135.53
63410017 90.42 38.77 -90.30 46.69 25.91 -117.82 70.39 47.25 -137.49 37.84 17.24 103.22 62.88 36.02 -130.47 10.69 35.38 90.05 28.04 45.65 -139.38 26.10 38.22 -133.42 41.18 15.00 27.84 39.76 36.20 142.15
63410036 90.42 39.02 -90.30 46.13 24.93 -115.69 70.14 47.02 -137.34 37.86 16.50 111.19 62.19 35.17 -131.98 10.69 35.92 90.04 27.44 45.15 -132.33 25.70 37.69 -130.57 41.97 15.19 40.55 39.43 36.57 142.34
63410055 90.42 39.14 -90.30 45.60 23.93 -113.64 69.89 46.79 -137.11 38.01 15.78 116.96 61.47 34.33 -133.46 10.69 36.33 90.04 26.86 44.58 -122.62 25.25 37.14 -123.90 42.66 15.55 54.34 39.02 36.94 137.87
63410074 90.42 39.13 -90.29 45.11 22.90 -111.66 69.63 46.56 -136.84 38.27 15.08 120.85 60.73 33.50 -134.91 10.69 36.62 90.04 26.34 43.93 -110.97 24.80 36.54 -114.46 43.22 16.03 68.82 38.57 37.34 130.02
63410093 90.42 39.00 -90.29 44.65 21.86 -109.79 69.38 46.33 -136.51 38.60 14.39 123.17 59.96 32.69 -136.33 10.69 36.81 90.04 25.92 43.20 -103.25 24.41 35.86 -108.33 43.63 16.59 83.64 38.12 37.82 119.73
63410111 90.42 38.77 -90.28 44.25 20.85 -108.16 69.13 46.09 -136.16 38.99 13.70 124.21 59.16 31.89 -137.72 10.69 36.88 90.04 25.61 42.40 -98.36 24.10 35.17 -107.23 43.85 17.16 97.73 37.71 38.37 107.66
63410131 90.42 38.44 -90.27 44.05 20.37 -81.78 68.88 45.85 -135.79 39.42 13.00 124.18 58.33 31.10 -139.08 10.69 36.86 90.04 25.39 41.55 -95.52 23.82 34.42 -101.82 43.83 17.19 97.90 37.40 39.00 94.32
63410150 90.42 38.01 -90.27 43.93 20.22 -75.23 68.63 45.61 -135.42 39.88 12.30 123.26 57.48 30.33 -140.41 10.69 36.75 90.04 25.24 40.66 -94.18 23.59 33.63 -93.29 43.86 16.89 107.24 37.21 39.69 80.04
63410169 90.41 37.48 -90.26 43.89 20.06 -70.44 68.38 45.37 -135.05 40.35 11.58 121.55 56.61 29.57 -141.72 10.69 36.55 90.04 25.13 39.79 -95.95 23.45 32.79 -82.51 43.92 16.59 115.70 37.19 40.40 65.09
63410188 90.41 36.88 -90.26 43.90 19.90 -67.63 68.13 45.12 -134.69 40.82 10.83 119.89 55.71 28.83 -143.00 10.69 36.27 90.04 25.03 38.95 -100.18 23.44 31.93 -70.09 44.02 16.31 122.50 37.33 41.09 49.65
63410207 90.41 36.19 -90.26 43.94 19.73 -66.84 67.88 44.88 -134.33 41.29 10.06 118.18 54.79 28.10 -144.26 10.69 35.91 90.05 24.91 38.13 -106.29 23.59 31.08 -56.48 44.10 16.09 125.68 37.63 41.70 33.86
63410226 90.40 35.43 -90.26 44.00 19.57 -67.77 67.64 44.63 -133.96 41.74  9.25 115.22 53.85 27.39 -145.50 10.69 35.48 90.05 24.75 37.36 -113.76 23.90 30.30 -42.02 44.17 15.92 126.17 38.08 42.20 17.81
63410245 90.40 34.60 -90.26 44.06 19.40 -69.97 67.39 44.37 -133.60 42.17  8.42 110.91 52.88 26.70 -146.71 10.69 34.99 90.05 24.51 36.63 -122.17 24.37 29.63 -26.94 44.23 15.78 124.61 38.62 42.55  1.57
63410264 90.40 33.71 -90.25 44.12 19.24 -72.79 67.15 44.12 -133.24 42.35  8.32 97.31 51.90 26.03 -147.90 10.69 34.43 90.05 24.20 35.96 -131.18 24.97 29.12 -11.40 44.26 15.67 121.70 39.23 42.74 -14.79
63410283 90.40 33.40 -90.25 44.18 19.08 -76.91 66.90 43.86 -132.88 42.44  8.28 89.17 50.90 25.37 -149.07 10.69 33.81 90.05 23.83 35.38 -140.53 25.65 28.78  4.46 44.28 15.58 117.29 39.84 42.75 -31.25
63410301 90.39 33.23 -90.26 44.22 18.93 -81.16 66.66 43.60 -132.53 42.48  8.32 85.95 49.88 24.73 -150.22 10.69 33.14 90.04 23.40 34.89 -150.01 26.36 28.65 20.57 44.29 15.50 111.73 40.41 42.58 -47.79
63410321 90.39 33.19 -90.26 44.26 18.79 -84.56 66.40 43.33 -132.09 42.50  8.37 85.84 48.85 24.11 -151.35 10.69 32.41 90.04 22.88 34.47 -152.28 27.05 28.71 36.84 44.28 15.44 105.21 40.91 42.27 -64.37
63410340 90.39 33.27 -90.26 44.28 18.65 -86.80 66.13 43.03 -131.60 42.51  8.34 83.05 47.80 23.51 -152.46 10.69 31.83 90.04 22.28 34.08 -149.31 27.66 28.94 53.18 44.27 15.41 98.20 41.28 41.85 -80.94
63410360 90.40 33.46 -90.27 44.30 18.50 -88.07 65.85 42.72 -131.09 42.51  8.28 80.44 46.73 22.93 -153.55 10.69 31.37 90.04 21.64 33.69 -142.56 28.15 29.30 69.43 44.25 15.40 91.06 41.51 41.37 -97.33
63410383 90.40 33.76 -90.27 44.31 18.41 -91.38 65.56 42.39 -130.56 42.49  8.27 80.45 45.65 22.36 -154.62 10.69 31.03 90.04 20.99 33.24 -133.05 28.49 29.73 84.28 44.25 15.30 88.76 41.59 40.89 -113.26
63410406 90.40 34.15 -90.28 44.31 18.26 -92.20 65.26 42.04 -131.10 42.48  8.26 81.20 44.55 21.86 -156.66 10.69 30.81 90.04 20.37 32.70 -121.55 28.68 30.22 95.74 44.24 15.17 87.24 41.54 40.44 -128.42
63410428 90.40 34.64 -90.28 44.30 18.00 -90.70 64.94 41.68 -132.43 42.46  8.25 82.12 43.49 21.52 -163.28 10.69 30.70 90.04 19.83 32.06 -108.62 28.75 30.77 104.75 44.23 14.90 89.27 41.40 40.07 -142.44
63410448 90.40 35.21 -90.29 44.30 17.74 -89.03 64.61 41.32 -134.35 42.44  8.22 82.94 42.41 21.20 -168.52 10.69 30.69 90.04 19.43 31.33 -94.64 28.70 31.34 111.98 44.22 14.62 91.53 41.13 39.74 -153.30
63410468 90.40 35.41 -90.29 44.29 17.47 -87.32 64.27 40.95 -136.69 42.42  8.19 84.02 41.32 20.92 -172.59 10.69 30.77 90.04 19.20 30.55 -79.91 28.55 31.93 117.93 44.22 14.33 93.50 40.77 39.46 -161.87
63410488 90.41 35.47 -90.29 44.30 17.18 -85.70 63.90 40.58 -139.31 42.40  8.16 85.65 40.20 20.71 -175.79 10.69 30.94 90.05 19.15 29.80 -65.15 28.31 32.53 121.53 44.23 14.03 95.00 40.32 39.23 -168.78
63410508 90.40 35.42 -90.28 44.31 16.89 -84.55 63.51 40.21 -142.16 42.39  8.12 87.01 39.07 20.56 -178.37 10.69 31.19 90.05 19.27 29.12 -50.57 28.00 33.15 123.43 44.25 13.74 96.22 39.81 39.06 -174.50
63410528 90.40 35.25 -90.28 44.34 16.59 -83.69 63.09 39.86 -145.07 42.37  8.08 89.08 37.93 20.47 179.51 10.69 31.52 90.06 19.52 28.54 -36.33 27.63 33.78 124.10 44.28 13.43 96.82 39.23 38.94 -177.94
63410548 90.40 34.97 -90.28 44.36 16.28 -83.31 62.65 39.52 -147.92 42.37  8.08 91.35 36.77 20.43 177.72 10.69 31.92 90.06 19.87 28.09 -22.58 27.21 34.44 123.88 44.31 13.12 97.08 38.59 38.87 -179.72
63410566 90.40 34.60 -90.27 44.40 15.97 -83.31 62.19 39.20 -150.61 42.36  8.12 93.10 35.61 20.44 176.17 10.69 32.40 90.06 20.28 27.77 -9.42 26.76 35.13 123.01 44.34 12.80 96.97 37.91 38.84 179.70
63410585 90.40 34.47 -90.27 44.43 15.64 -83.62 61.70 38.90 -153.09 42.36  8.18 95.55 34.45 20.48 174.81 10.69 32.93 90.06 20.74 27.57  4.53 26.30 35.84 121.68 44.38 12.48 96.61 37.18 38.82 179.99
63410604 90.40 34.43 -90.27 44.47 15.33 -84.92 61.19 38.61 -155.31 42.36  8.25 98.58 33.28 20.55 173.58 10.69 33.53 90.06 21.23 27.49 19.06 25.82 36.60 120.00 44.41 12.19 94.73 36.40 38.81 175.59
63410624 90.40 34.41 -90.26 44.50 15.05 -87.34 60.66 38.34 -157.26 42.35  8.33 102.20 32.10 20.66 172.45 10.69 34.18 90.06 21.71 27.54 33.76 25.34 37.39 118.08 44.44 11.92 92.22 35.59 38.84 167.80
63410641 90.40 34.41 -90.26 44.52 14.83 -91.68 60.12 38.09 -158.93 42.33  8.36 102.09 30.92 20.79 171.40 10.69 34.70 90.06 22.14 27.69 48.24 24.87 38.23 115.98 44.46 11.69 87.35 34.76 38.95 157.54
63410660 90.40 34.41 -90.25 44.53 14.65 -97.31 59.56 37.86 -160.34 42.30  8.33 99.75 29.73 20.94 170.40 10.69 35.10 90.06 22.50 27.92 62.09 24.41 39.10 113.75 44.46 11.53 82.42 33.93 39.17 145.50
63410678 90.40 34.41 -90.25 44.53 14.52 -101.57 58.99 37.63 -161.51 42.26  8.29 97.34 28.55 21.12 169.45 10.69 35.37 90.06 22.76 28.20 74.92 23.97 40.02 111.42 44.45 11.38 78.37 33.15 39.54 132.17
63410698 90.40 34.41 -90.24 44.53 14.43 -103.91 58.40 37.42 -162.46 42.22  8.25 95.23 27.36 21.32 168.53 10.69 35.54 90.06 22.96 28.57 84.92 23.55 40.97 109.03 44.44 11.26 75.70 32.47 40.04 117.91
63410717 90.40 34.41 -90.22 44.52 14.36 -104.85 57.81 37.22 -163.22 42.18  8.20 93.56 26.17 21.55 167.65 10.69 35.60 90.06 23.08 29.02 92.87 23.17 41.96 106.59 44.43 11.18 74.72 31.94 40.67 102.96
63410735 90.40 34.41 -90.20 44.51 14.29 -104.33 57.21 37.03 -163.84 42.15  8.12 92.93 24.97 21.79 166.78 10.69 35.56 90.06 23.12 29.52 99.34 22.82 42.99 105.53 44.41 11.11 75.26 31.58 41.38 87.53
63410753 90.40 34.40 -90.18 44.49 14.21 -102.78 56.59 36.84 -164.31 42.13  8.07 90.98 23.78 22.05 165.94 10.69 35.44 90.06 23.09 30.07 104.72 22.50 44.04 105.47 44.40 11.04 76.96 31.42 42.13 71.74
63410770 90.40 34.40 -90.17 44.47 14.14 -100.88 55.98 36.66 -164.67 42.10  8.06 88.85 22.59 22.33 165.11 10.69 35.22 90.06 23.00 30.66 107.92 22.18 45.12 106.14 44.39 11.00 79.09 31.46 42.87 55.70
63410790 90.40 34.40 -90.16 44.48 14.20 -99.44 55.35 36.48 -165.02 42.07  8.09 89.67 21.50 22.60 160.26 10.69 34.93 90.06 22.84 31.29 109.53 21.86 46.22 107.33 44.40 11.06 80.47 31.68 43.53 39.47
63410808 90.40 34.40 -90.16 44.50 14.32 -95.75 54.72 36.31 -165.39 42.05  8.14 91.94 20.54 22.89 152.50 10.69 34.56 90.06 22.64 31.95 109.98 21.52 47.34 108.90 44.42 11.18 83.42 32.07 44.08 23.10
63410826 90.40 34.40 -90.16 44.52 14.53 -90.92 54.09 36.13 -165.79 42.03  8.20 95.36 19.70 23.21 151.13 10.69 34.13 90.06 22.40 32.65 109.60 21.16 48.46 110.74 44.44 11.36 87.45 32.57 44.49  6.64
63410845 90.40 34.40 -90.16 44.54 14.80 -85.54 53.45 35.97 -166.25 42.01  8.27 99.24 19.00 23.53 153.08 10.69 33.62 90.06 22.14 33.39 108.61 20.76 49.59 112.79 44.46 11.60 91.81 33.15 44.73 -9.89
63410862 90.40 34.40 -90.14 44.53 15.15 -79.98 52.80 35.80 -166.79 41.98  8.36 103.70 18.41 23.82 157.44 10.69 33.05 90.06 21.88 34.17 107.19 20.33 50.73 114.98 44.46 11.88 95.89 33.75 44.79 -26.47
63410881 90.40 34.40 -90.14 44.48 15.56 -74.34 52.14 35.64 -167.42 41.95  8.52 109.63 17.91 24.05 163.55 10.69 32.43 90.06 21.61 34.99 105.46 19.85 51.85 115.85 44.44 12.23 99.84 34.33 44.69 -43.09
63410900 90.40 34.40 -90.14 44.39 16.02 -68.89 51.49 35.49 -168.15 41.88  8.73 116.86 17.49 24.21 165.03 10.69 31.93 90.06 21.36 35.85 103.49 19.33 52.98 115.78 44.40 12.61 103.85 34.84 44.43 -59.67
63410918 90.40 34.40 -90.13 44.24 16.52 -63.68 50.82 35.34 -168.99 41.77  8.99 125.03 17.15 24.32 163.15 10.69 31.56 90.06 21.12 36.75 101.36 18.80 54.11 111.12 44.32 13.04 107.75 35.22 44.07 -76.03
63410936 90.40 34.40 -90.13 44.06 16.99 -62.60 50.15 35.20 -170.09 41.59  9.29 131.98 16.90 24.41 158.84 10.69 31.31 90.06 20.90 37.68 99.11 18.31 55.27 103.13 44.19 13.52 111.37 35.47 43.65 -91.94
63410956 90.40 34.40 -90.13 43.83 17.49 -60.91 49.48 35.08 -171.47 41.35  9.61 138.04 16.73 24.47 152.77 10.69 31.17 90.06 20.71 38.65 96.77 17.92 56.46 92.73 44.03 14.02 114.81 35.59 43.22 -107.11
63410973 90.40 34.40 -90.12 43.55 18.04 -58.90 48.80 34.96 -173.08 41.03  9.95 143.47 16.63 24.50 145.44 10.69 31.13 90.06 20.55 39.66 94.37 17.70 57.68 80.59 43.82 14.54 118.06 35.59 42.82 -121.26
63410992 90.40 34.39 -90.12 43.23 18.61 -56.50 48.11 34.86 -174.89 40.64 10.29 148.11 16.61 24.50 141.19 10.69 31.18 90.07 20.43 40.69 91.92 17.69 58.87 67.19 43.56 15.08 121.10 35.50 42.47 -134.09
63411010 90.40 34.39 -90.11 42.86 19.22 -53.94 47.42 34.78 -176.87 40.15 10.64 151.47 16.67 24.45 139.16 10.69 31.32 90.07 20.36 41.75 89.43 17.90 60.00 52.86 43.26 15.64 123.94 35.29 42.13 -144.08
63411029 90.40 34.39 -90.10 42.44 19.84 -51.20 46.73 34.72 -179.00 39.58 11.00 153.90 16.78 24.34 138.73 10.69 31.55 90.07 20.33 42.83 86.92 18.34 60.98 37.88 42.91 16.22 126.58 34.99 41.82 -152.03
63411047 90.40 34.39 -90.10 41.97 20.47 -48.41 46.03 34.68 178.74 38.92 11.35 155.66 16.96 24.19 139.46 10.69 31.86 90.08 20.34 43.94 80.50 18.96 61.79 22.42 42.52 16.80 129.01 34.60 41.53 -158.50
63411067 90.40 34.39 -90.09 41.45 21.11 -45.58 45.33 34.68 176.37 38.18 11.72 156.93 17.18 24.00 142.93 10.69 32.24 90.08 20.44 45.05 71.24 19.70 62.36  6.61 42.08 17.39 131.24 34.13 41.28 -163.89
63411085 90.40 34.39 -90.08 40.88 21.75 -42.74 44.63 34.69 173.91 37.38 12.08 157.86 17.41 23.81 141.19 10.69 32.70 90.09 20.67 46.13 59.91 20.50 62.70 -9.37 41.60 17.98 133.30 33.59 41.07 -168.50
63411103 90.40 34.39 -90.08 40.26 22.38 -39.63 43.93 34.74 171.36 36.51 12.46 158.53 17.66 23.61 135.69 10.69 33.21 90.09 21.07 47.15 47.10 21.27 62.80 -25.31 41.07 18.58 133.90 32.99 40.90 -172.55
63411122 90.40 34.39 -90.07 39.59 22.99 -36.35 43.23 34.82 168.75 35.58 12.84 159.02 17.84 23.46 136.13 10.69 33.79 90.10 21.63 48.05 33.22 21.97 62.71 -40.91 40.51 19.19 133.44 32.33 40.77 -174.77
63411140 90.40 34.39 -90.06 38.87 23.58 -32.79 42.53 34.92 166.06 34.60 13.23 159.37 17.96 23.35 140.86 10.69 34.43 90.10 22.34 48.78 18.55 22.54 62.46 -55.83 39.92 19.82 132.29 31.62 40.66 -175.67
63411159 90.40 34.39 -90.06 38.10 24.14 -29.42 41.84 35.06 163.31 33.56 13.63 159.63 18.00 23.31 145.32 10.69 34.93 90.10 23.15 49.30  3.31 22.96 62.13 -69.74 39.32 20.48 130.45 30.86 40.58 -175.62
63411177 90.40 34.39 -90.05 37.34 24.64 -29.78 41.16 35.23 160.59 32.48 14.04 159.81 17.97 23.33 149.56 10.69 35.31 90.10 24.02 49.58 -12.34 23.25 61.75 -82.32 38.72 21.15 127.98 30.06 40.51 -176.29
63411195 90.40 34.39 -90.05 36.59 25.12 -33.33 40.49 35.44 158.06 31.35 14.46 159.95 17.87 23.39 153.67 10.69 35.58 90.11 24.86 49.63 -28.24 23.43 61.29 -92.13 38.15 21.84 125.13 29.22 40.45 -177.48
63411214 90.40 34.39 -90.04 35.92 25.58 -40.52 39.82 35.67 155.81 30.17 14.89 160.05 17.69 23.48 157.34 10.68 35.73 90.11 25.61 49.47 -44.23 23.51 60.78 -99.94 37.62 22.52 124.27 28.34 40.39 -173.73
63411232 90.40 34.39 -90.03 35.36 26.01 -49.57 39.17 35.93 153.91 29.03 15.31 160.09 17.44 23.59 159.99 10.68 35.78 90.11 26.24 49.14 -60.13 23.50 60.22 -106.30 37.11 23.23 125.22 27.43 40.32 -166.41
63411251 90.40 34.38 -90.02 34.88 26.48 -56.04 38.52 36.22 152.43 27.91 15.71 160.08 17.13 23.72 161.92 10.68 35.73 90.11 26.70 48.71 -75.77 23.40 59.63 -111.61 36.64 23.89 123.80 26.51 40.16 -156.50
63411269 90.40 34.38 -90.01 34.44 27.02 -59.47 37.89 36.53 151.40 26.82 16.11 160.00 16.75 23.85 163.31 10.69 35.60 90.11 27.00 48.22 -91.02 23.22 59.01 -114.76 36.24 24.46 120.29 25.60 39.89 -144.70
63411289 90.40 34.38 -90.01 34.06 27.56 -62.24 37.26 36.85 150.84 25.76 16.50 159.86 16.32 23.99 164.32 10.69 35.37 90.12 27.15 47.72 -105.72 22.97 58.37 -116.33 35.89 25.00 117.89 24.76 39.48 -131.55
63411307 90.40 34.38 -90.00 33.73 28.09 -63.54 36.63 37.19 150.79 24.71 16.88 159.66 15.86 24.13 165.05 10.69 35.07 90.12 27.16 47.26 -119.76 22.68 57.70 -116.75 35.58 25.53 115.96 24.03 38.92 -117.41
63411326 90.40 34.38 -89.99 33.44 28.60 -64.54 36.01 37.53 151.25 23.69 17.26 159.39 15.40 24.26 165.58 10.69 34.70 90.12 27.06 46.84 -133.02 22.35 57.00 -116.36 35.30 26.04 115.69 23.45 38.23 -102.56
63411344 90.40 34.38 -89.99 33.19 29.10 -64.61 35.38 37.87 152.23 22.69 17.63 159.06 14.91 24.39 165.61 10.69 34.25 90.12 26.88 46.50 -145.42 21.99 56.26 -115.36 35.05 26.54 116.12 23.07 37.47 -87.19
63411363 90.40 34.38 -89.98 32.95 29.56 -63.35 34.75 38.21 153.75 21.71 18.00 158.68 14.42 24.52 165.26 10.69 33.74 90.12 26.65 46.23 -156.89 21.62 55.49 -113.93 34.81 27.02 116.03 22.91 36.67 -71.45
63411381 90.40 34.38 -89.98 32.73 30.01 -62.42 34.12 38.54 156.16 20.75 18.37 158.23 13.91 24.66 164.65 10.69 33.16 90.12 26.32 46.01 -160.58 21.25 54.68 -112.19 34.59 27.46 117.23 22.95 35.89 -55.44
63411400 90.40 34.38 -89.97 32.51 30.44 -61.28 33.47 38.85 159.36 19.81 18.73 157.71 13.39 24.80 163.68 10.69 32.53 90.11 25.92 45.81 -158.65 20.88 53.83 -110.22 34.37 27.89 118.46 23.19 35.19 -39.22
63411417 90.40 34.38 -89.98 32.30 30.83 -60.60 32.81 39.13 163.26 18.88 19.10 157.07 12.86 24.94 162.43 10.69 32.03 90.11 25.46 45.61 -152.65 20.53 52.95 -108.08 34.16 28.30 120.20 23.59 34.62 -22.87
63411436 90.40 34.38 -89.98 32.09 31.20 -58.97 32.13 39.37 167.75 17.98 19.48 156.28 12.33 25.10 161.00 10.69 31.65 90.11 24.95 45.37 -143.68 20.19 52.02 -105.83 33.95 28.69 120.67 24.11 34.20 -6.42
63411454 90.40 34.38 -89.98 31.89 31.56 -58.07 31.44 39.57 172.77 17.09 19.85 155.31 11.80 25.28 158.30 10.69 31.39 90.11 24.43 45.06 -132.58 19.89 51.06 -103.48 33.75 29.05 121.74 24.71 33.95 10.11
63411473 90.40 34.38 -89.98 31.68 31.90 -57.54 30.74 39.71 178.23 16.22 20.24 154.13 11.27 25.47 154.68 10.69 31.25 90.11 23.94 44.64 -119.94 19.61 50.06 -101.08 33.55 29.38 122.77 25.31 33.88 26.65
63411491 90.40 34.38 -89.99 31.49 32.22 -56.70 30.04 39.80 -175.93 15.37 20.63 152.71 10.76 25.68 149.11 10.70 31.21 89.80 23.52 44.13 -106.17 19.37 49.02 -98.63 33.35 29.71 123.00 25.87 33.98 43.00
63411511 90.40 34.38 -89.99 31.29 32.52 -56.45 29.33 39.81 -169.75 14.56 21.03 151.39 10.28 25.92 142.13 10.71 31.28 89.52 23.21 43.53 -91.59 19.16 47.96 -96.15 33.16 30.01 123.26 26.34 34.21 58.91
63411529 90.40 34.38 -90.00 31.10 32.81 -56.34 28.64 39.75 -163.31 13.79 21.43 150.13  9.83 26.20 134.12 10.72 31.44 89.33 23.05 42.88 -76.41 19.00 46.87 -93.64 32.97 30.30 123.47 26.69 34.52 74.06
63411549 90.40 34.38 -90.01 30.93 33.08 -56.40 27.96 39.63 -156.64 13.06 21.83 148.89  9.43 26.53 125.37 10.72 31.68 89.19 23.05 42.22 -60.81 18.88 45.76 -91.12 32.79 30.58 123.61 26.93 34.87 88.10
63411566 90.40 34.38 -90.01 30.75 33.34 -56.76 27.30 39.43 -149.79 12.35 22.23 147.67  9.10 26.88 115.89 10.72 32.00 89.14 23.22 41.59 -44.90 18.81 44.62 -88.59 32.62 30.84 123.93 27.05 35.30 98.98
63411584 90.40 34.38 -90.02 30.59 33.59 -56.96 26.66 39.22 -145.19 11.69 22.63 146.41  8.83 27.25 105.91 10.73 32.39 89.16 23.55 41.04 -28.77 18.79 43.52 -83.51 32.45 31.09 123.95 27.09 35.70 108.01
63411603 90.40 34.38 -90.02 30.43 33.84 -57.89 26.51 39.09 -144.83 11.05 23.03 145.08  8.66 27.64 94.85 10.74 32.86 89.25 23.42 40.92 -30.58 18.84 42.43 -75.32 32.29 31.33 123.30 27.16 35.73 119.09
63411623 90.40 34.38 -90.03 30.29 34.05 -57.19 26.35 38.97 -145.56 10.44 23.44 143.64  8.58 28.03 86.16 10.74 33.39 89.36 23.32 40.89 -30.83 19.01 41.34 -64.78 32.15 31.54 123.56 27.18 35.76 125.60
63411641 90.40 34.38 -90.04 30.25 34.12 -52.82 26.31 38.93 -143.67  9.86 23.84 142.01  8.61 28.44 84.75 10.75 33.98 89.50 23.22 40.90 -23.85 19.10 40.43 -47.28 32.08 31.64 126.65 27.19 35.76 125.93
63411661 90.40 34.39 -90.04 30.26 34.13 -51.18 26.35 38.98 -142.59  9.30 24.25 137.88  8.65 28.87 83.20 10.76 34.44 89.65 23.11 40.93 -15.87 19.24 39.79 -25.52 32.09 31.64 128.47 27.21 35.74 127.43
63411680 90.40 34.39 -90.05 30.27 34.12 -51.29 26.40 39.02 -143.58  9.07 24.68 132.37  8.70 29.31 81.54 10.76 34.77 89.76 23.01 40.95 -10.48 19.54 39.36 -4.90 32.10 31.64 128.53 27.20 35.76 126.78
63411701 90.40 34.39 -90.05 30.28 34.11 -52.49 26.49 39.07 -146.63  9.05 25.01 125.25  8.76 29.77 79.81 10.76 35.00 89.84 22.96 40.99 -4.65 19.81 39.13 15.92 32.11 31.62 127.18 27.17 35.80 123.85
63411719 90.40 34.38 -90.06 30.30 34.09 -54.48 26.63 39.16 -152.27  8.99 25.29 116.71  8.83 30.24 78.01 10.76 35.11 89.90 23.00 41.04  2.02 19.94 39.01 35.51 32.13 31.59 125.22 27.11 35.87 119.18
63411739 90.40 34.27 -90.06 30.32 34.07 -57.02 26.79 39.26 -159.46  8.89 25.58 108.67  8.92 30.72 76.39 10.77 35.13 90.28 23.12 41.13  8.75 19.96 38.91 51.16 32.15 31.57 123.22 27.04 35.98 112.86
63411757 90.40 34.04 -90.06 30.33 34.05 -59.06 26.95 39.38 -167.07  8.79 25.88 101.17  9.02 31.20 75.12 10.78 35.06 90.78 23.28 41.22 15.30 19.92 38.81 62.77 32.17 31.54 120.72 26.96 36.13 105.29
63411776 90.40 33.96 -90.06 30.34 34.05 -61.53 27.07 39.51 -175.85  8.70 26.24 93.04  9.11 31.57 74.71 10.79 34.90 91.14 23.46 41.29 21.48 19.92 38.80 71.59 32.18 31.52 119.01 26.89 36.31 97.35
63411794 90.40 33.96 -90.07 30.33 34.06 -64.56 27.17 39.64 175.92  8.64 26.66 84.68  9.15 31.75 75.73 10.82 34.84 87.61 23.61 41.38 27.99 19.95 38.87 78.66 32.19 31.49 114.83 26.84 36.49 88.56
63411814 90.40 34.02 -90.07 30.33 34.08 -69.63 27.24 39.77 169.45  8.71 27.13 80.29  9.16 31.79 77.39 10.84 34.86 82.92 23.76 41.49 36.00 19.98 39.02 84.46 32.20 31.47 110.92 26.81 36.68 79.57
63411832 90.40 34.14 -90.08 30.31 34.11 -73.45 27.27 39.93 163.27  8.81 27.64 75.96  9.15 31.74 78.92 10.86 34.87 79.70 23.90 41.62 45.84 20.02 39.25 89.37 32.21 31.44 105.80 26.81 36.85 73.36
63411851 90.40 34.32 -90.08 30.30 34.16 -78.06 27.24 40.13 159.62  8.93 28.19 70.98  9.13 31.63 80.38 10.88 34.98 77.91 24.07 41.78 56.82 20.03 39.56 93.62 32.22 31.41 102.08 26.82 36.98 69.25
63411868 90.40 34.55 -90.08 30.29 34.22 -81.91 27.12 40.30 157.86  9.05 28.50 77.31  9.14 31.72 74.85 10.92 35.18 77.35 24.22 41.98 68.33 20.03 39.94 97.40 32.23 31.38 99.01 26.84 37.08 68.30
63411887 90.40 34.89 -90.09 30.27 34.28 -82.50 27.04 40.44 161.23  9.11 28.70 78.01  9.18 31.90 76.79 10.99 35.46 77.78 24.26 42.24 74.12 19.99 40.38 99.43 32.23 31.36 94.45 26.86 37.15 69.64
63411905 90.40 35.32 -90.09 30.26 34.35 -82.38 26.96 40.52 165.24  9.17 28.89 78.03  9.22 32.07 78.99 11.07 35.82 78.98 24.24 42.53 76.28 19.93 40.87 100.20 32.24 31.33 91.19 26.89 37.24 73.37
63411924 90.40 35.84 -90.09 30.26 34.42 -81.87 26.88 40.58 167.80  9.21 29.07 79.50  9.25 32.23 79.15 11.16 36.26 80.71 24.21 42.84 76.89 19.84 41.42 100.04 32.25 31.32 87.87 26.92 37.34 78.60
63411942 90.40 36.44 -90.09 30.24 34.56 -79.11 26.84 40.66 169.51  9.25 29.22 80.18  9.28 32.38 80.15 11.25 36.77 82.74 24.18 43.21 77.22 19.74 42.03 99.22 32.26 31.37 82.44 26.94 37.40 83.22
63411961 90.40 37.13 -90.10 30.23 34.68 -76.41 26.77 40.77 170.06  9.28 29.36 80.54  9.30 32.52 81.16 11.33 37.35 84.87 24.18 43.65 77.18 19.63 42.68 97.92 32.30 31.43 76.51 26.94 37.48 84.81
63411979 90.40 37.89 -90.10 30.22 34.85 -76.03 26.71 40.87 171.10  9.30 29.49 81.45  9.32 32.65 81.33 11.41 37.99 86.94 24.19 44.14 76.17 19.53 43.39 96.27 32.35 31.55 68.52 26.93 37.62 83.91
63411998 90.40 38.72 -90.10 30.18 35.07 -77.24 26.65 40.97 172.53  9.32 29.61 82.00  9.34 32.77 81.54 11.47 38.68 88.80 24.21 44.63 75.52 19.43 44.14 94.36 32.43 31.71 58.43 26.93 37.78 82.35
63412015 90.41 39.62 -90.09 30.15 35.31 -80.67 26.56 41.11 173.80  9.34 29.72 81.59  9.36 32.89 82.35 11.50 39.43 90.38 24.27 45.10 77.45 19.35 44.93 92.28 32.55 31.94 46.55 26.92 37.93 83.64
63412033 90.41 40.57 -90.09 30.11 35.59 -85.61 26.44 41.25 176.06  9.36 29.84 82.12  9.38 32.99 81.82 11.52 40.23 91.61 24.36 45.56 81.57 19.29 45.77 90.05 32.76 32.20 33.35 26.92 38.08 85.70
63412051 90.41 41.59 -90.09 30.08 35.89 -91.39 26.27 41.40 178.67  9.37 29.94 82.20  9.39 33.09 81.72 11.51 41.07 92.50 24.43 46.02 87.26 19.27 46.61 84.28 33.04 32.45 19.18 26.93 38.25 89.29
63412070 90.41 42.66 -90.09 30.08 36.22 -93.42 26.06 41.53 -177.28  9.39 30.08 82.14  9.41 33.24 82.12 11.49 41.96 93.03 24.48 46.47 93.95 19.30 47.48 75.48 33.42 32.65  4.33 26.93 38.43 91.95
63412088 90.41 43.78 -90.09 30.10 36.57 -97.87 25.83 41.66 -174.03  9.42 30.25 82.14  9.44 33.43 82.67 11.45 42.88 93.23 24.48 46.98 99.50 19.43 48.36 64.50 33.86 32.77 -11.04 26.91 38.61 95.43
63412107 90.41 44.95 -90.09 30.15 36.94 -103.63 25.56 41.77 -171.24  9.45 30.47 82.15  9.47 33.66 83.26 11.41 43.84 93.16 24.43 47.55 104.22 19.69 49.21 51.94 34.34 32.78 -26.78 26.88 38.81 99.75
63412126 90.42 46.17 -90.09 30.22 37.32 -110.32 25.26 41.86 -166.73  9.48 30.73 82.16  9.50 33.93 83.79 11.36 44.84 92.87 24.33 48.15 108.35 20.11 50.00 38.24 34.83 32.66 -42.77 26.85 39.01 102.71
63412145 90.42 46.58 -90.09 30.30 37.63 -117.71 24.93 41.93 -163.49  9.52 31.02 82.12  9.54 34.22 84.24 11.30 45.87 92.43 24.16 48.78 112.52 20.66 50.67 24.05 35.28 32.41 -58.97 26.81 39.22 107.63
63412164 90.42 46.85 -90.09 30.38 37.85 -125.48 24.59 41.96 -158.81  9.57 31.34 82.23  9.57 34.55 84.54 11.26 46.84 91.90 24.03 49.25 124.30 21.21 51.30 25.14 35.65 32.04 -75.27 26.75 39.44 111.08
63412182 90.42 46.99 -90.09 30.43 37.99 -130.06 24.19 41.97 -154.21  9.62 31.67 83.30  9.60 34.83 82.86 11.22 47.75 91.34 23.93 49.48 130.75 21.59 51.71 34.04 35.89 31.61 -91.52 26.68 39.66 114.55
63412202 90.42 47.03 -90.10 30.46 38.06 -135.49 23.79 41.93 -151.43  9.66 32.00 83.20  9.64 35.16 82.93 11.19 48.61 90.79 23.83 49.67 135.68 22.01 52.18 45.43 36.01 31.15 -107.51 26.59 39.89 119.75
63412221 90.42 47.05 -90.11 30.47 38.09 -141.16 23.38 41.86 -146.93  9.71 32.36 83.28  9.69 35.53 83.21 11.17 49.41 90.30 23.81 49.73 138.08 22.32 52.66 48.31 36.00 30.70 -123.00 26.48 40.12 124.34
63412240 90.42 47.18 -90.12 30.44 38.07 -146.93 22.96 41.74 -141.99  9.75 32.75 83.32  9.73 35.93 83.73 11.16 50.07 89.88 23.75 49.81 138.23 22.79 53.40 47.04 35.88 30.31 -137.71 26.34 40.36 128.66
63412258 90.42 47.42 -90.12 30.38 38.03 -152.67 22.55 41.58 -136.83  9.80 33.14 84.51  9.78 36.32 85.22 11.16 50.60 89.58 23.63 49.93 138.21 23.37 54.14 41.22 35.69 29.99 -151.39 26.17 40.60 131.78
63412277 90.42 47.76 -90.13 30.27 37.98 -158.27 22.14 41.39 -133.08  9.84 33.52 86.40  9.82 36.72 87.43 11.16 51.00 89.36 23.45 50.10 138.84 24.03 54.84 32.37 35.45 29.76 -163.80 25.98 40.84 136.64
63412297 90.42 48.20 -90.13 30.13 37.91 -163.55 21.75 41.16 -129.39  9.87 33.91 88.86  9.85 37.12 90.22 11.16 51.29 89.21 23.26 50.27 141.81 24.77 55.46 21.35 35.11 29.58 -173.49 25.76 41.08 141.08
63412316 90.42 48.34 -90.13 29.94 37.84 -168.46 21.36 40.89 -125.41  9.89 34.30 91.68  9.86 37.51 93.38 11.16 51.46 89.14 23.01 50.47 139.36 25.61 55.94  8.76 34.71 29.46 178.78 25.51 41.30 145.67
63412335 90.42 48.39 -90.12 29.72 37.78 -172.94 20.99 40.58 -121.72  9.90 34.68 94.75  9.85 37.91 96.80 11.16 51.53 89.16 22.71 50.73 132.97 26.50 56.25 -4.98 34.24 29.41 173.90 25.23 41.52 150.59
63412354 90.42 48.32 -90.12 29.46 37.74 -176.93 20.67 40.21 -120.75  9.88 35.07 98.03  9.83 38.30 100.30 11.16 51.50 89.23 22.39 51.04 123.74 27.41 56.37 -19.53 33.72 29.42 165.75 24.89 41.75 153.65
63412372 90.42 48.14 -90.11 29.17 37.70 179.56 20.38 39.81 -122.08  9.85 35.44 101.65  9.78 38.70 103.57 11.16 51.38 89.34 22.07 51.44 112.45 28.28 56.27 -34.68 33.15 29.50 155.24 24.48 41.98 155.16
63412391 90.42 47.85 -90.11 28.85 37.69 176.56 20.09 39.38 -125.26  9.80 35.81 105.36  9.71 39.10 106.83 11.15 51.17 89.49 21.79 51.91 99.66 29.06 55.99 -50.26 32.58 29.67 143.01 24.00 42.22 155.54
63412409 90.42 47.47 -90.10 28.50 37.69 174.06 19.79 38.94 -129.75  9.72 36.17 109.11  9.61 39.49 110.01 11.15 50.89 89.64 21.61 52.45 85.79 29.70 55.54 -66.03 32.02 29.97 129.56 23.47 42.47 155.11
63412428 90.42 46.99 -90.10 28.13 37.72 172.03 19.46 38.50 -135.10  9.63 36.51 112.82  9.49 39.88 113.10 11.15 50.53 89.79 21.54 53.05 71.15 30.16 55.00 -81.80 31.52 30.38 115.21 22.89 42.74 154.09
63412448 90.42 46.42 -90.10 27.74 37.76 170.46 19.09 38.08 -140.94  9.51 36.84 116.31  9.35 40.28 116.15 11.14 50.09 89.90 21.61 53.65 55.93 30.43 54.41 -97.34 31.13 30.89 100.20 22.33 43.01 150.87
63412467 90.42 46.23 -90.09 27.32 37.81 169.33 18.68 37.68 -146.97  9.38 37.16 119.42  9.18 40.66 119.47 11.14 49.59 89.98 21.83 54.22 40.30 30.53 53.84 -112.43 30.88 31.49 84.72 21.78 43.29 145.88
63412485 90.42 46.16 -90.09 26.89 37.89 168.62 18.22 37.33 -152.93  9.24 37.46 122.47  8.99 41.04 122.71 11.14 49.03 90.04 22.18 54.71 24.38 30.48 53.32 -126.86 30.78 32.12 68.89 21.28 43.59 139.58
63412504 90.42 46.14 -90.10 26.44 37.97 168.30 17.73 37.01 -158.63  9.08 37.74 125.55  8.78 41.42 125.85 11.14 48.41 90.08 22.65 55.08  8.24 30.32 52.88 -140.48 30.85 32.74 52.83 20.81 43.93 132.36
63412523 90.42 46.13 -90.11 25.97 38.06 168.33 17.21 36.75 -163.91  8.90 38.02 128.62  8.54 41.78 128.90 11.14 47.74 90.11 23.19 55.31 -8.06 30.08 52.53 -153.13 31.09 33.31 36.58 20.39 44.29 124.60
63412542 90.42 46.13 -90.12 25.48 38.16 168.69 16.66 36.53 -168.66  8.72 38.28 131.65  8.29 42.13 131.92 11.14 47.01 90.13 23.77 55.38 -24.48 29.73 52.24 -163.00 31.46 33.79 20.21 20.00 44.74 118.27
63412561 90.41 46.13 -90.12 24.98 38.26 169.33 16.08 36.37 -172.80  8.52 38.53 134.63  8.01 42.47 134.93 11.14 46.23 90.14 24.34 55.29 -40.97 29.30 52.02 -165.54 31.95 34.13  3.74 19.65 45.27 112.98
63412580 90.41 46.13 -90.12 24.46 38.36 170.22 15.52 36.25 -176.05  8.37 38.70 134.16  7.70 42.82 144.37 11.15 45.41 90.15 24.85 55.05 -57.52 28.80 51.83 -162.78 32.50 34.32 -12.80 19.33 45.87 108.44
63412599 90.41 46.01 -90.12 23.92 38.46 171.30 14.96 36.17 -178.55  8.33 38.76 141.05  7.35 43.15 158.20 11.15 45.13 90.16 25.27 54.67 -74.11 28.25 51.65 -156.16 33.07 34.35 -29.38 19.05 46.53 104.44
63412619 90.41 45.78 -90.12 23.37 38.55 172.52 14.41 36.13 179.54  8.33 38.77 158.09  7.05 43.37 178.88 11.15 45.04 90.17 25.51 54.28 -88.71 27.71 51.38 -147.52 33.61 34.21 -46.01 18.81 47.25 100.84
63412641 90.41 45.71 -90.12 22.81 38.64 173.74 13.88 36.11 178.08  8.30 38.79 171.18  6.80 43.48 -152.88 11.15 45.00 90.17 25.50 54.17 -97.59 27.26 50.83 -138.59 34.09 33.94 -62.64 18.61 48.02 97.52
63412667 90.41 45.68 -90.13 22.23 38.71 174.91 13.35 36.11 176.96  8.25 38.81 -178.91  6.58 43.48 -132.12 11.15 44.99 90.16 25.43 54.08 -107.66 26.84 50.29 -130.73 34.45 33.55 -79.15 18.45 48.84 94.41
63412688 90.41 45.67 -90.13 21.64 38.77 175.99 12.83 36.12 176.09  8.18 38.81 -171.55  6.42 43.43 -117.33 11.15 45.08 90.16 25.35 53.96 -120.56 26.35 49.66 -120.95 34.67 33.12 -95.34 18.34 49.70 91.45
63412710 90.41 45.78 -90.13 21.03 38.83 176.93 12.32 36.14 175.39  8.09 38.81 -166.26  6.32 43.37 -93.84 11.15 45.25 90.15 25.26 53.80 -133.59 25.88 48.97 -109.34 34.76 32.67 -110.94 18.27 50.60 88.59
63412729 90.41 46.00 -90.12 20.42 38.87 177.68 11.82 36.17 174.79  7.98 38.79 -162.67  6.28 43.32 -65.44 11.15 45.50 90.15 25.14 53.65 -145.96 25.50 48.20 -96.33 34.73 32.26 -125.62 18.25 51.53 85.82
63412749 90.41 46.32 -90.12 19.80 38.90 178.22 11.33 36.21 174.25  7.86 38.76 -160.44  6.25 43.30 -44.88 11.14 45.84 90.14 24.94 53.48 -155.59 25.27 47.39 -82.29 34.61 31.91 -139.07 18.28 52.48 83.10
63412768 90.41 46.74 -90.12 19.16 38.93 178.56 10.92 36.25 169.24  7.65 38.73 -161.33  6.24 43.29 -30.00 11.14 46.24 90.14 24.65 53.31 -163.25 25.21 46.55 -67.51 34.38 31.58 -149.51 18.35 53.42 77.66
63412786 90.41 46.88 -90.11 18.52 38.95 178.70 10.56 36.29 163.69  7.40 38.68 -163.31  6.22 43.30 -30.62 11.14 46.38 90.14 24.29 53.17 -169.50 25.34 45.75 -52.19 34.05 31.29 -157.78 18.48 54.34 69.27
63412806 90.41 46.93 -90.11 17.87 38.97 178.65 10.23 36.36 158.73  7.12 38.62 -165.69  6.18 43.31 -43.84 11.14 46.42 90.13 23.86 53.04 -173.32 25.65 45.04 -36.49 33.63 31.05 -164.48 18.72 55.26 58.59
63412824 90.41 46.95 -90.11 17.21 38.99 178.40  9.93 36.45 154.59  6.81 38.56 -168.29  6.14 43.35 -66.21 11.14 46.44 90.13 23.36 52.95 -175.37 26.12 44.46 -20.51 33.13 30.85 -170.04 19.10 56.14 46.24
63412843 90.41 46.95 -90.12 16.55 39.01 177.97  9.69 36.53 150.94  6.50 38.53 -156.89  6.10 43.40 -93.79 11.14 46.44 90.12 22.80 52.88 -176.15 26.70 44.04 -4.32 32.57 30.69 -173.36 19.62 56.92 32.69
63412861 90.41 46.95 -90.12 15.88 39.03 177.38  9.45 36.64 148.39  6.25 38.47 -134.87  6.08 43.42 -113.76 11.14 46.45 90.11 22.19 52.82 -176.01 27.34 43.80 12.02 31.96 30.57 -175.05 20.27 57.56 18.27
63412880 90.41 46.95 -90.12 15.23 39.05 176.81  9.22 36.76 146.71  6.08 38.40 -105.10  6.07 43.43 -128.22 11.14 46.45 90.11 21.53 52.77 -175.19 28.00 43.76 28.47 31.28 30.48 -175.57 21.02 58.02  3.21
63412900 90.41 46.95 -90.11 14.59 39.08 176.25  9.20 36.77 156.13  5.84 38.45 -78.58  6.06 43.43 -138.67 11.15 46.45 90.10 20.88 52.72 -172.04 28.62 43.90 44.98 30.56 30.41 -175.24 21.81 58.27 -12.24
63412918 90.41 46.95 -90.09 13.97 39.12 175.68  9.17 36.78 163.59  5.71 38.47 -59.80  6.07 43.44 -134.86 11.15 46.54 90.09 20.25 52.64 -166.75 29.14 44.18 61.49 29.80 30.34 -174.30 22.57 58.31 -27.87
